PCBNEW-LibModule-V1  11.03.2014 17:00:19
# encoding utf-8
Units mm
$INDEX
SM0805
SMD_0603
SMD_0805
$EndINDEX
$MODULE SM0805
Po 0 0 0 15 531F2289 00000000 ~~
Li SM0805
Sc 0
AR /531B0603
Op 0 0 0
At SMD
T0 0 -0.3175 0.50038 0.50038 0 0.10922 N V 21 N "C7"
T1 0 0.381 0.50038 0.50038 0 0.10922 N V 21 N "0.1uF"
DS 1.524 -0.762 1.778 -0.762 0.1 21
DS -1.524 -0.762 -1.778 -0.762 0.1 21
DS -1.778 -0.762 -1.778 0.635 0.1 21
DS 1.524 0.762 1.778 0.762 0.1 21
DS -1.524 0.762 -1.651 0.762 0.1 21
DC -1.778 0.762 -1.778 0.635 0.1 21
DS -0.508 0.762 -1.524 0.762 0.1 21
DS -1.524 -0.762 -0.508 -0.762 0.1 21
DS 0.508 -0.762 1.524 -0.762 0.1 21
DS 1.778 -0.762 1.778 0.762 0.1 21
DS 1.524 0.762 0.508 0.762 0.1 21
$PAD
Sh "1" R 1.2 1.2 0 0 0
Dr 0 0 0
At SMD N 00888000
Ne 2 "VCC"
Po -1.05 0
$EndPAD
$PAD
Sh "2" R 1.2 1.2 0 0 0
Dr 0 0 0
At SMD N 00888000
Ne 1 "GND"
Po 1.05 0
$EndPAD
$SHAPE3D
Na "grabCAD/AB2_0805_C_80.wrl"
Sc 0.4 0.4 0.4
Of 0 0 0
Ro 0 0 0
$EndSHAPE3D
$EndMODULE SM0805
$MODULE SMD_0603
Po 0 0 0 15 531F24F7 00000000 ~~
Li SMD_0603
Sc 0
AR /531AE2C1
Op 0 0 0
At SMD
T0 0.0635 -0.0635 0.50038 0.4572 900 0.1143 N V 21 N "R1"
T1 -1.69926 0 0.508 0.4572 900 0.1143 N V 21 N "330R"
DS -1.3335 -0.6985 -1.2065 -0.6985 0.1 21
DS -1.3335 0.6985 -1.2065 0.6985 0.1 21
DS 1.2065 0.6985 1.3335 0.6985 0.1 21
DS 1.2065 -0.6985 1.3335 -0.6985 0.1 21
DS -0.50038 -0.6985 -1.2065 -0.6985 0.1 21
DS -1.3335 -0.6985 -1.3335 0.6985 0.1 21
DS -1.2065 0.6985 -0.50038 0.6985 0.1 21
DS 1.2065 -0.6985 0.50038 -0.6985 0.1 21
DS 1.3335 -0.6985 1.3335 0.6985 0.1 21
DS 1.2065 0.6985 0.50038 0.6985 0.1 21
$PAD
Sh "1" R 0.9 1.143 0 0 0
Dr 0 0 0
At SMD N 00888000
Ne 2 "N-0000027"
Po -0.8 0
$EndPAD
$PAD
Sh "2" R 0.9 1.143 0 0 0
Dr 0 0 0
At SMD N 00888000
Ne 1 "N-000001"
Po 0.8 0
$EndPAD
$SHAPE3D
Na "grabCAD/AB2_0603_R.wrl"
Sc 0.4 0.4 0.4
Of 0 0 0.001
Ro 0 0 0
$EndSHAPE3D
$EndMODULE SMD_0603
$MODULE SMD_0805
Po 0 0 0 15 531F2289 00000000 ~~
Li SMD_0805
Sc 0
AR /531B0603
Op 0 0 0
At SMD
T0 0 -0.3175 0.50038 0.50038 0 0.10922 N V 21 N "C7"
T1 0 0.381 0.50038 0.50038 0 0.10922 N V 21 N "0.1uF"
DS 1.524 -0.762 1.778 -0.762 0.1 21
DS -1.524 -0.762 -1.778 -0.762 0.1 21
DS -1.778 -0.762 -1.778 0.635 0.1 21
DS 1.524 0.762 1.778 0.762 0.1 21
DS -1.524 0.762 -1.651 0.762 0.1 21
DC -1.778 0.762 -1.778 0.635 0.1 21
DS -0.508 0.762 -1.524 0.762 0.1 21
DS -1.524 -0.762 -0.508 -0.762 0.1 21
DS 0.508 -0.762 1.524 -0.762 0.1 21
DS 1.778 -0.762 1.778 0.762 0.1 21
DS 1.524 0.762 0.508 0.762 0.1 21
$PAD
Sh "1" R 1.2 1.2 0 0 0
Dr 0 0 0
At SMD N 00888000
Ne 2 "VCC"
Po -1.05 0
$EndPAD
$PAD
Sh "2" R 1.2 1.2 0 0 0
Dr 0 0 0
At SMD N 00888000
Ne 1 "GND"
Po 1.05 0
$EndPAD
$SHAPE3D
Na "grabCAD/AB2_0805_C_80.wrl"
Sc 0.4 0.4 0.4
Of 0 0 0
Ro 0 0 0
$EndSHAPE3D
$EndMODULE SMD_0805
$EndLIBRARY
