PCBNEW-LibModule-V1  08.12.2013 5:42:39
# encoding utf-8
Units mm
$INDEX
11pin
LED_3-digit_28pin
$EndINDEX
$MODULE 11pin
Po 0 0 0 15 529F97F9 00000000 ~~
Li 11pin
Cd module 1 pin (ou trou mecanique de percage)
Kw DEV
Sc 0
AR /5288E23A
Op 0 0 0
T0 0 -7.62 1.016 1.016 0 0.254 N V 21 N "AFF1"
T1 0 7.62 1.016 1.016 0 0.254 N I 21 N "MAN71A"
$PAD
Sh "9" C 1.5 1.5 0 0 0
Dr 0.5 0 0
At STD N 00E0FFFF
Ne 0 ""
Po 1.27 -5.08
$EndPAD
$PAD
Sh "8" C 1.5 1.5 0 0 0
Dr 0.5 0 0
At STD N 00E0FFFF
Ne 0 ""
Po 3.81 -5.08
$EndPAD
$PAD
Sh "7" C 1.5 1.5 0 0 0
Dr 0.5 0 0
At STD N 00E0FFFF
Ne 0 ""
Po 6.35 -5.08
$EndPAD
$PAD
Sh "10" C 1.5 1.5 0 0 0
Dr 0.5 0 0
At STD N 00E0FFFF
Ne 0 ""
Po -1.27 -5.08
$EndPAD
$PAD
Sh "11" C 1.5 1.5 0 0 0
Dr 0.5 0 0
At STD N 00E0FFFF
Ne 0 ""
Po -3.81 -5.08
$EndPAD
$PAD
Sh "6" C 1.5 1.5 0 0 0
Dr 0.5 0 0
At STD N 00E0FFFF
Ne 0 ""
Po 6.35 5.08
$EndPAD
$PAD
Sh "5" C 1.5 1.5 0 0 0
Dr 0.5 0 0
At STD N 00E0FFFF
Ne 0 ""
Po 3.81 5.08
$EndPAD
$PAD
Sh "4" C 1.5 1.5 0 0 0
Dr 0.5 0 0
At STD N 00E0FFFF
Ne 0 ""
Po 1.27 5.08
$EndPAD
$PAD
Sh "3" C 1.5 1.5 0 0 0
Dr 0.5 0 0
At STD N 00E0FFFF
Ne 0 ""
Po -1.27 5.08
$EndPAD
$PAD
Sh "2" C 1.5 1.5 0 0 0
Dr 0.5 0 0
At STD N 00E0FFFF
Ne 0 ""
Po -3.81 5.08
$EndPAD
$PAD
Sh "1" C 1.5 1.5 0 0 0
Dr 0.5 0 0
At STD N 00E0FFFF
Ne 0 ""
Po -6.35 5.08
$EndPAD
$EndMODULE 11pin
$MODULE LED_3-digit_28pin
Po 0 0 0 15 52A3DC95 00000000 ~~
Li LED_3-digit_28pin
Sc 0
AR 
Op 0 0 0
T0 0 5.715 1 1 0 0.15 N V 21 N "LED_3-digit_28pin"
T1 0 -5.715 1 1 0 0.15 N V 21 N "VAL**"
DC -16.51 7.62 -15.494 8.382 0.15 21
DS 0 -9.5 -18 -9.5 0.15 21
DS -18 -9.5 -18 9.5 0.15 21
DS -18 9.5 19 9.5 0.15 21
DS 19 9.5 19 0 0.15 21
DS 19 0 19 -9.5 0.15 21
DS 19 -9.5 0 -9.5 0.15 21
$PAD
Sh "28" C 1.5 1.5 0 0 0
Dr 1 0 0
At STD N 00E0FFFF
Ne 0 ""
Po -16.51 -7.62
$EndPAD
$PAD
Sh "1" C 1.5 1.5 0 0 0
Dr 1 0 0
At STD N 00E0FFFF
Ne 0 ""
Po -16.51 7.62
$EndPAD
$PAD
Sh "2" C 1.5 1.5 0 0 0
Dr 1 0 0
At STD N 00E0FFFF
Ne 0 ""
Po -13.97 7.62
$EndPAD
$PAD
Sh "3" C 1.5 1.5 0 0 0
Dr 1 0 0
At STD N 00E0FFFF
Ne 0 ""
Po -11.43 7.62
$EndPAD
$PAD
Sh "4" C 1.5 1.5 0 0 0
Dr 1 0 0
At STD N 00E0FFFF
Ne 0 ""
Po -8.89 7.62
$EndPAD
$PAD
Sh "5" C 1.5 1.5 0 0 0
Dr 1 0 0
At STD N 00E0FFFF
Ne 0 ""
Po -6.35 7.62
$EndPAD
$PAD
Sh "6" C 1.5 1.5 0 0 0
Dr 1 0 0
At STD N 00E0FFFF
Ne 0 ""
Po -3.81 7.62
$EndPAD
$PAD
Sh "7" C 1.5 1.5 0 0 0
Dr 1 0 0
At STD N 00E0FFFF
Ne 0 ""
Po -1.27 7.62
$EndPAD
$PAD
Sh "8" C 1.5 1.5 0 0 0
Dr 1 0 0
At STD N 00E0FFFF
Ne 0 ""
Po 1.27 7.62
$EndPAD
$PAD
Sh "9" C 1.5 1.5 0 0 0
Dr 1 0 0
At STD N 00E0FFFF
Ne 0 ""
Po 3.81 7.62
$EndPAD
$PAD
Sh "10" C 1.5 1.5 0 0 0
Dr 1 0 0
At STD N 00E0FFFF
Ne 0 ""
Po 6.35 7.62
$EndPAD
$PAD
Sh "11" C 1.5 1.5 0 0 0
Dr 1 0 0
At STD N 00E0FFFF
Ne 0 ""
Po 8.89 7.62
$EndPAD
$PAD
Sh "12" C 1.5 1.5 0 0 0
Dr 1 0 0
At STD N 00E0FFFF
Ne 0 ""
Po 11.43 7.62
$EndPAD
$PAD
Sh "13" C 1.5 1.5 0 0 0
Dr 1 0 0
At STD N 00E0FFFF
Ne 0 ""
Po 13.97 7.62
$EndPAD
$PAD
Sh "14" C 1.5 1.5 0 0 0
Dr 1 0 0
At STD N 00E0FFFF
Ne 0 ""
Po 16.51 7.62
$EndPAD
$PAD
Sh "15" C 1.5 1.5 0 0 0
Dr 1 0 0
At STD N 00E0FFFF
Ne 0 ""
Po 16.51 -7.62
$EndPAD
$PAD
Sh "16" C 1.5 1.5 0 0 0
Dr 1 0 0
At STD N 00E0FFFF
Ne 0 ""
Po 13.97 -7.62
$EndPAD
$PAD
Sh "17" C 1.5 1.5 0 0 0
Dr 1 0 0
At STD N 00E0FFFF
Ne 0 ""
Po 11.43 -7.62
$EndPAD
$PAD
Sh "18" C 1.5 1.5 0 0 0
Dr 1 0 0
At STD N 00E0FFFF
Ne 0 ""
Po 8.89 -7.62
$EndPAD
$PAD
Sh "19" C 1.5 1.5 0 0 0
Dr 1 0 0
At STD N 00E0FFFF
Ne 0 ""
Po 6.35 -7.62
$EndPAD
$PAD
Sh "20" C 1.5 1.5 0 0 0
Dr 1 0 0
At STD N 00E0FFFF
Ne 0 ""
Po 3.81 -7.62
$EndPAD
$PAD
Sh "21" C 1.5 1.5 0 0 0
Dr 1 0 0
At STD N 00E0FFFF
Ne 0 ""
Po 1.27 -7.62
$EndPAD
$PAD
Sh "22" C 1.5 1.5 0 0 0
Dr 1 0 0
At STD N 00E0FFFF
Ne 0 ""
Po -1.27 -7.62
$EndPAD
$PAD
Sh "23" C 1.5 1.5 0 0 0
Dr 1 0 0
At STD N 00E0FFFF
Ne 0 ""
Po -3.81 -7.62
$EndPAD
$PAD
Sh "24" C 1.5 1.5 0 0 0
Dr 1 0 0
At STD N 00E0FFFF
Ne 0 ""
Po -6.35 -7.62
$EndPAD
$PAD
Sh "25" C 1.5 1.5 0 0 0
Dr 1 0 0
At STD N 00E0FFFF
Ne 0 ""
Po -8.89 -7.62
$EndPAD
$PAD
Sh "26" C 1.5 1.5 0 0 0
Dr 1 0 0
At STD N 00E0FFFF
Ne 0 ""
Po -11.43 -7.62
$EndPAD
$PAD
Sh "27" C 1.5 1.5 0 0 0
Dr 1 0 0
At STD N 00E0FFFF
Ne 0 ""
Po -13.97 -7.62
$EndPAD
$EndMODULE LED_3-digit_28pin
$EndLIBRARY
