PCBNEW-LibModule-V1  16.04.2014 17:42:00
# encoding utf-8
Units mm
$INDEX
2mm_2-hole
2pin_2,5mm_spacing
2pin_5,0mm_spacing
2pin_7,5mm_spacing
Inductor_SMD_10mm
MicroSMA
MicroSMP
MiniSMA
SMA
SMB
SMC
SMF
SMP
SOD-323
TYS40183R3M-10
cap_smd_B-size_polarised
cap_smd_C-size_polarised
cap_smd_E-size_polarised
pot_SMD
smd_0612
smd_res_arr_4
$EndINDEX
$MODULE 2mm_2-hole
Po 0 0 0 15 531F2CF4 00000000 ~~
Li 2mm_2-hole
Sc 0
AR 
Op 0 0 0
T0 0 2.9845 1 1 0 0.15 N V 21 N "2mm_2-hole"
T1 0 -4.0005 1 1 0 0.15 N V 21 N "VAL**"
$PAD
Sh "1" C 1.6 1.6 0 0 0
Dr 0.6 0 0
At STD N 00E0FFFF
Ne 0 ""
Po -1 0
$EndPAD
$PAD
Sh "2" C 1.6 1.6 0 0 0
Dr 0.6 0 0
At STD N 00E0FFFF
Ne 0 ""
Po 1 0
$EndPAD
$EndMODULE 2mm_2-hole
$MODULE 2pin_2,5mm_spacing
Po 0 0 0 15 52ACCDAD 00000000 ~~
Li 2pin_2,5mm_spacing
Sc 0
AR /52ACB9B3
Op 0 0 0
T0 0 2 1 1 0 0.15 N V 21 N "C6"
T1 0 -1.5 1 1 0 0.15 N V 21 N "100uF"
$PAD
Sh "1" C 1.2 1.2 0 0 0
Dr 0.6 0 0
At STD N 00E0FFFF
Ne 1 "12V"
Po -1.25 0
$EndPAD
$PAD
Sh "2" C 1.2 1.2 0 0 0
Dr 0.6 0 0
At STD N 00E0FFFF
Ne 2 "GND"
Po 1.25 0
$EndPAD
$EndMODULE 2pin_2,5mm_spacing
$MODULE 2pin_5,0mm_spacing
Po 0 0 0 15 52ACCE09 00000000 ~~
Li 2pin_5,0mm_spacing
Sc 0
AR 
Op 0 0 0
T0 0 2 1 1 0 0.15 N V 21 N "2pin_5,0mm_spacing"
T1 0 -1.5 1 1 0 0.15 N V 21 N "VAL**"
$PAD
Sh "1" C 1.2 1.2 0 0 0
Dr 0.6 0 0
At STD N 00E0FFFF
Ne 0 ""
Po -2.5 0
$EndPAD
$PAD
Sh "2" C 1.2 1.2 0 0 0
Dr 0.6 0 0
At STD N 00E0FFFF
Ne 0 ""
Po 2.5 0
$EndPAD
$EndMODULE 2pin_5,0mm_spacing
$MODULE 2pin_7,5mm_spacing
Po 0 0 0 15 52ACCE24 00000000 ~~
Li 2pin_7,5mm_spacing
Sc 0
AR 
Op 0 0 0
T0 0 2 1 1 0 0.15 N V 21 N "2pin_7,5mm_spacing"
T1 0 -1.5 1 1 0 0.15 N V 21 N "VAL**"
$PAD
Sh "1" C 1.2 1.2 0 0 0
Dr 0.6 0 0
At STD N 00E0FFFF
Ne 0 ""
Po -3.75 0
$EndPAD
$PAD
Sh "2" C 1.2 1.2 0 0 0
Dr 0.6 0 0
At STD N 00E0FFFF
Ne 0 ""
Po 3.75 0
$EndPAD
$EndMODULE 2pin_7,5mm_spacing
$MODULE Inductor_SMD_10mm
Po 0 0 0 15 52A3BDBF 00000000 ~~
Li Inductor_SMD_10mm
Sc 0
AR 
Op 0 0 0
T0 0 7 1 1 0 0.15 N V 21 N "Inductor_SMD_10mm"
T1 0 -6 1 1 0 0.15 N V 21 N "VAL**"
DA 4 0 4 -1 900 0.15 21
DA 4 0 3 0 900 0.15 21
DA 2 0 2 -1 900 0.15 21
DA 2 0 1 0 900 0.15 21
DA 0 0 0 -1 900 0.15 21
DA 0 0 -1 0 900 0.15 21
DA -2 0 -2 -1 900 0.15 21
DA -2 0 -3 0 900 0.15 21
DA -4 0 -4 -1 900 0.15 21
DA -4 0 -5 0 900 0.15 21
$PAD
Sh "1" R 10 3.6 0 0 0
Dr 0 0 0
At SMD N 00888000
Ne 0 ""
Po 0 -3.2
$EndPAD
$PAD
Sh "2" R 10 3.6 0 0 0
Dr 0 0 0
At SMD N 00888000
Ne 0 ""
Po 0 3.2
$EndPAD
$EndMODULE Inductor_SMD_10mm
$MODULE MicroSMA
Po 0 0 0 15 53457590 00000000 ~~
Li MicroSMA
Sc 0
AR 
Op 0 0 0
T0 0 1.5 1 1 0 0.15 N V 21 N "MicroSMA"
T1 0 -1.75 1 1 0 0.15 N V 21 N "VAL**"
DS 0 -0.889 0 0.889 0.15 21
DS -2.667 -0.889 1.397 -0.889 0.15 21
DS 1.397 -0.889 1.397 0.889 0.15 21
DS 1.397 0.889 -2.667 0.889 0.15 21
DS -2.667 0.889 -2.667 -0.889 0.15 21
$PAD
Sh "2" R 0.8 1 0 0 0
Dr 0 0 0
At SMD N 00888000
Ne 0 ""
Po 0.65 0
$EndPAD
$PAD
Sh "1" R 2 1.1 0 0 0
Dr 0 0 0
At SMD N 00888000
Ne 0 ""
Po -1.25 0
$EndPAD
$SHAPE3D
Na "../../KICAD_3D/MicroSMA.wrl"
Sc 0.4 0.4 0.4
Of 0 0 0
Ro 0 0 180
$EndSHAPE3D
$EndMODULE MicroSMA
$MODULE MicroSMP
Po 0 0 0 15 53457562 00000000 ~~
Li MicroSMP
Sc 0
AR 
Op 0 0 0
T0 0 -1.524 1 1 0 0.15 N V 21 N "MicroSMP"
T1 0 1.778 1 1 0 0.15 N V 21 N "VAL**"
DS 0 -0.889 0 0.889 0.15 21
DS 1.397 0.889 1.397 -0.889 0.15 21
DS 1.397 -0.889 -2.54 -0.889 0.15 21
DS -2.54 -0.889 -2.54 0.889 0.15 21
DS -2.54 0.889 1.397 0.889 0.15 21
DS 0.3 0 0.3 -0.4 0.01 21
DS 0.3 -0.4 1.1 -0.4 0.01 21
DS 1.1 -0.4 1.1 0 0.01 21
DS 1.1 0 1.1 0.4 0.01 21
DS 1.1 0.4 0.3 0.4 0.01 21
DS 0.3 0.4 0.3 0 0.01 21
$PAD
Sh "1" R 2 1.1 0 0 0
Dr 0 0 0
At SMD N 00888000
Ne 0 ""
Po -1.2 0
$EndPAD
$PAD
Sh "2" R 0.8 0.8 0 0 0
Dr 0 0 0
At SMD N 00888000
Ne 0 ""
Po 0.7 0
$EndPAD
$SHAPE3D
Na "../../KICAD_3D/MicroSMP.wrl"
Sc 0.4 0.4 0.4
Of 0 0 0
Ro 0 0 0
$EndSHAPE3D
$EndMODULE MicroSMP
$MODULE MiniSMA
Po 0 0 0 15 5342A66B 00000000 ~~
Li MiniSMA
Sc 0
AR 
Op 0 0 0
T0 0 2.413 1 1 0 0.15 N V 21 N "MiniSMA"
T1 0 -2.032 1 1 0 0.15 N V 21 N "VAL**"
DS 0.75 1 0.75 -1 0.15 21
DS -2.75 -1 2.75 -1 0.15 21
DS 2.75 -1 2.75 1 0.15 21
DS 2.75 1 -2.75 1 0.15 21
DS -2.75 1 -2.75 -1 0.15 21
$PAD
Sh "1" R 1.5 1.5 0 0 0
Dr 0 0 0
At SMD N 00888000
Ne 0 ""
Po -1.75 0
$EndPAD
$PAD
Sh "2" R 1.5 1.5 0 0 0
Dr 0 0 0
At SMD N 00888000
Ne 0 ""
Po 1.75 0
$EndPAD
$SHAPE3D
Na "../../KICAD_3D/MiniSMA.wrl"
Sc 0.4 0.4 0.4
Of 0 0 0
Ro 0 0 0
$EndSHAPE3D
$EndMODULE MiniSMA
$MODULE SMA
Po 0 0 0 15 53457174 00000000 ~~
Li SMA
Sc 0
AR 
Op 0 0 0
T0 0 -3 1 1 0 0.15 N V 21 N "SMA"
T1 0 3 1 1 0 0.15 N V 21 N "VAL**"
DS 0.635 -1.905 0.635 1.905 0.15 21
DS -3.175 -1.905 3.175 -1.905 0.15 21
DS 3.175 -1.905 3.175 1.905 0.15 21
DS 3.175 1.905 -3.175 1.905 0.15 21
DS -3.175 1.905 -3.175 -1.905 0.15 21
$PAD
Sh "1" R 1.7 2.5 0 0 0
Dr 0 0 0
At SMD N 00888000
Ne 0 ""
Po -2 0
$EndPAD
$PAD
Sh "2" R 1.7 2.5 0 0 0
Dr 0 0 0
At SMD N 00888000
Ne 0 ""
Po 2 0
$EndPAD
$SHAPE3D
Na "../../KICAD_3D/SMA.wrl"
Sc 0.4 0.4 0.4
Of 0 0 0
Ro 0 0 180
$EndSHAPE3D
$EndMODULE SMA
$MODULE SMB
Po 0 0 0 15 53457157 00000000 ~~
Li SMB
Sc 0
AR 
Op 0 0 0
T0 0 -3.175 1 1 0 0.15 N V 21 N "SMB"
T1 0 3.175 1 1 0 0.15 N V 21 N "VAL**"
DS 0.635 -2.54 0.635 2.54 0.15 21
DS -3.81 -2.54 3.81 -2.54 0.15 21
DS 3.81 -2.54 3.81 2.54 0.15 21
DS 3.81 2.54 -3.81 2.54 0.15 21
DS -3.81 2.54 -3.81 -2.54 0.15 21
$PAD
Sh "1" R 2.5 2.3 0 0 0
Dr 0 0 0
At SMD N 00888000
Ne 0 ""
Po -2.15 0
$EndPAD
$PAD
Sh "2" R 2.5 2.3 0 0 0
Dr 0 0 0
At SMD N 00888000
Ne 0 ""
Po 2.15 0
$EndPAD
$SHAPE3D
Na "../../KICAD_3D/SMB.wrl"
Sc 0.4 0.4 0.4
Of 0 0 0
Ro 0 0 0
$EndSHAPE3D
$EndMODULE SMB
$MODULE SMC
Po 0 0 0 15 53484575 00000000 ~~
Li SMC
Sc 0
AR 
Op 0 0 0
T0 0 -2.159 1 1 0 0.15 N V 21 N "SMC"
T1 0 3.302 1 1 0 0.15 N V 21 N "VAL**"
DS 1.397 -2.54 1.397 2.54 0.15 21
DS 1.27 -2.54 1.27 2.54 0.15 21
DS -5.08 -2.54 5.08 -2.54 0.15 21
DS 5.08 -2.54 5.08 2.54 0.15 21
DS 5.08 2.54 -5.08 2.54 0.15 21
DS -5.08 2.54 -5.08 -2.54 0.15 21
$PAD
Sh "1" R 2.5 3.3 0 0 0
Dr 0 0 0
At SMD N 00888000
Ne 0 ""
Po -3.4 0
$EndPAD
$PAD
Sh "2" R 2.5 3.3 0 0 0
Dr 0 0 0
At SMD N 00888000
Ne 0 ""
Po 3.4 0
$EndPAD
$SHAPE3D
Na "../../KICAD_3D/SMC.wrl"
Sc 0.4 0.4 0.4
Of 0 0 0
Ro 0 0 0
$EndSHAPE3D
$EndMODULE SMC
$MODULE SMF
Po 0 0 0 15 53499597 00000000 ~~
Li SMF
Sc 0
AR 
Op 0 0 0
T0 0 2.286 1 1 0 0.15 N V 21 N "SMF"
T1 0 -2.286 1 1 0 0.15 N V 21 N "VAL**"
DS 0.5 -1 0.5 1 0.15 21
DS -2.3 -1 2.3 -1 0.15 21
DS 2.3 -1 2.3 1 0.15 21
DS 2.3 1 -2.3 1 0.15 21
DS -2.3 1 -2.3 -1 0.15 21
$PAD
Sh "1" R 1.3 1.4 0 0 0
Dr 0 0 0
At SMD N 00888000
Ne 0 ""
Po -1.45 0
$EndPAD
$PAD
Sh "2" R 1.3 1.4 0 0 0
Dr 0 0 0
At SMD N 00888000
Ne 0 ""
Po 1.45 0
$EndPAD
$SHAPE3D
Na "../../KICAD_3D/SMF.wrl"
Sc 0.4 0.4 0.4
Of 0 0 0
Ro 0 0 0
$EndSHAPE3D
$EndMODULE SMF
$MODULE SMP
Po 0 0 0 15 534EA4B1 00000000 ~~
Li SMP
Sc 0
AR 
Op 0 0 0
T0 0 2.7 1 1 0 0.15 N V 21 N "SMP"
T1 0 -1.8 1 1 0 0.15 N V 21 N "VAL**"
DS 2.2 1.4 2.1 1.4 0.15 21
DS 2.2 -1.4 2.1 -1.4 0.15 21
DS 2.2 1.4 2.3 1.4 0.15 21
DS 2.3 1.4 2.3 -1.4 0.15 21
DS 2.3 -1.4 2.2 -1.4 0.15 21
DS -2.3 -1.4 2.1 -1.4 0.15 21
DS 2.1 -1.4 2.1 1.4 0.15 21
DS 2.1 1.4 -2.4 1.4 0.15 21
DS -2.4 1.4 -2.4 -1.4 0.15 21
DS -2.4 -1.4 -2.3 -1.4 0.15 21
$PAD
Sh "2" R 2.67 2.54 0 0 0
Dr 0 0 0
At SMD N 00888000
Ne 0 ""
Po 0.6525 0
$EndPAD
$PAD
Sh "1" R 0.762 1.27 0 0 0
Dr 0 0 0
At SMD N 00888000
Ne 0 ""
Po -1.6985 0
$EndPAD
$SHAPE3D
Na "../../KICAD_3D/SMP.wrl"
Sc 0.4 0.4 0.4
Of 0 0 0
Ro 0 0 180
$EndSHAPE3D
$EndMODULE SMP
$MODULE SOD-323
Po 0 0 0 15 529FA9A7 00000000 ~~
Li SOD-323
Sc 0
AR 
Op 0 0 0
T0 0 -2.54 1 1 0 0.15 N V 21 N "SOD323"
T1 0 2.54 1 1 0 0.15 N V 21 N "VAL**"
DS 1.8 1.2 -1.8 1.2 0.1 21
DS -1.8 -1.2 1.8 -1.2 0.1 21
$PAD
Sh "1" R 0.65 1.35 0 0 0
Dr 0 0 0
At SMD N 00888000
Ne 0 ""
Po -1.2 0
$EndPAD
$PAD
Sh "2" R 0.65 1.35 0 0 0
Dr 0 0 0
At SMD N 00888000
Ne 0 ""
Po 1.2 0
$EndPAD
$EndMODULE SOD-323
$MODULE TYS40183R3M-10
Po 0 0 0 15 52E28C89 00000000 ~~
Li TYS40183R3M-10
Kw INDUCTOR, COIL
Sc 0
AR 
Op 0 0 0
T0 0 -3 1 1 0 0.15 N V 21 N "TYS40183R3M-10"
T1 0 3 1 1 0 0.15 N V 21 N "VAL**"
DA -0.25 1 0.25 1 900 0.15 21
DA -0.25 1 -0.25 0.5 900 0.15 21
DA -0.25 -1 -0.25 -1.5 900 0.15 21
DA -0.25 -1 0.25 -1 900 0.15 21
DA -0.25 0 -0.25 -0.5 900 0.15 21
DA -0.25 0 0.25 0 900 0.15 21
DS 2 2 -2 2 0.15 21
DS -2 -2 2 -2 0.15 21
$PAD
Sh "1" R 1.1 3.4 0 0 0
Dr 0 0 0
At SMD N 00888000
Ne 0 ""
Po -1.5 0
$EndPAD
$PAD
Sh "2" R 1.1 3.4 0 0 0
Dr 0 0 0
At SMD N 00888000
Ne 0 ""
Po 1.5 0
$EndPAD
$SHAPE3D
Na "coils/SMT43.wrl"
Sc 1 1 1
Of 0 0 0
Ro 0 0 0
$EndSHAPE3D
$EndMODULE TYS40183R3M-10
$MODULE cap_smd_B-size_polarised
Po 0 0 0 15 52A3D52D 00000000 ~~
Li cap_smd_B-size_polarised
Sc 0
AR 
Op 0 0 0
T0 0 5.08 1 1 0 0.15 N V 21 N "cap_smd_B-size_polarised"
T1 0 -3.302 1 1 0 0.15 N V 21 N "VAL**"
DS 0.6 1 1.4 1 0.15 21
DS 1 0.6 1 1.4 0.15 21
DC 0 0 2 0 0.15 21
$PAD
Sh "2" R 0.65 1.8 0 0 0
Dr 0 0 0
At SMD N 00888000
Ne 0 ""
Po 0 -1.4
$EndPAD
$PAD
Sh "1" R 0.65 1.8 0 0 0
Dr 0 0 0
At SMD N 00888000
Ne 0 ""
Po 0 1.4
$EndPAD
$EndMODULE cap_smd_B-size_polarised
$MODULE cap_smd_C-size_polarised
Po 0 0 0 15 52A3D456 00000000 ~~
Li cap_smd_C-size_polarised
Sc 0
AR 
Op 0 0 0
T0 0 5.08 1 1 0 0.15 N V 21 N "cap_smd_C-size_polarised"
T1 0 -3.302 1 1 0 0.15 N V 21 N "VAL**"
DC 1 1.4 1.4 1.8 0.05 21
DS 0.6 1.4 1.4 1.4 0.05 21
DS 1 1 1 1.8 0.05 21
DC 0 0 2.5 0 0.15 21
$PAD
Sh "2" R 0.65 2.2 0 0 0
Dr 0 0 0
At SMD N 00888000
Ne 0 ""
Po 0 -1.85
$EndPAD
$PAD
Sh "1" R 0.65 2.2 0 0 0
Dr 0 0 0
At SMD N 00888000
Ne 0 ""
Po 0 1.85
$EndPAD
$EndMODULE cap_smd_C-size_polarised
$MODULE cap_smd_E-size_polarised
Po 0 0 0 15 52A3C52C 00000000 ~~
Li cap_smd_E-size_polarised
Sc 0
AR 
Op 0 0 0
T0 0 6 1 1 0 0.15 N V 21 N "cap_smd_E-size_polarised"
T1 0 -7 1 1 0 0.15 N V 21 N "VAL**"
DC 1.5 2.5 2 3 0.15 21
DS 1 2.5 2 2.5 0.15 21
DS 1.5 2 1.5 3 0.15 21
DC 0 0 4 0 0.15 21
$PAD
Sh "1" R 0.65 3.4 0 0 0
Dr 0 0 0
At SMD N 00888000
Ne 0 ""
Po 0 2.8
$EndPAD
$PAD
Sh "2" R 0.65 3.4 0 0 0
Dr 0 0 0
At SMD N 00888000
Ne 0 ""
Po 0 -2.8
$EndPAD
$EndMODULE cap_smd_E-size_polarised
$MODULE pot_SMD
Po 0 0 0 15 529FAFA4 00000000 ~~
Li pot_SMD
Sc 0
AR 
Op 0 0 0
T0 0 -3.81 1 1 0 0.15 N V 21 N "pot_SMD"
T1 0 3.81 1 1 0 0.15 N V 21 N "VAL**"
DS 0.5 0 0 0 0.1 21
DS 0 0 0 0.5 0.1 21
DS -0.5 0 0 0 0.1 21
DS 0 0 0 -0.5 0.1 21
DA 0 0 1.4 0.9 900 0.1 21
DA 0 0 -0.9 -1.4 900 0.1 21
$PAD
Sh "2" R 1.5 1.6 0 0 0
Dr 0 0 0
At SMD N 00888000
Ne 0 ""
Po 1.65 0
$EndPAD
$PAD
Sh "3" R 1.2 1.2 0 0 0
Dr 0 0 0
At SMD N 00888000
Ne 0 ""
Po -1.6 -1
$EndPAD
$PAD
Sh "1" R 1.2 1.2 0 0 0
Dr 0 0 0
At SMD N 00888000
Ne 0 ""
Po -1.6 1
$EndPAD
$EndMODULE pot_SMD
$MODULE smd_0612
Po 0 0 0 15 52A3D6BC 00000000 ~~
Li smd_0612
Sc 0
AR 
Op 0 0 0
T0 0 3 1 1 0 0.15 N V 21 N "smd_0612"
T1 0 -2.8 1 1 0 0.15 N V 21 N "VAL**"
DS -2 2 2 2 0.15 21
DS 2 2 2 -2 0.15 21
DS 2 -2 -2 -2 0.15 21
DS -2 -2 -2 2 0.15 21
$PAD
Sh "1" R 3.2 1.1 0 0 0
Dr 0 0 0
At SMD N 00888000
Ne 0 ""
Po 0 1.05
$EndPAD
$PAD
Sh "2" R 3.2 1.1 0 0 0
Dr 0 0 0
At SMD N 00888000
Ne 0 ""
Po 0 -1.05
$EndPAD
$EndMODULE smd_0612
$MODULE smd_res_arr_4
Po 0 0 0 15 52A3DA57 00000000 ~~
Li smd_res_arr_4
Sc 0
AR 
Op 0 0 0
T0 0 1.905 1 1 0 0.15 N V 21 N "res_arr_4"
T1 0 -1.905 1 1 0 0.15 N V 21 N "VAL**"
$PAD
Sh "8" R 0.7 0.5 0 0 0
Dr 0 0 0
At SMD N 00888000
Ne 0 ""
Po -1.2 -0.65
$EndPAD
$PAD
Sh "2" R 0.5 0.5 0 0 0
Dr 0 0 0
At SMD N 00888000
Ne 0 ""
Po -0.4 0.65
$EndPAD
$PAD
Sh "3" R 0.5 0.5 0 0 0
Dr 0 0 0
At SMD N 00888000
Ne 0 ""
Po 0.4 0.65
$EndPAD
$PAD
Sh "6" R 0.5 0.5 0 0 0
Dr 0 0 0
At SMD N 00888000
Ne 0 ""
Po 0.4 -0.65
$EndPAD
$PAD
Sh "7" R 0.5 0.5 0 0 0
Dr 0 0 0
At SMD N 00888000
Ne 0 ""
Po -0.4 -0.65
$EndPAD
$PAD
Sh "1" R 0.7 0.5 0 0 0
Dr 0 0 0
At SMD N 00888000
Ne 0 ""
Po -1.2 0.65
$EndPAD
$PAD
Sh "4" R 0.7 0.5 0 0 0
Dr 0 0 0
At SMD N 00888000
Ne 0 ""
Po 1.2 0.65
$EndPAD
$PAD
Sh "5" R 0.7 0.5 0 0 0
Dr 0 0 0
At SMD N 00888000
Ne 0 ""
Po 1.2 -0.65
$EndPAD
$EndMODULE smd_res_arr_4
$EndLIBRARY
