PCBNEW-LibModule-V1  08.05.2014 22:39:35
# encoding utf-8
Units mm
$INDEX
MQ
MQ-2
SIL-17
SIL-18
crystal_5.08
quarz_145
quarz_206
quarz_308
$EndINDEX
$MODULE MQ
Po 0 0 0 15 536BA1CA 00000000 ~~
Li MQ
Sc 0
AR 
Op 0 0 0
T0 0 -1.6 1 1 0 0.15 N V 21 N "MQ"
T1 0 1.2 1 1 0 0.15 N V 21 N "VAL**"
DS -0.5 0.5 -1.5 1.5 0.15 21
DS 0.5 -0.5 1.5 -1.5 0.15 21
DS 0 -1 1 0 0.15 21
DS -1 0 0 1 0.15 21
DS -0.5 0 0 0.5 0.15 21
DS 0 0.5 0.5 0 0.15 21
DS 0.5 0 0 -0.5 0.15 21
DS 0 -0.5 -0.5 0 0.15 21
DS -3.5 -2 -3.5 -2.5 0.15 21
DS -3.5 0.5 -3.5 -0.5 0.15 21
DS -3.5 2.5 -3.5 2 0.15 21
DS 3.5 2.5 3.5 2 0.15 21
DS 3.5 -0.5 3.5 0.5 0.15 21
DS -3.5 2.5 3.5 2.5 0.15 21
DS -3.5 -2.5 3.5 -2.5 0.15 21
$PAD
Sh "2" R 2.2 1.4 0 0 0
Dr 0 0 0
At SMD N 00888000
Ne 0 ""
Po 3.15 1.25
$EndPAD
$PAD
Sh "3" R 2.2 1.4 0 0 0
Dr 0 0 0
At SMD N 00888000
Ne 0 ""
Po 3.15 -1.25
$EndPAD
$PAD
Sh "4" R 2.2 1.4 0 0 0
Dr 0 0 0
At SMD N 00888000
Ne 0 ""
Po -3.15 -1.25
$EndPAD
$PAD
Sh "1" R 2.2 1.4 0 0 0
Dr 0 0 0
At SMD N 00888000
Ne 0 ""
Po -3.15 1.25
$EndPAD
$EndMODULE MQ
$MODULE MQ-2
Po 0 0 0 15 536BA256 00000000 ~~
Li MQ-2
Sc 0
AR 
Op 0 0 0
T0 0 -1.6 1 1 0 0.15 N V 21 N "MQ-2"
T1 0 1.2 1 1 0 0.15 N V 21 N "VAL**"
DS -3.5 -1.5 -3.5 -2 0.15 21
DS -3.5 2 -3.5 1.5 0.15 21
DS 3.5 2 3.5 1.5 0.15 21
DS 3.5 -2.5 3.5 -1.5 0.15 21
DS -3.5 -2 -3.5 -2.5 0.15 21
DS -3.5 2.5 -3.5 2 0.15 21
DS 3.5 2.5 3.5 2 0.15 21
DS -3.5 2.5 3.5 2.5 0.15 21
DS -3.5 -2.5 3.5 -2.5 0.15 21
$PAD
Sh "1" R 2.2 2.4 0 0 0
Dr 0 0 0
At SMD N 00888000
Ne 0 ""
Po -3.15 0
$EndPAD
$PAD
Sh "2" R 2.2 2.4 0 0 0
Dr 0 0 0
At SMD N 00888000
Ne 0 ""
Po 3.15 0
$EndPAD
$EndMODULE MQ-2
$MODULE SIL-17
Po 0 0 0 15 536BAEE2 00000000 ~~
Li SIL-17
Cd Connecteur 18 pins
Kw CONN DEV
Sc 0
AR /536B1E90
Op 0 0 0
T0 -12.7 -2.54 1.72974 1.08712 0 0.3048 N V 21 N "P2"
T1 8.89 -2.54 1.524 1.016 0 0.3048 N V 21 N "CONN_17"
$PAD
Sh "1" R 1.397 1.397 0 0 0
Dr 0.8128 0 0
At STD N 00E0FFFF
Ne 17 "WUB_P"
Po -21.59 0
$EndPAD
$PAD
Sh "2" C 1.397 1.397 0 0 0
Dr 0.8128 0 0
At STD N 00E0FFFF
Ne 4 "BC3"
Po -19.05 0
$EndPAD
$PAD
Sh "3" C 1.397 1.397 0 0 0
Dr 0.8128 0 0
At STD N 00E0FFFF
Ne 3 "BC2"
Po -16.51 0
$EndPAD
$PAD
Sh "4" C 1.397 1.397 0 0 0
Dr 0.8128 0 0
At STD N 00E0FFFF
Ne 2 "BC1"
Po -13.97 0
$EndPAD
$PAD
Sh "5" C 1.397 1.397 0 0 0
Dr 0.8128 0 0
At STD N 00E0FFFF
Ne 1 "BC0"
Po -11.43 0
$EndPAD
$PAD
Sh "6" C 1.397 1.397 0 0 0
Dr 0.8128 0 0
At STD N 00E0FFFF
Ne 12 "BD7"
Po -8.89 0
$EndPAD
$PAD
Sh "7" C 1.397 1.397 0 0 0
Dr 0.8128 0 0
At STD N 00E0FFFF
Ne 11 "BD6"
Po -6.35 0
$EndPAD
$PAD
Sh "8" C 1.397 1.397 0 0 0
Dr 0.8128 0 0
At STD N 00E0FFFF
Ne 10 "BD5"
Po -3.81 0
$EndPAD
$PAD
Sh "9" C 1.397 1.397 0 0 0
Dr 0.8128 0 0
At STD N 00E0FFFF
Ne 9 "BD4"
Po -1.27 0
$EndPAD
$PAD
Sh "10" C 1.397 1.397 0 0 0
Dr 0.8128 0 0
At STD N 00E0FFFF
Ne 8 "BD3"
Po 1.27 0
$EndPAD
$PAD
Sh "11" C 1.397 1.397 0 0 0
Dr 0.8128 0 0
At STD N 00E0FFFF
Ne 7 "BD2"
Po 3.81 0
$EndPAD
$PAD
Sh "12" C 1.397 1.397 0 0 0
Dr 0.8128 0 0
At STD N 00E0FFFF
Ne 6 "BD1"
Po 6.35 0
$EndPAD
$PAD
Sh "13" C 1.397 1.397 0 0 0
Dr 0.8128 0 0
At STD N 00E0FFFF
Ne 5 "BD0"
Po 8.89 0
$EndPAD
$PAD
Sh "14" C 1.397 1.397 0 0 0
Dr 0.8128 0 0
At STD N 00E0FFFF
Ne 14 "PWEN"
Po 11.43 0
$EndPAD
$PAD
Sh "15" C 1.397 1.397 0 0 0
Dr 0.8128 0 0
At STD N 00E0FFFF
Ne 13 "GND"
Po 13.97 0
$EndPAD
$PAD
Sh "16" C 1.397 1.397 0 0 0
Dr 0.8128 0 0
At STD N 00E0FFFF
Ne 16 "VIO"
Po 16.51 0
$EndPAD
$PAD
Sh "17" C 1.397 1.397 0 0 0
Dr 0.8128 0 0
At STD N 00E0FFFF
Ne 15 "VCC"
Po 19.05 0
$EndPAD
$EndMODULE SIL-17
$MODULE SIL-18
Po 0 0 0 15 00200000 00000000 ~~
Li SIL-18
Cd Connecteur 18 pins
Kw CONN DEV
Sc 0
AR /536BC059
Op 0 0 0
T0 -12.7 -2.54 1.72974 1.08712 0 0.3048 N V 21 N "P1"
T1 8.89 -2.54 1.524 1.016 0 0.3048 N V 21 N "CONN_18"
DS -22.86 -1.27 22.86 -1.27 0.3048 21
DS 22.86 -1.27 22.86 1.27 0.3048 21
DS 22.86 1.27 -22.86 1.27 0.3048 21
DS -22.86 1.27 -22.86 -1.27 0.3048 21
DS -20.32 -1.27 -20.32 1.27 0.3048 21
$PAD
Sh "1" R 1.397 1.397 0 0 0
Dr 0.8128 0 0
At STD N 00E0FFFF
Ne 17 "VCC"
Po -21.59 0
$EndPAD
$PAD
Sh "2" C 1.397 1.397 0 0 0
Dr 0.8128 0 0
At STD N 00E0FFFF
Ne 14 "RESET_P"
Po -19.05 0
$EndPAD
$PAD
Sh "3" C 1.397 1.397 0 0 0
Dr 0.8128 0 0
At STD N 00E0FFFF
Ne 13 "RESET_OUT_P"
Po -16.51 0
$EndPAD
$PAD
Sh "4" C 1.397 1.397 0 0 0
Dr 0.8128 0 0
At STD N 00E0FFFF
Ne 16 "USB_P"
Po -13.97 0
$EndPAD
$PAD
Sh "5" C 1.397 1.397 0 0 0
Dr 0.8128 0 0
At STD N 00E0FFFF
Ne 15 "USB_M"
Po -11.43 0
$EndPAD
$PAD
Sh "6" C 1.397 1.397 0 0 0
Dr 0.8128 0 0
At STD N 00E0FFFF
Ne 18 "WUA_P"
Po -8.89 0
$EndPAD
$PAD
Sh "7" C 1.397 1.397 0 0 0
Dr 0.8128 0 0
At STD N 00E0FFFF
Ne 4 "AC3"
Po -6.35 0
$EndPAD
$PAD
Sh "8" C 1.397 1.397 0 0 0
Dr 0.8128 0 0
At STD N 00E0FFFF
Ne 3 "AC2"
Po -3.81 0
$EndPAD
$PAD
Sh "9" C 1.397 1.397 0 0 0
Dr 0.8128 0 0
At STD N 00E0FFFF
Ne 2 "AC1"
Po -1.27 0
$EndPAD
$PAD
Sh "10" C 1.397 1.397 0 0 0
Dr 0.8128 0 0
At STD N 00E0FFFF
Ne 1 "AC0"
Po 1.27 0
$EndPAD
$PAD
Sh "11" C 1.397 1.397 0 0 0
Dr 0.8128 0 0
At STD N 00E0FFFF
Ne 12 "Ad7"
Po 3.81 0
$EndPAD
$PAD
Sh "12" C 1.397 1.397 0 0 0
Dr 0.8128 0 0
At STD N 00E0FFFF
Ne 11 "AD6"
Po 6.35 0
$EndPAD
$PAD
Sh "13" C 1.397 1.397 0 0 0
Dr 0.8128 0 0
At STD N 00E0FFFF
Ne 10 "AD5"
Po 8.89 0
$EndPAD
$PAD
Sh "14" C 1.397 1.397 0 0 0
Dr 0.8128 0 0
At STD N 00E0FFFF
Ne 9 "AD4"
Po 11.43 0
$EndPAD
$PAD
Sh "15" C 1.397 1.397 0 0 0
Dr 0.8128 0 0
At STD N 00E0FFFF
Ne 8 "AD3"
Po 13.97 0
$EndPAD
$PAD
Sh "16" C 1.397 1.397 0 0 0
Dr 0.8128 0 0
At STD N 00E0FFFF
Ne 7 "AD2"
Po 16.51 0
$EndPAD
$PAD
Sh "17" C 1.397 1.397 0 0 0
Dr 0.8128 0 0
At STD N 00E0FFFF
Ne 6 "AD1"
Po 19.05 0
$EndPAD
$PAD
Sh "18" C 1.397 1.397 0 0 0
Dr 0.8128 0 0
At STD N 00E0FFFF
Ne 5 "AD0"
Po 21.59 0
$EndPAD
$SHAPE3D
Na "grabCAD/AB2_HDR_M01-1V.wrl"
Sc 0.4 0.4 0.4
Of 0.85 0 0
Ro 0 0 0
$EndSHAPE3D
$SHAPE3D
Na "grabCAD/AB2_HDR_M01-1V.wrl"
Sc 0.4 0.4 0.4
Of 0.75 0 0
Ro 0 0 0
$EndSHAPE3D
$SHAPE3D
Na "grabCAD/AB2_HDR_M01-1V.wrl"
Sc 0.4 0.4 0.4
Of 0.65 0 0
Ro 0 0 0
$EndSHAPE3D
$SHAPE3D
Na "grabCAD/AB2_HDR_M01-1V.wrl"
Sc 0.4 0.4 0.4
Of 0.55 0 0
Ro 0 0 0
$EndSHAPE3D
$SHAPE3D
Na "grabCAD/AB2_HDR_M01-1V.wrl"
Sc 0.4 0.4 0.4
Of 0.45 0 0
Ro 0 0 0
$EndSHAPE3D
$SHAPE3D
Na "grabCAD/AB2_HDR_M01-1V.wrl"
Sc 0.4 0.4 0.4
Of 0.35 0 0
Ro 0 0 0
$EndSHAPE3D
$SHAPE3D
Na "grabCAD/AB2_HDR_M01-1V.wrl"
Sc 0.4 0.4 0.4
Of 0.25 0 0
Ro 0 0 0
$EndSHAPE3D
$SHAPE3D
Na "grabCAD/AB2_HDR_M01-1V.wrl"
Sc 0.4 0.4 0.4
Of 0.15 0 0
Ro 0 0 0
$EndSHAPE3D
$SHAPE3D
Na "grabCAD/AB2_HDR_M01-1V.wrl"
Sc 0.4 0.4 0.4
Of 0.05 0 0
Ro 0 0 0
$EndSHAPE3D
$SHAPE3D
Na "grabCAD/AB2_HDR_M01-1V.wrl"
Sc 0.4 0.4 0.4
Of -0.05 0 0
Ro 0 0 0
$EndSHAPE3D
$SHAPE3D
Na "grabCAD/AB2_HDR_M01-1V.wrl"
Sc 0.4 0.4 0.4
Of -0.15 0 0
Ro 0 0 0
$EndSHAPE3D
$SHAPE3D
Na "grabCAD/AB2_HDR_M01-1V.wrl"
Sc 0.4 0.4 0.4
Of -0.25 0 0
Ro 0 0 0
$EndSHAPE3D
$SHAPE3D
Na "grabCAD/AB2_HDR_M01-1V.wrl"
Sc 0.4 0.4 0.4
Of -0.35 0 0
Ro 0 0 0
$EndSHAPE3D
$SHAPE3D
Na "grabCAD/AB2_HDR_M01-1V.wrl"
Sc 0.4 0.4 0.4
Of -0.45 0 0
Ro 0 0 0
$EndSHAPE3D
$SHAPE3D
Na "grabCAD/AB2_HDR_M01-1V.wrl"
Sc 0.4 0.4 0.4
Of -0.55 0 0
Ro 0 0 0
$EndSHAPE3D
$SHAPE3D
Na "grabCAD/AB2_HDR_M01-1V.wrl"
Sc 0.4 0.4 0.4
Of -0.65 0 0
Ro 0 0 0
$EndSHAPE3D
$SHAPE3D
Na "grabCAD/AB2_HDR_M01-1V.wrl"
Sc 0.4 0.4 0.4
Of -0.75 0 0
Ro 0 0 0
$EndSHAPE3D
$SHAPE3D
Na "grabCAD/AB2_HDR_M01-1V.wrl"
Sc 0.4 0.4 0.4
Of -0.85 0 0
Ro 0 0 0
$EndSHAPE3D
$EndMODULE SIL-18
$MODULE crystal_5.08
Po 0 0 0 15 52A31577 00000000 ~~
Li crystal_5.08
Sc 0
AR 
Op 0 0 0
T0 0 2.5 1 1 0 0.15 N V 21 N "crystal_5.08"
T1 0 -2.9 1 1 0 0.15 N V 21 N "VAL**"
DA -2.5 0 -4 0 900 0.15 21
DA -2.5 0 -2.5 1.5 900 0.15 21
DA 2.5 0 4 0 900 0.15 21
DA 2.5 0 2.5 -1.5 900 0.15 21
DS 2.5 1.5 -2.5 1.5 0.15 21
DS -2.5 -1.5 2.5 -1.5 0.15 21
$PAD
Sh "1" C 1.5 1.5 0 0 0
Dr 0.46 0 0
At STD N 00E0FFFF
Ne 0 ""
Po 2.44 0
$EndPAD
$PAD
Sh "2" C 1.5 1.5 0 0 0
Dr 0.46 0 0
At STD N 00E0FFFF
Ne 0 ""
Po -2.44 0
$EndPAD
$EndMODULE crystal_5.08
$MODULE quarz_145
Po 0 0 0 15 5342C66F 00000000 ~~
Li quarz_145
Sc 0
AR 
Op 0 0 0
T0 0 2 1 1 0 0.15 N V 21 N "quarz_145"
T1 0 -2 1 1 0 0.15 N V 21 N "VAL**"
$PAD
Sh "3" R 5 1.4 0 0 0
Dr 0 0 0
At SMD N 00888000
Ne 0 ""
Po -2.5 0
$EndPAD
$PAD
Sh "1" R 2.5 0.4 0 0 0
Dr 0 0 0
At SMD N 00888000
Ne 0 ""
Po 1.75 -0.5
$EndPAD
$PAD
Sh "2" R 2.5 0.4 0 0 0
Dr 0 0 0
At SMD N 00888000
Ne 0 ""
Po 1.75 0.5
$EndPAD
$EndMODULE quarz_145
$MODULE quarz_206
Po 0 0 0 15 5342C74E 00000000 ~~
Li quarz_206
Sc 0
AR 
Op 0 0 0
T0 0 2 1 1 0 0.15 N V 21 N "quarz_206"
T1 0 -2 1 1 0 0.15 N V 21 N "VAL**"
$PAD
Sh "3" R 6 2 0 0 0
Dr 0 0 0
At SMD N 00888000
Ne 0 ""
Po -3.25 0
$EndPAD
$PAD
Sh "1" R 3 0.5 0 0 0
Dr 0 0 0
At SMD N 00888000
Ne 0 ""
Po 1.75 -0.75
$EndPAD
$PAD
Sh "2" R 3 0.5 0 0 0
Dr 0 0 0
At SMD N 00888000
Ne 0 ""
Po 1.75 0.75
$EndPAD
$EndMODULE quarz_206
$MODULE quarz_308
Po 0 0 0 15 5342C710 00000000 ~~
Li quarz_308
Sc 0
AR 
Op 0 0 0
T0 0 2 1 1 0 0.15 N V 21 N "quarz_308"
T1 0 -2 1 1 0 0.15 N V 21 N "VAL**"
$PAD
Sh "3" R 8 3 0 0 0
Dr 0 0 0
At SMD N 00888000
Ne 0 ""
Po -4.25 0
$EndPAD
$PAD
Sh "1" R 3.5 0.6 0 0 0
Dr 0 0 0
At SMD N 00888000
Ne 0 ""
Po 2 -1
$EndPAD
$PAD
Sh "2" R 3.5 0.6 0 0 0
Dr 0 0 0
At SMD N 00888000
Ne 0 ""
Po 2 1
$EndPAD
$EndMODULE quarz_308
$EndLIBRARY
