PCBNEW-LibModule-V1  10.05.2014 4:02:39
# encoding utf-8
Units mm
$INDEX
so-8
soic-8_wSink
$EndINDEX
$MODULE so-8
Po 0 0 0 15 536D7E46 00000000 ~~
Li so-8
Cd SO-8
Sc 0
AR /536A8C5E
Op 0 0 0
At SMD
T0 0 0 0.7493 0.7493 2700 0.14986 N V 21 N "Q1"
T1 0 1.016 0.7493 0.7493 0 0.14986 N V 21 N "~"
DS -2.413 -1.9812 -2.413 1.9812 0.127 21
DS -2.413 1.9812 2.413 1.9812 0.127 21
DS 2.413 1.9812 2.413 -1.9812 0.127 21
DS 2.413 -1.9812 -2.413 -1.9812 0.127 21
DS -1.905 -1.9812 -1.905 -3.0734 0.127 21
DS -0.635 -1.9812 -0.635 -3.0734 0.127 21
DS 0.635 -1.9812 0.635 -3.0734 0.127 21
DS 1.905 -3.0734 1.905 -1.9812 0.127 21
DS 1.905 1.9812 1.905 3.0734 0.127 21
DS 0.635 3.0734 0.635 1.9812 0.127 21
DS -0.635 3.0734 -0.635 1.9812 0.127 21
DS -1.905 3.0734 -1.905 1.9812 0.127 21
DC -1.6764 1.2446 -1.9558 1.6256 0.127 21
$PAD
Sh "1" R 0.45 2.15 0 0 0
Dr 0 0 0
At SMD N 00888000
Ne 0 ""
Po -1.905 2.875
$EndPAD
$PAD
Sh "2" R 0.45 2.15 0 0 0
Dr 0 0 0
At SMD N 00888000
Ne 3 "VCC"
Po -0.635 2.875
$EndPAD
$PAD
Sh "3" R 0.45 2.15 0 0 0
Dr 0 0 0
At SMD N 00888000
Ne 3 "VCC"
Po 0.635 2.875
$EndPAD
$PAD
Sh "4" R 0.45 2.15 0 0 0
Dr 0 0 0
At SMD N 00888000
Ne 0 ""
Po 1.905 2.875
$EndPAD
$PAD
Sh "5" R 0.45 2.15 0 0 0
Dr 0 0 0
At SMD N 00888000
Ne 1 "GND"
Po 1.905 -2.875
$EndPAD
$PAD
Sh "6" R 0.45 2.15 0 0 0
Dr 0 0 0
At SMD N 00888000
Ne 2 "N-000006"
Po 0.635 -2.875
$EndPAD
$PAD
Sh "7" R 0.45 2.15 0 0 0
Dr 0 0 0
At SMD N 00888000
Ne 4 "VIO"
Po -0.635 -2.875
$EndPAD
$PAD
Sh "8" R 0.45 2.15 0 0 0
Dr 0 0 0
At SMD N 00888000
Ne 0 ""
Po -1.905 -2.875
$EndPAD
$PAD
Sh "1" R 3.1 2.4 0 0 0
Dr 0 0 0
At SMD N 00888000
Ne 0 ""
Po 0 0
$EndPAD
$SHAPE3D
Na "smd/smd_dil/so-8.wrl"
Sc 1 1 1
Of 0 0 0
Ro 0 0 0
$EndSHAPE3D
$EndMODULE so-8
$MODULE soic-8_wSink
Po 0 0 0 15 536D88AD 00000000 ~~
Li soic-8_wSink
Cd SO-8
Sc 0
AR /536A8C5E
Op 0 0 0
At SMD
T0 0 0 0.7493 0.7493 2700 0.14986 N V 21 N "Q1"
T1 0 1.016 0.7493 0.7493 0 0.14986 N V 21 N "~"
DS -2.413 -1.9812 -2.413 1.9812 0.127 21
DS -2.413 1.9812 2.413 1.9812 0.127 21
DS 2.413 1.9812 2.413 -1.9812 0.127 21
DS 2.413 -1.9812 -2.413 -1.9812 0.127 21
DS -1.905 -1.9812 -1.905 -3.0734 0.127 21
DS -0.635 -1.9812 -0.635 -3.0734 0.127 21
DS 0.635 -1.9812 0.635 -3.0734 0.127 21
DS 1.905 -3.0734 1.905 -1.9812 0.127 21
DS 1.905 1.9812 1.905 3.0734 0.127 21
DS 0.635 3.0734 0.635 1.9812 0.127 21
DS -0.635 3.0734 -0.635 1.9812 0.127 21
DS -1.905 3.0734 -1.905 1.9812 0.127 21
DC -1.6764 1.2446 -1.9558 1.6256 0.127 21
$PAD
Sh "1" R 0.635 1.27 0 0 0
Dr 0 0 0
At SMD N 00888000
Ne 0 ""
Po -1.905 2.794
$EndPAD
$PAD
Sh "2" R 0.635 1.27 0 0 0
Dr 0 0 0
At SMD N 00888000
Ne 3 "VCC"
Po -0.635 2.794
$EndPAD
$PAD
Sh "3" R 0.635 1.27 0 0 0
Dr 0 0 0
At SMD N 00888000
Ne 3 "VCC"
Po 0.635 2.794
$EndPAD
$PAD
Sh "4" R 0.635 1.27 0 0 0
Dr 0 0 0
At SMD N 00888000
Ne 0 ""
Po 1.905 2.794
$EndPAD
$PAD
Sh "5" R 0.635 1.27 0 0 0
Dr 0 0 0
At SMD N 00888000
Ne 1 "GND"
Po 1.905 -2.794
$EndPAD
$PAD
Sh "6" R 0.635 1.27 0 0 0
Dr 0 0 0
At SMD N 00888000
Ne 2 "N-000006"
Po 0.635 -2.794
$EndPAD
$PAD
Sh "7" R 0.635 1.27 0 0 0
Dr 0 0 0
At SMD N 00888000
Ne 4 "VIO"
Po -0.635 -2.794
$EndPAD
$PAD
Sh "8" R 0.635 1.27 0 0 0
Dr 0 0 0
At SMD N 00888000
Ne 0 ""
Po -1.905 -2.794
$EndPAD
$PAD
Sh "1" R 3.1 2.4 0 0 0
Dr 0 0 0
At SMD N 00888000
Ne 0 ""
Po 0 0
$EndPAD
$SHAPE3D
Na "smd/smd_dil/so-8.wrl"
Sc 1 1 1
Of 0 0 0
Ro 0 0 0
$EndSHAPE3D
$EndMODULE soic-8_wSink
$EndLIBRARY
