PCBNEW-LibModule-V1  07.04.2014 15:30:22
# encoding utf-8
Units mm
$INDEX
H10-11
TSB20L
$EndINDEX
$MODULE H10-11
Po 0 0 0 15 52FF65A1 00000000 ~~
Li H10-11
Sc 0
AR /52FF86A1
Op 0 0 0
T0 0 0 1 1 0 0.15 N V 21 N "D3"
T1 0 1.75 1 1 0 0.15 N V 21 N "H10/H11_ETHERNET_TRANSFORMER"
DS -12.75 0 -12.75 5.5 0.15 21
DS -12.75 5.5 -10 5.5 0.15 21
DS -10 -5.5 -12.75 -5.5 0.15 21
DS -12.75 -5.5 -12.75 0 0.15 21
DS 12.75 0 12.75 5.5 0.15 21
DS 12.75 5.5 10 5.5 0.15 21
DS 12.75 0 12.75 -5.5 0.15 21
DS 12.75 -5.5 10 -5.5 0.15 21
DC -10.81 3.27 -10.31 3.52 0.15 21
$PAD
Sh "1" R 1.02 1.52 0 0 0
Dr 0 0 0
At SMD N 00888000
Ne 1 "RD+"
Po -8.89 5.91
$EndPAD
$PAD
Sh "2" R 1.02 1.52 0 0 0
Dr 0 0 0
At SMD N 00888000
Ne 0 ""
Po -6.35 5.91
$EndPAD
$PAD
Sh "3" R 1.02 1.52 0 0 0
Dr 0 0 0
At SMD N 00888000
Ne 0 ""
Po -3.81 5.91
$EndPAD
$PAD
Sh "4" R 1.02 1.52 0 0 0
Dr 0 0 0
At SMD N 00888000
Ne 0 ""
Po -1.27 5.91
$EndPAD
$PAD
Sh "5" R 1.02 1.52 0 0 0
Dr 0 0 0
At SMD N 00888000
Ne 0 ""
Po 1.27 5.91
$EndPAD
$PAD
Sh "6" R 1.02 1.52 0 0 0
Dr 0 0 0
At SMD N 00888000
Ne 0 ""
Po 3.81 5.91
$EndPAD
$PAD
Sh "7" R 1.02 1.52 0 0 0
Dr 0 0 0
At SMD N 00888000
Ne 0 ""
Po 6.35 5.91
$EndPAD
$PAD
Sh "8" R 1.02 1.52 0 0 0
Dr 0 0 0
At SMD N 00888000
Ne 0 ""
Po 8.89 5.91
$EndPAD
$PAD
Sh "9" R 1.02 1.52 0 0 0
Dr 0 0 0
At SMD N 00888000
Ne 0 ""
Po 8.89 -5.91
$EndPAD
$PAD
Sh "10" R 1.02 1.52 0 0 0
Dr 0 0 0
At SMD N 00888000
Ne 0 ""
Po 6.35 -5.91
$EndPAD
$PAD
Sh "11" R 1.02 1.52 0 0 0
Dr 0 0 0
At SMD N 00888000
Ne 0 ""
Po 3.81 -5.91
$EndPAD
$PAD
Sh "12" R 1.02 1.52 0 0 0
Dr 0 0 0
At SMD N 00888000
Ne 0 ""
Po 1.27 -5.91
$EndPAD
$PAD
Sh "13" R 1.02 1.52 0 0 0
Dr 0 0 0
At SMD N 00888000
Ne 0 ""
Po -1.27 -5.91
$EndPAD
$PAD
Sh "14" R 1.02 1.52 0 0 0
Dr 0 0 0
At SMD N 00888000
Ne 0 ""
Po -3.81 -5.91
$EndPAD
$PAD
Sh "15" R 1.02 1.52 0 0 0
Dr 0 0 0
At SMD N 00888000
Ne 0 ""
Po -6.35 -5.91
$EndPAD
$PAD
Sh "16" R 1.02 1.52 0 0 0
Dr 0 0 0
At SMD N 00888000
Ne 0 ""
Po -8.89 -5.91
$EndPAD
$SHAPE3D
Na "../../KICAD_3D/trance_ether_smd.wrl"
Sc 0.4 0.4 0.4
Of 0 0 -0.17
Ro -90 0 -90
$EndSHAPE3D
$EndMODULE H10-11
$MODULE TSB20L
Po 0 0 0 15 52EBE97C 00000000 ~~
Li TSB20L
Sc 0
AR /52E97DA7
Op 0 0 0
T0 0 -2.25 1 1 0 0.15 N V 21 N "T1"
T1 0 2.25 1 1 0 0.15 N V 21 N "TSB20L"
DC -5.5 2 -5 2.25 0.15 21
DS 5.25 -4 6.5 -4 0.15 21
DS 6.5 -4 6.5 -3.25 0.15 21
DS 5.25 3.75 6.5 3.75 0.15 21
DS 6.5 3.75 6.5 3.25 0.15 21
DS -5.25 3.75 -6.5 3.75 0.15 21
DS -6.5 3.75 -6.5 3.25 0.15 21
DS -5.25 -3.75 -6.5 -3.75 0.15 21
DS -6.5 -3.75 -6.5 -3.25 0.15 21
DS -6.5 -3.25 -6.5 3.25 0.15 21
DS 6.5 -3.25 6.5 3.25 0.15 21
$PAD
Sh "1" R 0.76 1.7 0 0 0
Dr 0 0 0
At SMD N 00888000
Ne 10 "TD+"
Po -4.445 4.4
$EndPAD
$PAD
Sh "2" R 0.76 1.7 0 0 0
Dr 0 0 0
At SMD N 00888000
Ne 11 "TD-"
Po -3.175 4.4
$EndPAD
$PAD
Sh "3" R 0.76 1.7 0 0 0
Dr 0 0 0
At SMD N 00888000
Ne 1 "N-0000011"
Po -1.905 4.4
$EndPAD
$PAD
Sh "4" R 0.76 1.7 0 0 0
Dr 0 0 0
At SMD N 00888000
Ne 0 ""
Po -0.635 4.4
$EndPAD
$PAD
Sh "5" R 0.76 1.7 0 0 0
Dr 0 0 0
At SMD N 00888000
Ne 8 "RD+"
Po 0.635 4.4
$EndPAD
$PAD
Sh "6" R 0.76 1.7 0 0 0
Dr 0 0 0
At SMD N 00888000
Ne 9 "RD-"
Po 1.905 4.4
$EndPAD
$PAD
Sh "7" R 0.76 1.7 0 0 0
Dr 0 0 0
At SMD N 00888000
Ne 3 "N-0000022"
Po 3.175 4.4
$EndPAD
$PAD
Sh "8" R 0.76 1.7 0 0 0
Dr 0 0 0
At SMD N 00888000
Ne 4 "N-0000023"
Po 4.445 4.4
$EndPAD
$PAD
Sh "9" R 0.76 1.7 0 0 0
Dr 0 0 0
At SMD N 00888000
Ne 2 "N-0000020"
Po 4.445 -4.4
$EndPAD
$PAD
Sh "10" R 0.76 1.7 0 0 0
Dr 0 0 0
At SMD N 00888000
Ne 7 "N-000009"
Po 3.175 -4.4
$EndPAD
$PAD
Sh "11" R 0.76 1.7 0 0 0
Dr 0 0 0
At SMD N 00888000
Ne 5 "N-0000024"
Po 1.905 -4.4
$EndPAD
$PAD
Sh "12" R 0.76 1.7 0 0 0
Dr 0 0 0
At SMD N 00888000
Ne 6 "N-0000025"
Po 0.635 -4.4
$EndPAD
$PAD
Sh "13" R 0.76 1.7 0 0 0
Dr 0 0 0
At SMD N 00888000
Ne 0 ""
Po -0.635 -4.4
$EndPAD
$PAD
Sh "14" R 0.76 1.7 0 0 0
Dr 0 0 0
At SMD N 00888000
Ne 0 ""
Po -1.905 -4.4
$EndPAD
$PAD
Sh "15" R 0.76 1.7 0 0 0
Dr 0 0 0
At SMD N 00888000
Ne 0 ""
Po -3.175 -4.4
$EndPAD
$PAD
Sh "16" R 0.76 1.7 0 0 0
Dr 0 0 0
At SMD N 00888000
Ne 0 ""
Po -4.445 -4.4
$EndPAD
$EndMODULE TSB20L
$EndLIBRARY
