PCBNEW-LibModule-V1  01.02.2014 1:46:22
# encoding utf-8
Units mm
$INDEX
LQFN-48
LQFP-64
SO20
SOIC-16
SOIC-8
SOIC28_7.5_WIDE
$EndINDEX
$MODULE LQFN-48
Po 0 0 0 15 52D1A639 00000000 ~~
Li LQFN-48
Sc 0
AR 
Op 0 0 0
T0 0 1.5 1 1 0 0.15 N V 21 N "LQFN-48"
T1 0 -1 1 1 0 0.15 N V 21 N "VAL**"
DC -2.5 -2.5 -2.5 -2 0.15 21
DS 3.5 0 3.5 -3 0.15 21
DS 3.5 -3 3 -3.5 0.15 21
DS 3 -3.5 0 -3.5 0.15 21
DS 0 -3.5 -3 -3.5 0.15 21
DS -3 -3.5 -3.5 -3 0.15 21
DS -3.5 -3 -3.5 3 0.15 21
DS -3.5 3 -3 3.5 0.15 21
DS -3 3.5 3 3.5 0.15 21
DS 3 3.5 3.5 3 0.15 21
DS 3.5 3 3.5 0 0.15 21
$PAD
Sh "1" R 1 0.22 0 0 0
Dr 0 0 0
At SMD N 00888000
Ne 0 ""
Po -4 -2.75
$EndPAD
$PAD
Sh "2" R 1 0.22 0 0 0
Dr 0 0 0
At SMD N 00888000
Ne 0 ""
Po -4 -2.25
$EndPAD
$PAD
Sh "3" R 1 0.22 0 0 0
Dr 0 0 0
At SMD N 00888000
Ne 0 ""
Po -4 -1.75
$EndPAD
$PAD
Sh "4" R 1 0.22 0 0 0
Dr 0 0 0
At SMD N 00888000
Ne 0 ""
Po -4 -1.25
$EndPAD
$PAD
Sh "5" R 1 0.22 0 0 0
Dr 0 0 0
At SMD N 00888000
Ne 0 ""
Po -4 -0.75
$EndPAD
$PAD
Sh "6" R 1 0.22 0 0 0
Dr 0 0 0
At SMD N 00888000
Ne 0 ""
Po -4 -0.25
$EndPAD
$PAD
Sh "7" R 1 0.22 0 0 0
Dr 0 0 0
At SMD N 00888000
Ne 0 ""
Po -4 0.25
$EndPAD
$PAD
Sh "8" R 1 0.22 0 0 0
Dr 0 0 0
At SMD N 00888000
Ne 0 ""
Po -4 0.75
$EndPAD
$PAD
Sh "9" R 1 0.22 0 0 0
Dr 0 0 0
At SMD N 00888000
Ne 0 ""
Po -4 1.25
$EndPAD
$PAD
Sh "10" R 1 0.22 0 0 0
Dr 0 0 0
At SMD N 00888000
Ne 0 ""
Po -4 1.75
$EndPAD
$PAD
Sh "11" R 1 0.22 0 0 0
Dr 0 0 0
At SMD N 00888000
Ne 0 ""
Po -4 2.25
$EndPAD
$PAD
Sh "12" R 1 0.22 0 0 0
Dr 0 0 0
At SMD N 00888000
Ne 0 ""
Po -4 2.75
$EndPAD
$PAD
Sh "13" R 0.22 1 0 0 0
Dr 0 0 0
At SMD N 00888000
Ne 0 ""
Po -2.75 4
$EndPAD
$PAD
Sh "14" R 0.22 1 0 0 0
Dr 0 0 0
At SMD N 00888000
Ne 0 ""
Po -2.25 4
$EndPAD
$PAD
Sh "15" R 0.22 1 0 0 0
Dr 0 0 0
At SMD N 00888000
Ne 0 ""
Po -1.75 4
$EndPAD
$PAD
Sh "16" R 0.22 1 0 0 0
Dr 0 0 0
At SMD N 00888000
Ne 0 ""
Po -1.25 4
$EndPAD
$PAD
Sh "17" R 0.22 1 0 0 0
Dr 0 0 0
At SMD N 00888000
Ne 0 ""
Po -0.75 4
$EndPAD
$PAD
Sh "18" R 0.22 1 0 0 0
Dr 0 0 0
At SMD N 00888000
Ne 0 ""
Po -0.25 4
$EndPAD
$PAD
Sh "19" R 0.22 1 0 0 0
Dr 0 0 0
At SMD N 00888000
Ne 0 ""
Po 0.25 4
$EndPAD
$PAD
Sh "20" R 0.22 1 0 0 0
Dr 0 0 0
At SMD N 00888000
Ne 0 ""
Po 0.75 4
$EndPAD
$PAD
Sh "21" R 0.22 1 0 0 0
Dr 0 0 0
At SMD N 00888000
Ne 0 ""
Po 1.25 4
$EndPAD
$PAD
Sh "22" R 0.22 1 0 0 0
Dr 0 0 0
At SMD N 00888000
Ne 0 ""
Po 1.75 4
$EndPAD
$PAD
Sh "23" R 0.22 1 0 0 0
Dr 0 0 0
At SMD N 00888000
Ne 0 ""
Po 2.25 4
$EndPAD
$PAD
Sh "24" R 0.22 1 0 0 0
Dr 0 0 0
At SMD N 00888000
Ne 0 ""
Po 2.75 4
$EndPAD
$PAD
Sh "25" R 1 0.22 0 0 0
Dr 0 0 0
At SMD N 00888000
Ne 0 ""
Po 4 2.75
$EndPAD
$PAD
Sh "26" R 1 0.22 0 0 0
Dr 0 0 0
At SMD N 00888000
Ne 0 ""
Po 4 2.25
$EndPAD
$PAD
Sh "27" R 1 0.22 0 0 0
Dr 0 0 0
At SMD N 00888000
Ne 0 ""
Po 4 1.75
$EndPAD
$PAD
Sh "28" R 1 0.22 0 0 0
Dr 0 0 0
At SMD N 00888000
Ne 0 ""
Po 4 1.25
$EndPAD
$PAD
Sh "29" R 1 0.22 0 0 0
Dr 0 0 0
At SMD N 00888000
Ne 0 ""
Po 4 0.75
$EndPAD
$PAD
Sh "30" R 1 0.22 0 0 0
Dr 0 0 0
At SMD N 00888000
Ne 0 ""
Po 4 0.25
$EndPAD
$PAD
Sh "31" R 1 0.22 0 0 0
Dr 0 0 0
At SMD N 00888000
Ne 0 ""
Po 4 -0.25
$EndPAD
$PAD
Sh "32" R 1 0.22 0 0 0
Dr 0 0 0
At SMD N 00888000
Ne 0 ""
Po 4 -0.75
$EndPAD
$PAD
Sh "33" R 1 0.22 0 0 0
Dr 0 0 0
At SMD N 00888000
Ne 0 ""
Po 4 -1.25
$EndPAD
$PAD
Sh "34" R 1 0.22 0 0 0
Dr 0 0 0
At SMD N 00888000
Ne 0 ""
Po 4 -1.75
$EndPAD
$PAD
Sh "35" R 1 0.22 0 0 0
Dr 0 0 0
At SMD N 00888000
Ne 0 ""
Po 4 -2.25
$EndPAD
$PAD
Sh "36" R 1 0.22 0 0 0
Dr 0 0 0
At SMD N 00888000
Ne 0 ""
Po 4 -2.75
$EndPAD
$PAD
Sh "37" R 0.22 1 0 0 0
Dr 0 0 0
At SMD N 00888000
Ne 0 ""
Po 2.75 -4
$EndPAD
$PAD
Sh "38" R 0.22 1 0 0 0
Dr 0 0 0
At SMD N 00888000
Ne 0 ""
Po 2.25 -4
$EndPAD
$PAD
Sh "39" R 0.22 1 0 0 0
Dr 0 0 0
At SMD N 00888000
Ne 0 ""
Po 1.75 -4
$EndPAD
$PAD
Sh "40" R 0.22 1 0 0 0
Dr 0 0 0
At SMD N 00888000
Ne 0 ""
Po 1.25 -4
$EndPAD
$PAD
Sh "41" R 0.22 1 0 0 0
Dr 0 0 0
At SMD N 00888000
Ne 0 ""
Po 0.75 -4
$EndPAD
$PAD
Sh "42" R 0.22 1 0 0 0
Dr 0 0 0
At SMD N 00888000
Ne 0 ""
Po 0.25 -4
$EndPAD
$PAD
Sh "43" R 0.22 1 0 0 0
Dr 0 0 0
At SMD N 00888000
Ne 0 ""
Po -0.25 -4
$EndPAD
$PAD
Sh "44" R 0.22 1 0 0 0
Dr 0 0 0
At SMD N 00888000
Ne 0 ""
Po -0.75 -4
$EndPAD
$PAD
Sh "45" R 0.22 1 0 0 0
Dr 0 0 0
At SMD N 00888000
Ne 0 ""
Po -1.25 -4
$EndPAD
$PAD
Sh "46" R 0.22 1 0 0 0
Dr 0 0 0
At SMD N 00888000
Ne 0 ""
Po -1.75 -4
$EndPAD
$PAD
Sh "47" R 0.22 1 0 0 0
Dr 0 0 0
At SMD N 00888000
Ne 0 ""
Po -2.25 -4
$EndPAD
$PAD
Sh "48" R 0.22 1 0 0 0
Dr 0 0 0
At SMD N 00888000
Ne 0 ""
Po -2.75 -4
$EndPAD
$EndMODULE LQFN-48
$MODULE LQFP-64
Po 0 0 0 15 52B4CB4F 00000000 ~~
Li LQFP-64
Sc 0
AR 
Op 0 0 0
T0 0 1 1 1 0 0.15 N V 21 N "LQFP-64"
T1 0 -0.75 1 1 0 0.15 N V 21 N "VAL**"
DC -3.75 -3.75 -3.25 -3.5 0.15 21
DS -5 -4.5 -4.5 -5 0.15 21
DS -4.5 -5 4.5 -5 0.15 21
DS 4.5 -5 5 -4.5 0.15 21
DS 5 -4.5 5 4.5 0.15 21
DS 5 4.5 4.5 5 0.15 21
DS 4.5 5 -4.5 5 0.15 21
DS -4.5 5 -5 4.5 0.15 21
DS -5 4.5 -5 -4.5 0.15 21
$PAD
Sh "1" R 1 0.22 0 0 0
Dr 0 0 0
At SMD N 00888000
Ne 0 ""
Po -5.5 -3.75
$EndPAD
$PAD
Sh "2" R 1 0.22 0 0 0
Dr 0 0 0
At SMD N 00888000
Ne 0 ""
Po -5.5 -3.25
$EndPAD
$PAD
Sh "3" R 1 0.22 0 0 0
Dr 0 0 0
At SMD N 00888000
Ne 0 ""
Po -5.5 -2.75
$EndPAD
$PAD
Sh "4" R 1 0.22 0 0 0
Dr 0 0 0
At SMD N 00888000
Ne 0 ""
Po -5.5 -2.25
$EndPAD
$PAD
Sh "5" R 1 0.22 0 0 0
Dr 0 0 0
At SMD N 00888000
Ne 0 ""
Po -5.5 -1.75
$EndPAD
$PAD
Sh "6" R 1 0.22 0 0 0
Dr 0 0 0
At SMD N 00888000
Ne 0 ""
Po -5.5 -1.25
$EndPAD
$PAD
Sh "7" R 1 0.22 0 0 0
Dr 0 0 0
At SMD N 00888000
Ne 0 ""
Po -5.5 -0.75
$EndPAD
$PAD
Sh "8" R 1 0.22 0 0 0
Dr 0 0 0
At SMD N 00888000
Ne 0 ""
Po -5.5 -0.25
$EndPAD
$PAD
Sh "9" R 1 0.22 0 0 0
Dr 0 0 0
At SMD N 00888000
Ne 0 ""
Po -5.5 0.25
$EndPAD
$PAD
Sh "10" R 1 0.22 0 0 0
Dr 0 0 0
At SMD N 00888000
Ne 0 ""
Po -5.5 0.75
$EndPAD
$PAD
Sh "11" R 1 0.22 0 0 0
Dr 0 0 0
At SMD N 00888000
Ne 0 ""
Po -5.5 1.25
$EndPAD
$PAD
Sh "12" R 1 0.22 0 0 0
Dr 0 0 0
At SMD N 00888000
Ne 0 ""
Po -5.5 1.75
$EndPAD
$PAD
Sh "13" R 1 0.22 0 0 0
Dr 0 0 0
At SMD N 00888000
Ne 0 ""
Po -5.5 2.25
$EndPAD
$PAD
Sh "14" R 1 0.22 0 0 0
Dr 0 0 0
At SMD N 00888000
Ne 0 ""
Po -5.5 2.75
$EndPAD
$PAD
Sh "15" R 1 0.22 0 0 0
Dr 0 0 0
At SMD N 00888000
Ne 0 ""
Po -5.5 3.25
$EndPAD
$PAD
Sh "16" R 1 0.22 0 0 0
Dr 0 0 0
At SMD N 00888000
Ne 0 ""
Po -5.5 3.75
$EndPAD
$PAD
Sh "17" R 0.22 1 0 0 0
Dr 0 0 0
At SMD N 00888000
Ne 0 ""
Po -3.75 5.5
$EndPAD
$PAD
Sh "18" R 0.22 1 0 0 0
Dr 0 0 0
At SMD N 00888000
Ne 0 ""
Po -3.25 5.5
$EndPAD
$PAD
Sh "19" R 0.22 1 0 0 0
Dr 0 0 0
At SMD N 00888000
Ne 0 ""
Po -2.75 5.5
$EndPAD
$PAD
Sh "20" R 0.22 1 0 0 0
Dr 0 0 0
At SMD N 00888000
Ne 0 ""
Po -2.25 5.5
$EndPAD
$PAD
Sh "21" R 0.22 1 0 0 0
Dr 0 0 0
At SMD N 00888000
Ne 0 ""
Po -1.75 5.5
$EndPAD
$PAD
Sh "22" R 0.22 1 0 0 0
Dr 0 0 0
At SMD N 00888000
Ne 0 ""
Po -1.25 5.5
$EndPAD
$PAD
Sh "23" R 0.22 1 0 0 0
Dr 0 0 0
At SMD N 00888000
Ne 0 ""
Po -0.75 5.5
$EndPAD
$PAD
Sh "24" R 0.22 1 0 0 0
Dr 0 0 0
At SMD N 00888000
Ne 0 ""
Po -0.25 5.5
$EndPAD
$PAD
Sh "25" R 0.22 1 0 0 0
Dr 0 0 0
At SMD N 00888000
Ne 0 ""
Po 0.25 5.5
$EndPAD
$PAD
Sh "26" R 0.22 1 0 0 0
Dr 0 0 0
At SMD N 00888000
Ne 0 ""
Po 0.75 5.5
$EndPAD
$PAD
Sh "27" R 0.22 1 0 0 0
Dr 0 0 0
At SMD N 00888000
Ne 0 ""
Po 1.25 5.5
$EndPAD
$PAD
Sh "28" R 0.22 1 0 0 0
Dr 0 0 0
At SMD N 00888000
Ne 0 ""
Po 1.75 5.5
$EndPAD
$PAD
Sh "29" R 0.22 1 0 0 0
Dr 0 0 0
At SMD N 00888000
Ne 0 ""
Po 2.25 5.5
$EndPAD
$PAD
Sh "30" R 0.22 1 0 0 0
Dr 0 0 0
At SMD N 00888000
Ne 0 ""
Po 2.75 5.5
$EndPAD
$PAD
Sh "31" R 0.22 1 0 0 0
Dr 0 0 0
At SMD N 00888000
Ne 0 ""
Po 3.25 5.5
$EndPAD
$PAD
Sh "32" R 0.22 1 0 0 0
Dr 0 0 0
At SMD N 00888000
Ne 0 ""
Po 3.75 5.5
$EndPAD
$PAD
Sh "33" R 1 0.22 0 0 0
Dr 0 0 0
At SMD N 00888000
Ne 0 ""
Po 5.5 3.75
$EndPAD
$PAD
Sh "34" R 1 0.22 0 0 0
Dr 0 0 0
At SMD N 00888000
Ne 0 ""
Po 5.5 3.25
$EndPAD
$PAD
Sh "35" R 1 0.22 0 0 0
Dr 0 0 0
At SMD N 00888000
Ne 0 ""
Po 5.5 2.75
$EndPAD
$PAD
Sh "36" R 1 0.22 0 0 0
Dr 0 0 0
At SMD N 00888000
Ne 0 ""
Po 5.5 2.25
$EndPAD
$PAD
Sh "37" R 1 0.22 0 0 0
Dr 0 0 0
At SMD N 00888000
Ne 0 ""
Po 5.5 1.75
$EndPAD
$PAD
Sh "38" R 1 0.22 0 0 0
Dr 0 0 0
At SMD N 00888000
Ne 0 ""
Po 5.5 1.25
$EndPAD
$PAD
Sh "39" R 1 0.22 0 0 0
Dr 0 0 0
At SMD N 00888000
Ne 0 ""
Po 5.5 0.75
$EndPAD
$PAD
Sh "40" R 1 0.22 0 0 0
Dr 0 0 0
At SMD N 00888000
Ne 0 ""
Po 5.5 0.25
$EndPAD
$PAD
Sh "41" R 1 0.22 0 0 0
Dr 0 0 0
At SMD N 00888000
Ne 0 ""
Po 5.5 -0.25
$EndPAD
$PAD
Sh "42" R 1 0.22 0 0 0
Dr 0 0 0
At SMD N 00888000
Ne 0 ""
Po 5.5 -0.75
$EndPAD
$PAD
Sh "43" R 1 0.22 0 0 0
Dr 0 0 0
At SMD N 00888000
Ne 0 ""
Po 5.5 -1.25
$EndPAD
$PAD
Sh "44" R 1 0.22 0 0 0
Dr 0 0 0
At SMD N 00888000
Ne 0 ""
Po 5.5 -1.75
$EndPAD
$PAD
Sh "45" R 1 0.22 0 0 0
Dr 0 0 0
At SMD N 00888000
Ne 0 ""
Po 5.5 -2.25
$EndPAD
$PAD
Sh "46" R 1 0.22 0 0 0
Dr 0 0 0
At SMD N 00888000
Ne 0 ""
Po 5.5 -2.75
$EndPAD
$PAD
Sh "47" R 1 0.22 0 0 0
Dr 0 0 0
At SMD N 00888000
Ne 0 ""
Po 5.5 -3.25
$EndPAD
$PAD
Sh "48" R 1 0.22 0 0 0
Dr 0 0 0
At SMD N 00888000
Ne 0 ""
Po 5.5 -3.75
$EndPAD
$PAD
Sh "49" R 0.22 1 0 0 0
Dr 0 0 0
At SMD N 00888000
Ne 0 ""
Po 3.75 -5.5
$EndPAD
$PAD
Sh "50" R 0.22 1 0 0 0
Dr 0 0 0
At SMD N 00888000
Ne 0 ""
Po 3.25 -5.5
$EndPAD
$PAD
Sh "51" R 0.22 1 0 0 0
Dr 0 0 0
At SMD N 00888000
Ne 0 ""
Po 2.75 -5.5
$EndPAD
$PAD
Sh "52" R 0.22 1 0 0 0
Dr 0 0 0
At SMD N 00888000
Ne 0 ""
Po 2.25 -5.5
$EndPAD
$PAD
Sh "53" R 0.22 1 0 0 0
Dr 0 0 0
At SMD N 00888000
Ne 0 ""
Po 1.75 -5.5
$EndPAD
$PAD
Sh "54" R 0.22 1 0 0 0
Dr 0 0 0
At SMD N 00888000
Ne 0 ""
Po 1.25 -5.5
$EndPAD
$PAD
Sh "55" R 0.22 1 0 0 0
Dr 0 0 0
At SMD N 00888000
Ne 0 ""
Po 0.75 -5.5
$EndPAD
$PAD
Sh "56" R 0.22 1 0 0 0
Dr 0 0 0
At SMD N 00888000
Ne 0 ""
Po 0.25 -5.5
$EndPAD
$PAD
Sh "57" R 0.22 1 0 0 0
Dr 0 0 0
At SMD N 00888000
Ne 0 ""
Po -0.25 -5.5
$EndPAD
$PAD
Sh "58" R 0.22 1 0 0 0
Dr 0 0 0
At SMD N 00888000
Ne 0 ""
Po -0.75 -5.5
$EndPAD
$PAD
Sh "59" R 0.22 1 0 0 0
Dr 0 0 0
At SMD N 00888000
Ne 0 ""
Po -1.25 -5.5
$EndPAD
$PAD
Sh "60" R 0.22 1 0 0 0
Dr 0 0 0
At SMD N 00888000
Ne 0 ""
Po -1.75 -5.5
$EndPAD
$PAD
Sh "61" R 0.22 1 0 0 0
Dr 0 0 0
At SMD N 00888000
Ne 0 ""
Po -2.25 -5.5
$EndPAD
$PAD
Sh "62" R 0.22 1 0 0 0
Dr 0 0 0
At SMD N 00888000
Ne 0 ""
Po -2.75 -5.5
$EndPAD
$PAD
Sh "63" R 0.22 1 0 0 0
Dr 0 0 0
At SMD N 00888000
Ne 0 ""
Po -3.25 -5.5
$EndPAD
$PAD
Sh "64" R 0.22 1 0 0 0
Dr 0 0 0
At SMD N 00888000
Ne 0 ""
Po -3.75 -5.5
$EndPAD
$EndMODULE LQFP-64
$MODULE SO20
Po 0 0 0 15 52A74273 00000000 ~~
Li SO20
Sc 0
AR 
Op 0 0 0
T0 0 2 1 1 0 0.15 N V 21 N "SO20"
T1 0 -2 1 1 0 0.15 N V 21 N "VAL**"
DA -6.75 0 -6 -0.25 900 0.15 21
DA -6.75 0 -6.5 -0.75 900 0.15 21
DS -6.5 3.75 6.5 3.75 0.15 21
DS -6.5 -3.75 6.5 -3.75 0.15 21
DS 6.5 -3.75 6.5 0 0.15 21
DS 6.5 0 6.5 3.75 0.15 21
DS -6.5 3.75 -6.5 -3.75 0.15 21
$PAD
Sh "1" R 0.49 1.4 0 0 0
Dr 0 0 0
At SMD N 00888000
Ne 0 ""
Po -5.715 4.445
$EndPAD
$PAD
Sh "2" R 0.49 1.4 0 0 0
Dr 0 0 0
At SMD N 00888000
Ne 0 ""
Po -4.445 4.445
$EndPAD
$PAD
Sh "3" R 0.49 1.4 0 0 0
Dr 0 0 0
At SMD N 00888000
Ne 0 ""
Po -3.175 4.445
$EndPAD
$PAD
Sh "4" R 0.49 1.4 0 0 0
Dr 0 0 0
At SMD N 00888000
Ne 0 ""
Po -1.905 4.445
$EndPAD
$PAD
Sh "5" R 0.49 1.4 0 0 0
Dr 0 0 0
At SMD N 00888000
Ne 0 ""
Po -0.635 4.445
$EndPAD
$PAD
Sh "6" R 0.49 1.4 0 0 0
Dr 0 0 0
At SMD N 00888000
Ne 0 ""
Po 0.635 4.445
$EndPAD
$PAD
Sh "7" R 0.49 1.4 0 0 0
Dr 0 0 0
At SMD N 00888000
Ne 0 ""
Po 1.905 4.445
$EndPAD
$PAD
Sh "8" R 0.49 1.4 0 0 0
Dr 0 0 0
At SMD N 00888000
Ne 0 ""
Po 3.175 4.445
$EndPAD
$PAD
Sh "9" R 0.49 1.4 0 0 0
Dr 0 0 0
At SMD N 00888000
Ne 0 ""
Po 4.445 4.445
$EndPAD
$PAD
Sh "10" R 0.49 1.4 0 0 0
Dr 0 0 0
At SMD N 00888000
Ne 0 ""
Po 5.715 4.445
$EndPAD
$PAD
Sh "11" R 0.49 1.4 0 0 0
Dr 0 0 0
At SMD N 00888000
Ne 0 ""
Po 5.715 -4.445
$EndPAD
$PAD
Sh "12" R 0.49 1.4 0 0 0
Dr 0 0 0
At SMD N 00888000
Ne 0 ""
Po 4.445 -4.445
$EndPAD
$PAD
Sh "13" R 0.49 1.4 0 0 0
Dr 0 0 0
At SMD N 00888000
Ne 0 ""
Po 3.175 -4.445
$EndPAD
$PAD
Sh "14" R 0.49 1.4 0 0 0
Dr 0 0 0
At SMD N 00888000
Ne 0 ""
Po 1.905 -4.445
$EndPAD
$PAD
Sh "15" R 0.49 1.4 0 0 0
Dr 0 0 0
At SMD N 00888000
Ne 0 ""
Po 0.635 -4.445
$EndPAD
$PAD
Sh "16" R 0.49 1.4 0 0 0
Dr 0 0 0
At SMD N 00888000
Ne 0 ""
Po -0.635 -4.445
$EndPAD
$PAD
Sh "17" R 0.49 1.4 0 0 0
Dr 0 0 0
At SMD N 00888000
Ne 0 ""
Po -1.905 -4.445
$EndPAD
$PAD
Sh "18" R 0.49 1.4 0 0 0
Dr 0 0 0
At SMD N 00888000
Ne 0 ""
Po -3.175 -4.445
$EndPAD
$PAD
Sh "19" R 0.49 1.4 0 0 0
Dr 0 0 0
At SMD N 00888000
Ne 0 ""
Po -4.445 -4.445
$EndPAD
$PAD
Sh "20" R 0.49 1.4 0 0 0
Dr 0 0 0
At SMD N 00888000
Ne 0 ""
Po -5.715 -4.445
$EndPAD
$EndMODULE SO20
$MODULE SOIC-16
Po 0 0 0 15 52A321B4 00000000 ~~
Li SOIC-16
Sc 0
AR 
Op 0 0 0
T0 0 4.25 1 1 0 0.15 N V 21 N "SOIC-16"
T1 0 0 1 1 0 0.15 N V 21 N "VAL**"
DS 4.826 -1.524 4.826 1.524 0.05 21
DS 4.826 1.524 4.572 1.778 0.05 21
DS 4.572 1.778 -4.572 1.778 0.05 21
DS -4.572 1.778 -4.826 1.524 0.05 21
DS -4.826 1.524 -4.826 -1.524 0.05 21
DS -4.826 -1.524 -4.572 -1.778 0.05 21
DS -4.572 -1.778 4.572 -1.778 0.05 21
DS 4.572 -1.778 4.826 -1.524 0.05 21
DC 4.2 -1.2 4.6 -1.3 0.05 21
DS 0 -1.9 4.9 -1.9 0 21
DS 4.9 -1.9 4.9 0 0 21
DS 4.9 0 4.9 1.9 0 21
DS 4.9 1.9 0 1.9 0 21
DS 0 1.9 -4.9 1.9 0 21
DS -4.9 1.9 -4.9 -1.9 0 21
DS -4.9 -1.9 0 -1.9 0 21
$PAD
Sh "1" R 0.4 1.2 0 0 0
Dr 0 0 0
At SMD N 00888000
Ne 0 ""
Po 4.445 -2.54
$EndPAD
$PAD
Sh "2" R 0.4 1.2 0 0 0
Dr 0 0 0
At SMD N 00888000
Ne 0 ""
Po 3.175 -2.54
$EndPAD
$PAD
Sh "3" R 0.4 1.2 0 0 0
Dr 0 0 0
At SMD N 00888000
Ne 0 ""
Po 1.905 -2.54
$EndPAD
$PAD
Sh "4" R 0.4 1.2 0 0 0
Dr 0 0 0
At SMD N 00888000
Ne 0 ""
Po 0.635 -2.54
$EndPAD
$PAD
Sh "5" R 0.4 1.2 0 0 0
Dr 0 0 0
At SMD N 00888000
Ne 0 ""
Po -0.635 -2.54
$EndPAD
$PAD
Sh "6" R 0.4 1.2 0 0 0
Dr 0 0 0
At SMD N 00888000
Ne 0 ""
Po -1.905 -2.54
$EndPAD
$PAD
Sh "7" R 0.4 1.2 0 0 0
Dr 0 0 0
At SMD N 00888000
Ne 0 ""
Po -3.175 -2.54
$EndPAD
$PAD
Sh "8" R 0.4 1.2 0 0 0
Dr 0 0 0
At SMD N 00888000
Ne 0 ""
Po -4.445 -2.54
$EndPAD
$PAD
Sh "9" R 0.4 1.2 0 0 0
Dr 0 0 0
At SMD N 00888000
Ne 0 ""
Po -4.445 2.54
$EndPAD
$PAD
Sh "10" R 0.4 1.2 0 0 0
Dr 0 0 0
At SMD N 00888000
Ne 0 ""
Po -3.175 2.54
$EndPAD
$PAD
Sh "11" R 0.4 1.2 0 0 0
Dr 0 0 0
At SMD N 00888000
Ne 0 ""
Po -1.905 2.54
$EndPAD
$PAD
Sh "12" R 0.4 1.2 0 0 0
Dr 0 0 0
At SMD N 00888000
Ne 0 ""
Po -0.635 2.54
$EndPAD
$PAD
Sh "13" R 0.4 1.2 0 0 0
Dr 0 0 0
At SMD N 00888000
Ne 0 ""
Po 0.635 2.54
$EndPAD
$PAD
Sh "14" R 0.4 1.2 0 0 0
Dr 0 0 0
At SMD N 00888000
Ne 0 ""
Po 1.905 2.54
$EndPAD
$PAD
Sh "15" R 0.4 1.2 0 0 0
Dr 0 0 0
At SMD N 00888000
Ne 0 ""
Po 3.175 2.54
$EndPAD
$PAD
Sh "16" R 0.4 1.2 0 0 0
Dr 0 0 0
At SMD N 00888000
Ne 0 ""
Po 4.445 2.54
$EndPAD
$EndMODULE SOIC-16
$MODULE SOIC-8
Po 0 0 0 15 52A3D1AA 00000000 ~~
Li SOIC-8
Sc 0
AR 
Op 0 0 0
T0 0 5.5 1 1 0 0.15 N V 21 N "SOIC-8"
T1 0 -6 1 1 0 0.15 N V 21 N "VAL**"
DC 1.778 -1.27 2.032 -1.016 0.15 21
DS 0 -1.9 2.4 -1.9 0.15 21
DS 2.4 -1.9 2.4 1.9 0.15 21
DS 2.4 1.9 -2.4 1.9 0.15 21
DS -2.4 1.9 -2.4 -1.9 0.15 21
DS -2.4 -1.9 0 -1.9 0.15 21
$PAD
Sh "1" R 0.4 1.2 0 0 0
Dr 0 0 0
At SMD N 00888000
Ne 0 ""
Po 1.905 -2.6035
$EndPAD
$PAD
Sh "2" R 0.4 1.2 0 0 0
Dr 0 0 0
At SMD N 00888000
Ne 0 ""
Po 0.635 -2.6035
$EndPAD
$PAD
Sh "3" R 0.4 1.2 0 0 0
Dr 0 0 0
At SMD N 00888000
Ne 0 ""
Po -0.635 -2.6035
$EndPAD
$PAD
Sh "4" R 0.4 1.2 0 0 0
Dr 0 0 0
At SMD N 00888000
Ne 0 ""
Po -1.905 -2.6035
$EndPAD
$PAD
Sh "5" R 0.4 1.2 0 0 0
Dr 0 0 0
At SMD N 00888000
Ne 0 ""
Po -1.905 2.6035
$EndPAD
$PAD
Sh "6" R 0.4 1.2 0 0 0
Dr 0 0 0
At SMD N 00888000
Ne 0 ""
Po -0.635 2.6035
$EndPAD
$PAD
Sh "7" R 0.4 1.2 0 0 0
Dr 0 0 0
At SMD N 00888000
Ne 0 ""
Po 0.635 2.6035
$EndPAD
$PAD
Sh "8" R 0.4 1.2 0 0 0
Dr 0 0 0
At SMD N 00888000
Ne 0 ""
Po 1.905 2.6035
$EndPAD
$EndMODULE SOIC-8
$MODULE SOIC28_7.5_WIDE
Po 0 0 0 15 52EC27A7 00000000 ~~
Li SOIC28_7.5_WIDE
Cd Module CMS SOJ 32 pins large
Kw CMS SOJ
Sc 0
AR /52E42362
Op 0 0 0
At SMD
T0 0 -1.016 1.27 1.27 0 0.1524 N V 21 N "U2"
T1 0 2.667 1.27 1.27 0 0.1524 N V 21 N "ENC28J60"
DC -7.75 2.5 -7.25 2.75 0.15 21
DS 9 0 9 -3.75 0.15 21
DS 9 -3.75 -9 -3.75 0.15 21
DS -9 -3.75 -9 3.75 0.15 21
DS -9 3.75 9 3.75 0.15 21
DS 9 3.75 9 0 0.15 21
$PAD
Sh "16" R 0.4572 1.27 0 0 0
Dr 0 0 0
At SMD N 00888000
Ne 17 "TD+"
Po 6.985 -4.445
$EndPAD
$PAD
Sh "17" R 0.4572 1.27 0 0 0
Dr 0 0 0
At SMD N 00888000
Ne 18 "TD-"
Po 5.715 -4.445
$EndPAD
$PAD
Sh "18" R 0.4572 1.27 0 0 0
Dr 0 0 0
At SMD N 00888000
Ne 3 "GND"
Po 4.445 -4.445
$EndPAD
$PAD
Sh "19" R 0.4572 1.27 0 0 0
Dr 0 0 0
At SMD N 00888000
Ne 1 "+3.3V"
Po 3.175 -4.445
$EndPAD
$PAD
Sh "20" R 0.4572 1.27 0 0 0
Dr 0 0 0
At SMD N 00888000
Ne 1 "+3.3V"
Po 1.905 -4.445
$EndPAD
$PAD
Sh "24" R 0.4572 1.27 0 0 0
Dr 0 0 0
At SMD N 00888000
Ne 9 "N-0000033"
Po -3.175 -4.445
$EndPAD
$PAD
Sh "25" R 0.4572 1.27 0 0 0
Dr 0 0 0
At SMD N 00888000
Ne 1 "+3.3V"
Po -4.445 -4.445
$EndPAD
$PAD
Sh "26" R 0.4572 1.27 0 0 0
Dr 0 0 0
At SMD N 00888000
Ne 10 "N-0000037"
Po -5.715 -4.445
$EndPAD
$PAD
Sh "27" R 0.4572 1.27 0 0 0
Dr 0 0 0
At SMD N 00888000
Ne 11 "N-0000039"
Po -6.985 -4.445
$EndPAD
$PAD
Sh "28" R 0.4572 1.27 0 0 0
Dr 0 0 0
At SMD N 00888000
Ne 1 "+3.3V"
Po -8.255 -4.445
$EndPAD
$PAD
Sh "1" R 0.4572 1.27 0 0 0
Dr 0 0 0
At SMD N 00888000
Ne 4 "N-0000013"
Po -8.255 4.445
$EndPAD
$PAD
Sh "2" R 0.4572 1.27 0 0 0
Dr 0 0 0
At SMD N 00888000
Ne 3 "GND"
Po -6.985 4.445
$EndPAD
$PAD
Sh "3" R 0.4572 1.27 0 0 0
Dr 0 0 0
At SMD N 00888000
Ne 2 "CLKOUT"
Po -5.715 4.445
$EndPAD
$PAD
Sh "4" R 0.4572 1.27 0 0 0
Dr 0 0 0
At SMD N 00888000
Ne 0 ""
Po -4.445 4.445
$EndPAD
$PAD
Sh "5" R 0.4572 1.27 0 0 0
Dr 0 0 0
At SMD N 00888000
Ne 0 ""
Po -3.175 4.445
$EndPAD
$PAD
Sh "9" R 0.4572 1.27 0 0 0
Dr 0 0 0
At SMD N 00888000
Ne 6 "N-0000029"
Po 1.905 4.445
$EndPAD
$PAD
Sh "10" R 0.4572 1.27 0 0 0
Dr 0 0 0
At SMD N 00888000
Ne 16 "RESET"
Po 3.175 4.445
$EndPAD
$PAD
Sh "11" R 0.4572 1.27 0 0 0
Dr 0 0 0
At SMD N 00888000
Ne 3 "GND"
Po 4.445 4.445
$EndPAD
$PAD
Sh "12" R 0.4572 1.27 0 0 0
Dr 0 0 0
At SMD N 00888000
Ne 14 "RD+"
Po 5.715 4.445
$EndPAD
$PAD
Sh "13" R 0.4572 1.27 0 0 0
Dr 0 0 0
At SMD N 00888000
Ne 15 "RD-"
Po 6.985 4.445
$EndPAD
$PAD
Sh "14" R 0.4572 1.27 0 0 0
Dr 0 0 0
At SMD N 00888000
Ne 12 "N-000004"
Po 8.255 4.445
$EndPAD
$PAD
Sh "6" R 0.4572 1.27 0 0 0
Dr 0 0 0
At SMD N 00888000
Ne 5 "N-0000016"
Po -1.905 4.445
$EndPAD
$PAD
Sh "7" R 0.4572 1.27 0 0 0
Dr 0 0 0
At SMD N 00888000
Ne 8 "N-0000031"
Po -0.635 4.445
$EndPAD
$PAD
Sh "8" R 0.4572 1.27 0 0 0
Dr 0 0 0
At SMD N 00888000
Ne 7 "N-0000030"
Po 0.635 4.445
$EndPAD
$PAD
Sh "23" R 0.4572 1.27 0 0 0
Dr 0 0 0
At SMD N 00888000
Ne 13 "N-000005"
Po -1.905 -4.445
$EndPAD
$PAD
Sh "22" R 0.4572 1.27 0 0 0
Dr 0 0 0
At SMD N 00888000
Ne 3 "GND"
Po -0.635 -4.445
$EndPAD
$PAD
Sh "21" R 0.4572 1.27 0 0 0
Dr 0 0 0
At SMD N 00888000
Ne 3 "GND"
Po 0.635 -4.445
$EndPAD
$PAD
Sh "15" R 0.4572 1.27 0 0 0
Dr 0 0 0
At SMD N 00888000
Ne 1 "+3.3V"
Po 8.255 -4.445
$EndPAD
$SHAPE3D
Na "smd/cms_soj28.wrl"
Sc 0.5 0.7 0.5
Of 0 0 0
Ro 0 0 0
$EndSHAPE3D
$EndMODULE SOIC28_7.5_WIDE
$EndLIBRARY
