#VRML V2.0 utf8
#Exported from Wings 3D 1.5.1
DEF Cube2 Transform {
  children [
    Shape {
      appearance Appearance {
        material DEF epoxy Material {
          diffuseColor 0.151 0.151 0.151
          emissiveColor 0.0 0.0 0.0
          specularColor 0.0 0.0 0.0
          ambientIntensity 1.0
          transparency 0.0
          shininess 0.0
        }
      }
      geometry IndexedFaceSet {
        normalPerVertex TRUE
        coord Coordinate { point [
          -1.5300950670825157 -0.22832719170175939 0.2690691676099632,
          -1.5300950670825157 0.23833947496490723 0.26906916760996324,
          0.7699049329174841 -0.228327191701759 0.269069167609963,
          0.7699049329174841 0.23833947496490768 0.2690691676099631,
          -1.5300950670825157 0.49641859816507494 -9.308323900367177e-4,
          -1.5300950670825157 -0.485609301036664 -9.308323900368287e-4,
          0.7699049329174841 -0.370327191701759 -9.308323900369952e-4,
          0.7699049329174841 0.3803394749649077 -9.308323900369397e-4,
          -0.7634284004158489 -0.6949938583684258 0.2690691676099631,
          0.003238266250817745 -0.6949938583684258 0.269069167609963,
          -0.7634284004158491 0.7050061416315742 0.26906916760996324,
          0.0032382662508174676 0.7050061416315742 0.26906916760996324,
          -0.7634284004158489 -0.6949938583684258 -9.308323900369397e-4,
          0.003238266250817745 -0.6949938583684258 -9.308323900369397e-4,
          0.0032382662508174676 0.7050061416315742 -9.308323900367732e-4,
          -0.7634284004158491 0.7050061416315742 -9.308323900367732e-4,
          0.22323826625081766 -0.370327191701759 -9.308323900368842e-4,
          0.22323826625081755 0.3803394749649076 -9.308323900368287e-4,
          -0.2234284004158491 0.4964185981650753 -9.308323900368287e-4,
          -0.22342840041584885 -0.4856093010366639 -9.308323900369397e-4,
          -1.5300950670825157 -0.485609301036664 0.2690691676099632,
          -1.5300950670825157 0.49641859816507494 0.2690691676099633,
          -0.2234284004158491 0.4964185981650753 0.26906916760996324,
          -0.22342840041584885 -0.4856093010366639 0.2690691676099631,
          0.7699049329174841 0.3803394749649077 0.26906916760996313,
          0.7699049329174841 -0.370327191701759 0.269069167609963,
          0.22323826625081766 -0.370327191701759 0.2690691676099631,
          0.22323826625081755 0.3803394749649076 0.2690691676099632,
          -1.5300950670825157 -0.5422743634360994 0.2690691676099632,
          -1.5233141099420318 -0.5763645370628783 0.26906916760996313,
          -1.4928167547151203 -0.6322721707358321 0.26906916760996313,
          -1.512127286881493 -0.6033719170155454 0.26906916760996313,
          -1.377375572150189 -0.6949938583684259 0.26906916760996313,
          -1.4114657457769482 -0.6882129012279421 0.26906916760996313,
          -1.438473125729616 -0.6770260781673643 0.26906916760996313,
          -1.4673733794499222 -0.6577155460010311 0.26906916760996313,
          0.6171854379851576 -0.6949938583684256 0.269069167609963,
          0.6512756116119167 -0.6882129012279417 0.269069167609963,
          0.6782829915645845 -0.6770260781673638 0.269069167609963,
          0.7071832452848905 -0.6577155460010307 0.269069167609963,
          0.7326266205500886 -0.6322721707358316 0.269069167609963,
          0.7519371527164613 -0.6033719170155449 0.269069167609963,
          0.7631239757770001 -0.5763645370628778 0.269069167609963,
          0.7699049329174841 -0.5422743634360989 0.269069167609963,
          -1.377375572150189 0.705006141631574 0.2690691676099633,
          -1.4114657457769482 0.6982251844910901 0.2690691676099633,
          -1.4673733794499222 0.6677278292641788 0.2690691676099633,
          -1.438473125729616 0.6870383614305122 0.2690691676099633,
          -1.5300950670825157 0.5522866466992471 0.2690691676099633,
          -1.5233141099420318 0.586376820326026 0.2690691676099633,
          -1.512127286881493 0.6133842002786931 0.2690691676099633,
          -1.4928167547151203 0.6422844539989798 0.2690691676099633,
          0.7699049329174841 0.5522866466992475 0.26906916760996313,
          0.7631239757770001 0.5863768203260264 0.26906916760996313,
          0.7519371527164613 0.6133842002786936 0.2690691676099632,
          0.7326266205500886 0.6422844539989803 0.2690691676099632,
          0.7071832452848905 0.6677278292641793 0.2690691676099632,
          0.6782829915645843 0.6870383614305127 0.2690691676099632,
          0.6512756116119165 0.6982251844910905 0.2690691676099632,
          0.6171854379851573 0.7050061416315743 0.2690691676099632,
          0.6171854379851576 -0.6949938583684256 -9.308323900369952e-4,
          0.6512756116119167 -0.6882129012279417 -9.308323900369952e-4,
          0.6782829915645845 -0.6770260781673638 -9.308323900369952e-4,
          0.7071832452848905 -0.6577155460010307 -9.308323900369952e-4,
          0.7326266205500886 -0.6322721707358315 -9.308323900369952e-4,
          0.7519371527164613 -0.6033719170155448 -9.308323900369952e-4,
          0.7631239757770001 -0.5763645370628777 -9.308323900370508e-4,
          0.7699049329174841 -0.5422743634360988 -9.308323900370508e-4,
          -1.5300950670825157 -0.5422743634360992 -9.308323900368287e-4,
          -1.5233141099420318 -0.5763645370628782 -9.308323900368287e-4,
          -1.512127286881493 -0.6033719170155453 -9.308323900368842e-4,
          -1.4928167547151203 -0.632272170735832 -9.308323900368842e-4,
          -1.4673733794499222 -0.6577155460010311 -9.308323900368842e-4,
          -1.438473125729616 -0.6770260781673643 -9.308323900368842e-4,
          -1.4114657457769482 -0.6882129012279421 -9.308323900368842e-4,
          -1.377375572150189 -0.6949938583684259 -9.308323900368842e-4,
          -1.377375572150189 0.705006141631574 -9.308323900367177e-4,
          -1.4114657457769482 0.6982251844910901 -9.308323900367177e-4,
          -1.438473125729616 0.6870383614305122 -9.308323900367177e-4,
          -1.4673733794499222 0.6677278292641788 -9.308323900367177e-4,
          -1.4928167547151203 0.6422844539989798 -9.308323900367177e-4,
          -1.512127286881493 0.6133842002786931 -9.308323900367177e-4,
          -1.5233141099420318 0.586376820326026 -9.308323900366622e-4,
          -1.5300950670825157 0.5522866466992471 -9.308323900366622e-4,
          0.7699049329174841 0.5522866466992475 -9.308323900368842e-4,
          0.7631239757770001 0.5863768203260264 -9.308323900368842e-4,
          0.7519371527164613 0.6133842002786936 -9.308323900368287e-4,
          0.7326266205500886 0.6422844539989803 -9.308323900368287e-4,
          0.7071832452848905 0.6677278292641793 -9.308323900368287e-4,
          0.6782829915645843 0.6870383614305127 -9.308323900368287e-4,
          0.6512756116119165 0.6982251844910905 -9.308323900368287e-4,
          0.6171854379851573 0.7050061416315743 -9.308323900368287e-4,
          -1.2645349876767213 -0.6263082852106654 0.7204315055038029,
          -1.2986251613035003 -0.6195273280701815 0.7204315055038031,
          -1.3256325412561676 -0.6083405050096037 0.7204315055038031,
          -1.3545327949764738 -0.5890299728432704 0.7204315055038031,
          -1.3799761702416922 -0.5635865975780714 0.7204315055038031,
          -1.3992867024080256 -0.5346863438577848 0.7204315055038031,
          -1.4104735254685643 -0.5076789639051078 0.7204315055038031,
          -1.4172544826090483 -0.4735887902783388 0.7204315055038031,
          0.5043448535117001 -0.6263082852106651 0.7204315055038029,
          0.538435027138479 -0.6195273280701812 0.7204315055038029,
          0.5943426608114526 -0.5890299728432701 0.7204315055038029,
          0.5654424070911461 -0.6083405050096033 0.7204315055038029,
          0.6570643484440268 -0.47358879027833845 0.7204315055038029,
          0.6502833913035428 -0.5076789639051074 0.7204315055038029,
          0.6390965682430041 -0.5346863438577844 0.7204315055038029,
          0.6197860360766707 -0.5635865975780711 0.7204315055038029,
          -1.4172544826090483 0.4836010735414866 0.7204315055038031,
          -1.4104735254685643 0.5176912471682555 0.7204315055038031,
          -1.3992867024080256 0.5446986271209326 0.7204315055038033,
          -1.3799761702416922 0.5735988808412193 0.7204315055038033,
          -1.3545327949764738 0.5990422561064184 0.7204315055038033,
          -1.3256325412561676 0.6183527882727518 0.7204315055038033,
          -1.2986251613035005 0.6295396113333296 0.7204315055038033,
          -1.2645349876767216 0.6363205684738134 0.7204315055038031,
          0.5043448535116999 0.6363205684738138 0.7204315055038031,
          0.5384350271384788 0.6295396113333298 0.7204315055038031,
          0.565442407091146 0.618352788272752 0.7204315055038031,
          0.5943426608114525 0.5990422561064188 0.7204315055038031,
          0.6197860360766706 0.5735988808412198 0.7204315055038031,
          0.639096568243004 0.5446986271209331 0.7204315055038031,
          0.6502833913035427 0.517691247168256 0.7204315055038029,
          0.6570643484440267 0.48360107354148707 0.7204315055038029,
          -0.6758837968889522 -0.6263236005476639 0.7203308618607134,
          -0.6741885687717399 -0.6159938583684269 0.729069167609963,
          -0.08430633727607892 -0.6263236005476639 0.7203308618607134,
          -0.08600156539329115 -0.6159938583684269 0.729069167609963,
          -0.6741885687717402 0.6260061416315751 0.7290691676099632,
          -0.6758837968889524 0.6363358838108121 0.7203308618607136,
          -0.0860015653932914 0.6260061416315752 0.7290691676099632,
          -0.08430633727607917 0.6363358838108122 0.7203308618607136,
          -1.2614891495199716 0.626006141631575 0.7290691676099632,
          -1.2938405426108968 0.6195710494438289 0.7290691676099634,
          -1.3192100271131357 0.6090626648925728 0.7290691676099634,
          -1.3466362138720886 0.5907370727806753 0.7290691676099634,
          -1.370825998231666 0.5665472884211173 0.7290691676099634,
          -1.3891515903435434 0.539121101662204 0.7290691676099634,
          -1.3996599748947705 0.513751617159945 0.7290691676099632,
          -1.4060950670825167 0.4814002240690348 0.7290691676099632,
          -1.4060950670825167 -0.471387940805887 0.7290691676099632,
          -1.3996599748947705 -0.5037393338967973 0.7290691676099632,
          -1.3891515903435434 -0.5291088183990561 0.7290691676099632,
          -1.370825998231666 -0.5565350051579694 0.7290691676099632,
          -1.3466362138720886 -0.5807247895175274 0.7290691676099632,
          -1.3192100271131357 -0.5990503816294247 0.7290691676099632,
          -1.2938405426108965 -0.6095587661806808 0.7290691676099632,
          -1.2614891495199714 -0.615993858368427 0.729069167609963,
          0.5012990153549401 -0.6159938583684267 0.729069167609963,
          0.5336504084458553 -0.6095587661806805 0.729069167609963,
          0.5590198929481043 -0.5990503816294244 0.729069167609963,
          0.5864460797070574 -0.580724789517527 0.729069167609963,
          0.6106358640666245 -0.556535005157969 0.729069167609963,
          0.628961456178512 -0.5291088183990557 0.729069167609963,
          0.639469840729739 -0.5037393338967968 0.729069167609963,
          0.6459049329174853 -0.47138794080588664 0.729069167609963,
          0.6459049329174852 0.48140022406903527 0.729069167609963,
          0.6394698407297389 0.5137516171599454 0.729069167609963,
          0.6289614561785118 0.5391211016622044 0.7290691676099632,
          0.6106358640666244 0.5665472884211178 0.7290691676099632,
          0.5864460797070573 0.5907370727806758 0.7290691676099632,
          0.5590198929481042 0.609062664892573 0.7290691676099632,
          0.5336504084458551 0.6195710494438291 0.7290691676099632,
          0.5012990153549399 0.6260061416315754 0.7290691676099632 ] }
        coordIndex [
          0, 1, 48, 83, 4, 21, 20, 5, 68, 28, -1,
          0, 28, 99, 108, 48, 1, -1,
          2, 3, 52, 123, 104, 43, -1,
          2, 43, 67, 6, 25, 24, 7, 84, 52, 3, -1,
          4, 18, 22, 21, -1,
          4, 83, 82, 81, 80, 79, 78, 77, 76, 15, 14, 13, 12, 75, 74, 73, 72, 71, 70, 69, 68, 5, 19, 18, -1,
          5, 20, 23, 19, -1,
          6, 16, 26, 25, -1,
          6, 67, 66, 65, 64, 63, 62, 61, 60, 13, 14, 91, 90, 89, 88, 87, 86, 85, 84, 7, 17, 16, -1,
          7, 24, 27, 17, -1,
          8, 9, 126, 124, -1,
          8, 12, 13, 9, -1,
          8, 32, 75, 12, -1,
          8, 124, 92, 32, -1,
          9, 13, 60, 36, -1,
          9, 36, 100, 126, -1,
          10, 11, 14, 15, -1,
          10, 15, 76, 44, -1,
          10, 44, 115, 129, -1,
          10, 129, 131, 11, -1,
          11, 59, 91, 14, -1,
          11, 131, 116, 59, -1,
          16, 17, 27, 26, -1,
          18, 19, 23, 22, -1,
          20, 21, 22, 23, -1,
          24, 25, 26, 27, -1,
          28, 29, 98, 99, -1,
          28, 68, 69, 29, -1,
          29, 31, 97, 98, -1,
          29, 69, 70, 31, -1,
          30, 31, 70, 71, -1,
          30, 35, 95, 96, -1,
          30, 71, 72, 35, -1,
          30, 96, 97, 31, -1,
          32, 33, 74, 75, -1,
          32, 92, 93, 33, -1,
          33, 34, 73, 74, -1,
          33, 93, 94, 34, -1,
          34, 35, 72, 73, -1,
          34, 94, 95, 35, -1,
          36, 37, 101, 100, -1,
          36, 60, 61, 37, -1,
          37, 38, 103, 101, -1,
          37, 61, 62, 38, -1,
          38, 39, 102, 103, -1,
          38, 62, 63, 39, -1,
          39, 40, 107, 102, -1,
          39, 63, 64, 40, -1,
          40, 41, 106, 107, -1,
          40, 64, 65, 41, -1,
          41, 42, 105, 106, -1,
          41, 65, 66, 42, -1,
          42, 43, 104, 105, -1,
          42, 66, 67, 43, -1,
          44, 45, 114, 115, -1,
          44, 76, 77, 45, -1,
          45, 47, 113, 114, -1,
          45, 77, 78, 47, -1,
          46, 47, 78, 79, -1,
          46, 51, 111, 112, -1,
          46, 79, 80, 51, -1,
          46, 112, 113, 47, -1,
          48, 49, 82, 83, -1,
          48, 108, 109, 49, -1,
          49, 50, 81, 82, -1,
          49, 109, 110, 50, -1,
          50, 51, 80, 81, -1,
          50, 110, 111, 51, -1,
          52, 53, 122, 123, -1,
          52, 84, 85, 53, -1,
          53, 54, 121, 122, -1,
          53, 85, 86, 54, -1,
          54, 55, 120, 121, -1,
          54, 86, 87, 55, -1,
          55, 56, 119, 120, -1,
          55, 87, 88, 56, -1,
          56, 57, 118, 119, -1,
          56, 88, 89, 57, -1,
          57, 58, 117, 118, -1,
          57, 89, 90, 58, -1,
          58, 59, 116, 117, -1,
          58, 90, 91, 59, -1,
          92, 124, 125, 147, -1,
          92, 147, 146, 93, -1,
          93, 146, 145, 94, -1,
          94, 145, 144, 95, -1,
          95, 144, 143, 96, -1,
          96, 143, 142, 97, -1,
          97, 142, 141, 98, -1,
          98, 141, 140, 99, -1,
          99, 140, 139, 108, -1,
          100, 101, 149, 148, -1,
          100, 148, 127, 126, -1,
          101, 103, 150, 149, -1,
          102, 107, 152, 151, -1,
          102, 151, 150, 103, -1,
          104, 123, 156, 155, -1,
          104, 155, 154, 105, -1,
          105, 154, 153, 106, -1,
          106, 153, 152, 107, -1,
          108, 139, 138, 109, -1,
          109, 138, 137, 110, -1,
          110, 137, 136, 111, -1,
          111, 136, 135, 112, -1,
          112, 135, 134, 113, -1,
          113, 134, 133, 114, -1,
          114, 133, 132, 115, -1,
          115, 132, 128, 129, -1,
          116, 131, 130, 163, -1,
          116, 163, 162, 117, -1,
          117, 162, 161, 118, -1,
          118, 161, 160, 119, -1,
          119, 160, 159, 120, -1,
          120, 159, 158, 121, -1,
          121, 158, 157, 122, -1,
          122, 157, 156, 123, -1,
          124, 126, 127, 125, -1,
          125, 127, 130, 128, -1,
          125, 128, 132, 133, 134, 135, 136, 137, 138, 139, 140, 141, 142, 143, 144, 145, 146, 147, -1,
          127, 148, 149, 150, 151, 152, 153, 154, 155, 156, 157, 158, 159, 160, 161, 162, 163, 130, -1,
          128, 130, 131, 129, -1 ]
        normal Normal { vector [
          -0.9925075566829021 5.429592261646807e-16 0.12218326369571224,
          -0.9925075566829021 5.429592261646807e-16 0.12218326369571224,
          0.9925075566829034 -2.757095235671436e-16 0.12218326369570172,
          0.9925075566829034 -2.757095235671436e-16 0.12218326369570172,
          -0.5773502691896258 -0.5773502691896254 -0.5773502691896261,
          -0.5773502691896256 0.5773502691896262 -0.5773502691896256,
          0.5773502691896258 0.5773502691896256 -0.5773502691896258,
          0.5773502691896257 -0.577350269189626 -0.5773502691896256,
          -1.2936554891321345e-15 -0.9971506499370124 0.07543594189903013,
          1.5027973594053712e-15 -0.9971506499370124 0.07543594189903018,
          -1.4972706554821333e-15 0.9971506499370123 0.07543594189903033,
          1.2548192016904722e-15 0.9971506499370124 0.07543594189903023,
          7.757479615220668e-17 -0.8944271909999159 -0.4472135954999579,
          2.850382530789484e-17 -0.7071067811865475 -0.7071067811865476,
          -9.936486852845102e-17 0.7071067811865477 -0.7071067811865475,
          -8.416772942922791e-17 0.8944271909999159 -0.4472135954999579,
          0.5773502691896256 0.577350269189626 -0.5773502691896256,
          0.577350269189626 -0.5773502691896256 -0.5773502691896258,
          -0.5773502691896256 -0.577350269189626 -0.5773502691896258,
          -0.5773502691896258 0.5773502691896257 -0.5773502691896258,
          -0.5773502691896256 0.5773502691896262 -0.5773502691896256,
          -0.5773502691896258 -0.5773502691896254 -0.5773502691896261,
          -0.5773502691896256 -0.577350269189626 -0.5773502691896258,
          -0.5773502691896258 0.5773502691896257 -0.5773502691896258,
          0.5773502691896256 -0.577350269189626 -0.5773502691896256,
          0.5773502691896258 0.5773502691896256 -0.5773502691896258,
          0.5773502691896256 0.577350269189626 -0.5773502691896256,
          0.5773502691896258 -0.5773502691896257 -0.5773502691896258,
          -0.9869405208460874 -0.09705776363970889 0.12856204272378483,
          -0.9478555393734164 -0.28743531242638515 0.13766196878396117,
          -0.7653005576481465 -0.6281320207324149 0.14058883666226532,
          -0.873032341860044 -0.4666222298465929 0.14169765234244608,
          -0.09745754640897916 -0.9914364899697153 0.08692360441486728,
          -0.2884291990237829 -0.9514843892671718 0.10717301027486385,
          -0.46766361903636383 -0.8752882751200416 0.12313072267794563,
          -0.6285515056119648 -0.7660751877719886 0.13435702986090722,
          0.09745754640898188 -0.9914364899697151 0.08692360441486646,
          0.28842919902378567 -0.9514843892671713 0.10717301027486095,
          0.4676636190363652 -0.8752882751200416 0.12313072267794069,
          0.6285515056119664 -0.7660751877719882 0.1343570298609005,
          0.7653005576481478 -0.6281320207324149 0.1405888366622573,
          0.8730323418600452 -0.46662222984659335 0.141697652342437,
          0.9478555393734177 -0.2874353124263855 0.1376619687839513,
          0.9869405208460886 -0.0970577636397094 0.12856204272377442,
          -0.09745754640898131 0.9914364899697151 0.0869236044148675,
          -0.288429199023785 0.9514843892671712 0.10717301027486388,
          -0.6285515056119664 0.7660751877719874 0.13435702986090717,
          -0.46766361903636605 0.8752882751200404 0.12313072267794566,
          -0.9869405208460873 0.09705776363970939 0.12856204272378485,
          -0.9478555393734165 0.2874353124263846 0.1376619687839612,
          -0.8730323418600443 0.4666222298465923 0.1416976523424461,
          -0.7653005576481464 0.6281320207324149 0.1405888366622653,
          0.9869405208460886 0.09705776363970914 0.1285620427237745,
          0.9478555393734178 0.28743531242638504 0.1376619687839514,
          0.8730323418600454 0.46662222984659296 0.14169765234243714,
          0.7653005576481476 0.6281320207324154 0.1405888366622574,
          0.6285515056119665 0.7660751877719884 0.13435702986090056,
          0.46766361903636533 0.8752882751200416 0.12313072267794074,
          0.2884291990237836 0.9514843892671718 0.107173010274861,
          0.09745754640897974 0.9914364899697153 0.08692360441486639,
          0.08758427504249452 -0.8892580677814199 -0.44894218297118865,
          0.25938701055564733 -0.8550843789381607 -0.44894218297119787,
          0.42122164871855344 -0.7880502769493242 -0.44894218297116706,
          0.5668689751450628 -0.6907318447610777 -0.448942182971198,
          0.6907318447607416 -0.5668689751454905 -0.4489421829711752,
          0.7880502769492989 -0.421221648718554 -0.44894218297121097,
          0.8550843789383435 -0.2593870105550784 -0.44894218297117816,
          0.8892580677814258 -0.08758427504244544 -0.44894218297118665,
          -0.8892580677814258 -0.08758427504244475 -0.44894218297118665,
          -0.8550843789383435 -0.2593870105550784 -0.44894218297117816,
          -0.7880502769492989 -0.421221648718554 -0.44894218297121097,
          -0.6907318447607416 -0.5668689751454905 -0.4489421829711752,
          -0.5668689751450616 -0.6907318447610786 -0.448942182971198,
          -0.4212216487185521 -0.7880502769493251 -0.44894218297116706,
          -0.2593870105556447 -0.8550843789381615 -0.44894218297119803,
          -0.08758427504249162 -0.8892580677814204 -0.44894218297118854,
          -0.08758427504249455 0.8892580677814199 -0.44894218297118854,
          -0.25938701055564733 0.8550843789381606 -0.44894218297119776,
          -0.4212216487185541 0.7880502769493238 -0.44894218297116706,
          -0.5668689751450631 0.6907318447610775 -0.4489421829711977,
          -0.6907318447607412 0.5668689751454911 -0.44894218297117505,
          -0.788050276949299 0.42122164871855416 -0.44894218297121086,
          -0.8550843789383435 0.25938701055507846 -0.4489421829711781,
          -0.8892580677814258 0.08758427504244573 -0.44894218297118665,
          0.8892580677814258 0.08758427504244505 -0.44894218297118665,
          0.8550843789383435 0.2593870105550785 -0.4489421829711781,
          0.788050276949299 0.42122164871855416 -0.44894218297121086,
          0.6907318447607411 0.566868975145491 -0.44894218297117494,
          0.5668689751450631 0.6907318447610775 -0.4489421829711977,
          0.42122164871855405 0.7880502769493238 -0.44894218297116706,
          0.2593870105556446 0.8550843789381616 -0.448942182971198,
          0.08758427504249156 0.8892580677814202 -0.4489421829711885,
          -0.08395276299905186 -0.8589261534379721 0.5051710566977033,
          -0.24564295357851146 -0.8115148420277289 0.5301916639536456,
          -0.3936249657947985 -0.7372654466294937 0.5490892891955343,
          -0.5244469797667052 -0.6394576210385603 0.5621826360794917,
          -0.6353999947524618 -0.5216059165353164 0.5693804655095959,
          -0.7242456331326405 -0.3870659489965439 0.5706559506530232,
          -0.7889609638331513 -0.2391185770745433 0.5660060985937436,
          -0.8275831330670389 -0.08116460384622702 0.5554443851056815,
          0.08395276299905474 -0.8589261534379549 0.5051710566977323,
          0.24564295357849208 -0.8115148420276835 0.5301916639537239,
          0.5244469797666556 -0.6394576210384807 0.5621826360796286,
          0.393624965794759 -0.7372654466294418 0.549089289195632,
          0.8275831330669273 -0.08116460384621643 0.5554443851058496,
          0.7889609638330479 -0.2391185770745125 0.5660060985939007,
          0.7242456331325232 -0.3870659489964993 0.5706559506532024,
          0.6353999947523579 -0.5216059165352351 0.5693804655097864,
          -0.8275831330670389 0.08116460384622715 0.5554443851056815,
          -0.7889609638331521 0.2391185770745411 0.5660060985937434,
          -0.7242456331326418 0.38706594899654134 0.5706559506530232,
          -0.6353999947524621 0.5216059165353162 0.5693804655095959,
          -0.5244469797667062 0.6394576210385595 0.5621826360794916,
          -0.3936249657948005 0.7372654466294924 0.5490892891955345,
          -0.24564295357851212 0.8115148420277287 0.5301916639536457,
          -0.08395276299905187 0.8589261534379721 0.5051710566977035,
          0.08395276299905463 0.8589261534379549 0.5051710566977323,
          0.24564295357849178 0.8115148420276836 0.530191663953724,
          0.39362496579475803 0.7372654466294424 0.549089289195632,
          0.5244469797666551 0.639457621038481 0.5621826360796286,
          0.6353999947523579 0.5216059165352351 0.5693804655097863,
          0.7242456331325242 0.3870659489964972 0.5706559506532026,
          0.7889609638330487 0.23911857707451026 0.5660060985939006,
          0.8275831330669273 0.08116460384621647 0.5554443851058496,
          1.5247137783731708e-5 -0.8725206745960566 0.48857719161865,
          1.5196384893289136e-5 -0.34331789052663914 0.9392192639705642,
          -1.5247137783507975e-5 -0.8725206745960566 0.48857719161865,
          -1.5196384893027392e-5 -0.34331789052663914 0.9392192639705642,
          1.5196384893192249e-5 0.34331789052663897 0.9392192639705643,
          1.5247137783514187e-5 0.8725206745960565 0.48857719161865015,
          -1.5196384893189311e-5 0.34331789052663897 0.9392192639705643,
          -1.5247137783837997e-5 0.8725206745960566 0.48857719161865004,
          -0.04308891536146686 0.44339396166149436 0.8952905339246572,
          -0.12575240281706174 0.41592281462313563 0.9006633918738478,
          -0.20083951249520346 0.376373194854471 0.9044372329884078,
          -0.2669963355026522 0.32563447033773935 0.9070144147454411,
          -0.32311498780834996 0.26527634657025806 0.9084190468082153,
          -0.3682359085050605 0.1967903076688629 0.9086670955278655,
          -0.40146480760009456 0.12163434294130712 0.9077615848205165,
          -0.4219199457613104 0.041303435978449266 0.9056917718214885,
          -0.4219199457613104 -0.041303435978449266 0.9056917718214885,
          -0.4014648076000936 -0.12163434294130941 0.9077615848205165,
          -0.3682359085050594 -0.19679030766886565 0.9086670955278654,
          -0.32311498780834974 -0.26527634657025845 0.9084190468082151,
          -0.2669963355026518 -0.3256344703377399 0.9070144147454411,
          -0.20083951249520243 -0.37637319485447174 0.9044372329884076,
          -0.1257524028170618 -0.41592281462313574 0.9006633918738477,
          -0.04308891536146746 -0.44339396166149414 0.8952905339246573,
          0.043088915361468076 -0.44339396166145145 0.8952905339246783,
          0.12575240281701977 -0.4159228146230269 0.9006633918739039,
          0.200839512495119 -0.37637319485434584 0.9044372329884787,
          0.2669963355025286 -0.3256344703375652 0.90701441474554,
          0.32311498780811876 -0.2652763465700754 0.9084190468083507,
          0.3682359085048011 -0.1967903076687519 0.9086670955279947,
          0.40146480759985664 -0.12163434294123841 0.9077615848206309,
          0.42191994576104996 -0.04130343597842413 0.9056917718216109,
          0.42191994576104996 0.041303435978424057 0.9056917718216109,
          0.4014648075998576 0.12163434294123598 0.9077615848206307,
          0.36823590850480203 0.19679030766874947 0.9086670955279947,
          0.3231149878081188 0.2652763465700753 0.9084190468083507,
          0.2669963355025282 0.3256344703375655 0.9070144147455401,
          0.20083951249511822 0.37637319485434617 0.9044372329884787,
          0.12575240281702016 0.4159228146230267 0.9006633918739039,
          0.04308891536146859 0.4433939616614511 0.8952905339246785 ] }
        normalIndex [
          0, 1, 48, 83, 4, 21, 20, 5, 68, 28, -1,
          0, 28, 99, 108, 48, 1, -1,
          2, 3, 52, 123, 104, 43, -1,
          2, 43, 67, 6, 25, 24, 7, 84, 52, 3, -1,
          4, 18, 22, 21, -1,
          4, 83, 82, 81, 80, 79, 78, 77, 76, 15, 14, 13, 12, 75, 74, 73, 72, 71, 70, 69, 68, 5, 19, 18, -1,
          5, 20, 23, 19, -1,
          6, 16, 26, 25, -1,
          6, 67, 66, 65, 64, 63, 62, 61, 60, 13, 14, 91, 90, 89, 88, 87, 86, 85, 84, 7, 17, 16, -1,
          7, 24, 27, 17, -1,
          8, 9, 126, 124, -1,
          8, 12, 13, 9, -1,
          8, 32, 75, 12, -1,
          8, 124, 92, 32, -1,
          9, 13, 60, 36, -1,
          9, 36, 100, 126, -1,
          10, 11, 14, 15, -1,
          10, 15, 76, 44, -1,
          10, 44, 115, 129, -1,
          10, 129, 131, 11, -1,
          11, 59, 91, 14, -1,
          11, 131, 116, 59, -1,
          16, 17, 27, 26, -1,
          18, 19, 23, 22, -1,
          20, 21, 22, 23, -1,
          24, 25, 26, 27, -1,
          28, 29, 98, 99, -1,
          28, 68, 69, 29, -1,
          29, 31, 97, 98, -1,
          29, 69, 70, 31, -1,
          30, 31, 70, 71, -1,
          30, 35, 95, 96, -1,
          30, 71, 72, 35, -1,
          30, 96, 97, 31, -1,
          32, 33, 74, 75, -1,
          32, 92, 93, 33, -1,
          33, 34, 73, 74, -1,
          33, 93, 94, 34, -1,
          34, 35, 72, 73, -1,
          34, 94, 95, 35, -1,
          36, 37, 101, 100, -1,
          36, 60, 61, 37, -1,
          37, 38, 103, 101, -1,
          37, 61, 62, 38, -1,
          38, 39, 102, 103, -1,
          38, 62, 63, 39, -1,
          39, 40, 107, 102, -1,
          39, 63, 64, 40, -1,
          40, 41, 106, 107, -1,
          40, 64, 65, 41, -1,
          41, 42, 105, 106, -1,
          41, 65, 66, 42, -1,
          42, 43, 104, 105, -1,
          42, 66, 67, 43, -1,
          44, 45, 114, 115, -1,
          44, 76, 77, 45, -1,
          45, 47, 113, 114, -1,
          45, 77, 78, 47, -1,
          46, 47, 78, 79, -1,
          46, 51, 111, 112, -1,
          46, 79, 80, 51, -1,
          46, 112, 113, 47, -1,
          48, 49, 82, 83, -1,
          48, 108, 109, 49, -1,
          49, 50, 81, 82, -1,
          49, 109, 110, 50, -1,
          50, 51, 80, 81, -1,
          50, 110, 111, 51, -1,
          52, 53, 122, 123, -1,
          52, 84, 85, 53, -1,
          53, 54, 121, 122, -1,
          53, 85, 86, 54, -1,
          54, 55, 120, 121, -1,
          54, 86, 87, 55, -1,
          55, 56, 119, 120, -1,
          55, 87, 88, 56, -1,
          56, 57, 118, 119, -1,
          56, 88, 89, 57, -1,
          57, 58, 117, 118, -1,
          57, 89, 90, 58, -1,
          58, 59, 116, 117, -1,
          58, 90, 91, 59, -1,
          92, 124, 125, 147, -1,
          92, 147, 146, 93, -1,
          93, 146, 145, 94, -1,
          94, 145, 144, 95, -1,
          95, 144, 143, 96, -1,
          96, 143, 142, 97, -1,
          97, 142, 141, 98, -1,
          98, 141, 140, 99, -1,
          99, 140, 139, 108, -1,
          100, 101, 149, 148, -1,
          100, 148, 127, 126, -1,
          101, 103, 150, 149, -1,
          102, 107, 152, 151, -1,
          102, 151, 150, 103, -1,
          104, 123, 156, 155, -1,
          104, 155, 154, 105, -1,
          105, 154, 153, 106, -1,
          106, 153, 152, 107, -1,
          108, 139, 138, 109, -1,
          109, 138, 137, 110, -1,
          110, 137, 136, 111, -1,
          111, 136, 135, 112, -1,
          112, 135, 134, 113, -1,
          113, 134, 133, 114, -1,
          114, 133, 132, 115, -1,
          115, 132, 128, 129, -1,
          116, 131, 130, 163, -1,
          116, 163, 162, 117, -1,
          117, 162, 161, 118, -1,
          118, 161, 160, 119, -1,
          119, 160, 159, 120, -1,
          120, 159, 158, 121, -1,
          121, 158, 157, 122, -1,
          122, 157, 156, 123, -1,
          124, 126, 127, 125, -1,
          125, 127, 130, 128, -1,
          125, 128, 132, 133, 134, 135, 136, 137, 138, 139, 140, 141, 142, 143, 144, 145, 146, 147, -1,
          127, 148, 149, 150, 151, 152, 153, 154, 155, 156, 157, 158, 159, 160, 161, 162, 163, 130, -1,
          128, 130, 131, 129, -1 ]
      }
    },
    Shape {
      appearance Appearance {
        material DEF silk Material {
          diffuseColor 1.0 1.0 1.0
          emissiveColor 0.0 0.0 0.0
          specularColor 0.0 0.0 0.0
          ambientIntensity 1.0
          transparency 0.0
          shininess 0.0
        }
      }
      geometry IndexedFaceSet {
        normalPerVertex TRUE
        coord Coordinate { point [
          0.09731399588756445 -0.6249938583684259 0.639335830870913,
          0.35651399588756416 -0.6249938583684258 0.639335830870913,
          0.09731399588756445 -0.6136538583684259 0.7293358308709128,
          0.35651399588756416 -0.6136538583684258 0.7293358308709128,
          0.09731399588756429 0.6350061416315742 0.6393358308709131,
          0.35651399588756394 0.6350061416315742 0.6393358308709131,
          0.09731399588756429 0.6236661416315742 0.729335830870913,
          0.35651399588756394 0.6236661416315742 0.729335830870913 ] }
        coordIndex [
          0, 1, 3, 2, -1,
          0, 2, 6, 4, -1,
          0, 4, 5, 1, -1,
          1, 5, 7, 3, -1,
          2, 3, 7, 6, -1,
          4, 6, 7, 5, -1 ]
        normal Normal { vector [
          -0.6030252253396181 -0.5982946639606008 -0.5276400976805824,
          0.6030252253396184 -0.5982946639606006 -0.5276400976805823,
          -0.5546982222135619 -0.5503467724287954 0.6240419155395905,
          0.5546982222135624 -0.5503467724287952 0.6240419155395905,
          -0.6030252253396182 0.5982946639606007 -0.5276400976805824,
          0.6030252253396182 0.5982946639606008 -0.5276400976805824,
          -0.5546982222135622 0.550346772428795 0.6240419155395905,
          0.5546982222135622 0.5503467724287953 0.6240419155395905 ] }
        normalIndex [
          0, 1, 3, 2, -1,
          0, 2, 6, 4, -1,
          0, 4, 5, 1, -1,
          1, 5, 7, 3, -1,
          2, 3, 7, 6, -1,
          4, 6, 7, 5, -1 ]
      }
    },
    Shape {
      appearance Appearance {
        material DEF default Material {
          diffuseColor 0.7898538076923077 0.8133333333333334 0.6940444444444445
          emissiveColor 0.0 0.0 0.0
          specularColor 0.0 0.0 0.0
          ambientIntensity 0.765743861823362
          transparency 0.0
          shininess 0.0
        }
      }
      geometry IndexedFaceSet {
        normalPerVertex TRUE
        coord Coordinate { point [
          -1.7285905135052733 -0.47999385836842656 0.0028819927804758505,
          -1.7250549795993437 -0.48352939227435887 -0.002118007219523599,
          -1.7250549795993437 -0.483529392274359 0.2678819927804764,
          -1.7285905135052733 -0.47999385836842656 0.26288199278047697,
          -1.7285905135052733 0.4900061416315745 0.0028819927804759615,
          -1.7250549795993437 0.49354167553750683 -0.002118007219523488,
          -1.7285905135052733 0.4900061416315745 0.2628819927804771,
          -1.7250549795993437 0.49354167553750683 0.26788199278047653,
          0.9666482905641023 -0.36852939227435844 -0.00211800721952371,
          0.9701838244700318 -0.3649938583684261 0.0028819927804757395,
          0.9701838244700318 -0.3649938583684261 0.26288199278047686,
          0.9666482905641023 -0.36852939227435844 0.2678819927804763,
          0.9666482905641023 0.3785416755375073 -0.0021180072195236543,
          0.9701838244700318 0.375006141631575 0.002881992780475795,
          0.9701838244700318 0.375006141631575 0.2628819927804769,
          0.9666482905641023 0.3785416755375073 0.26788199278047636,
          -0.22859051350527293 -0.4829227905565602 -0.0021180072195236543,
          -0.22859051350527293 -0.4849938583684258 -4.693940765784516e-5,
          -0.22859051350527293 -0.4849938583684258 0.2658109249686108,
          -0.22859051350527293 -0.4829227905565602 0.26788199278047636,
          -0.2285905135052731 0.49293507381970847 -0.0021180072195235433,
          -0.2285905135052731 0.4950061416315741 -4.693940765773414e-5,
          -0.2285905135052731 0.4950061416315741 0.2658109249686109,
          -0.2285905135052731 0.49293507381970847 0.2678819927804765,
          -1.7250549795993446 -0.4835293922743598 -0.002118007219523599,
          -1.7235905135052738 -0.484993858368426 -4.693940765778965e-5,
          -1.7235905135052738 -0.484993858368426 0.2658109249686108,
          -1.7250549795993446 -0.4835293922743598 0.2678819927804764,
          -1.7235905135052738 0.49500614163157397 -4.693940765767863e-5,
          -1.7250549795993446 0.4935416755375078 -0.002118007219523488,
          -1.7250549795993446 0.4935416755375078 0.26788199278047653,
          -1.7235905135052738 0.49500614163157397 0.2658109249686109,
          0.22018382447003204 -0.36792279055655996 -0.0021180072195236543,
          0.22018382447003204 -0.3699938583684256 -4.693940765784516e-5,
          0.22018382447003204 -0.3699938583684257 0.2658109249686107,
          0.22018382447003204 -0.3679227905565601 0.2678819927804763,
          0.22018382447003193 0.3779350738197087 -0.002118007219523599,
          0.22018382447003193 0.3800061416315743 -4.693940765778965e-5,
          0.22018382447003193 0.3800061416315743 0.2658109249686108,
          0.22018382447003193 0.3779350738197087 0.2678819927804764,
          0.9666482905641008 -0.3685293922743594 -0.00211800721952371,
          0.9651838244700324 -0.3699938583684256 -4.6939407657900674e-5,
          0.9651838244700324 -0.3699938583684256 0.2658109249686107,
          0.9666482905641008 -0.3685293922743594 0.2678819927804763,
          0.9651838244700324 0.3800061416315744 -4.693940765784516e-5,
          0.9666482905641008 0.3785416755375082 -0.0021180072195236543,
          0.9651838244700324 0.3800061416315744 0.2658109249686108,
          0.9666482905641008 0.3785416755375082 0.26788199278047636 ] }
        coordIndex [
          0, 1, 24, 25, 26, 27, 2, 3, -1,
          0, 3, 6, 4, -1,
          0, 4, 5, 1, -1,
          1, 5, 29, 20, 16, 24, -1,
          2, 7, 6, 3, -1,
          2, 27, 19, 23, 30, 7, -1,
          4, 6, 7, 30, 31, 28, 29, 5, -1,
          8, 9, 10, 11, 43, 42, 41, 40, -1,
          8, 12, 13, 9, -1,
          8, 40, 32, 36, 45, 12, -1,
          9, 13, 14, 10, -1,
          10, 14, 15, 11, -1,
          11, 15, 47, 39, 35, 43, -1,
          12, 45, 44, 46, 47, 15, 14, 13, -1,
          16, 17, 25, 24, -1,
          16, 20, 21, 22, 23, 19, 18, 17, -1,
          17, 18, 26, 25, -1,
          18, 19, 27, 26, -1,
          20, 29, 28, 21, -1,
          21, 28, 31, 22, -1,
          22, 31, 30, 23, -1,
          32, 33, 34, 35, 39, 38, 37, 36, -1,
          32, 40, 41, 33, -1,
          33, 41, 42, 34, -1,
          34, 42, 43, 35, -1,
          36, 37, 44, 45, -1,
          37, 38, 46, 44, -1,
          38, 39, 47, 46, -1 ]
        normal Normal { vector [
          -0.9403669021092237 -0.263488241958784 -0.21513724867388906,
          -0.6612248329467566 -0.30687551293974075 -0.6845503194451851,
          -0.6612248329467566 -0.30687551293974097 0.684550319445185,
          -0.9403669021092237 -0.2634882419587841 0.21513724867388898,
          -0.9403669021092226 0.26348824195878834 -0.21513724867388956,
          -0.6612248329467534 0.3068755129397456 -0.684550319445186,
          -0.9403669021092226 0.2634882419587883 0.21513724867388956,
          -0.6612248329467534 0.30687551293974535 0.684550319445186,
          0.6612248329467534 -0.30687551293974535 -0.684550319445186,
          0.9403669021092226 -0.2634882419587883 -0.21513724867388956,
          0.9403669021092226 -0.2634882419587883 0.21513724867388964,
          0.6612248329467534 -0.30687551293974547 0.6845503194451861,
          0.6612248329467545 0.3068755129397437 -0.6845503194451856,
          0.9403669021092229 0.2634882419587867 -0.2151372486738894,
          0.9403669021092229 0.2634882419587867 0.2151372486738894,
          0.6612248329467546 0.3068755129397436 0.6845503194451856,
          0.4823843004770367 -0.3668338557332763 -0.7954484954672664,
          0.47035688459670966 -0.8279718433987299 -0.3053310132485508,
          0.47035688459671315 -0.8279718433987198 0.3053310132485722,
          0.4823843004770321 -0.3668338557332563 0.7954484954672786,
          0.48238430047703657 0.36683385573327665 -0.7954484954672664,
          0.4703568845967092 0.82797184339873 -0.3053310132485507,
          0.470356884596713 0.82797184339872 0.3053310132485722,
          0.4823843004770321 0.3668338557332563 0.7954484954672786,
          -0.3049619495965748 -0.6331227219101473 -0.7114448877455951,
          -0.26699766964914406 -0.9319802740245646 -0.24520402368440866,
          -0.26699766964914623 -0.9319802740245594 0.24520402368442604,
          -0.3049619495965738 -0.6331227219101306 0.7114448877456104,
          -0.26699766964913985 0.931980274024566 -0.24520402368440797,
          -0.30496194959657025 0.6331227219101507 -0.711444887745594,
          -0.3049619495965694 0.6331227219101339 0.7114448877456094,
          -0.2669976696491421 0.9319802740245607 0.24520402368442543,
          -0.48243814334262963 -0.3668048430877592 -0.7954292205692979,
          -0.47041650923746575 -0.8279356586839417 -0.30533727731219623,
          -0.4704165092374689 -0.827935658683933 0.3053372773122148,
          -0.48243814334262564 -0.36680484308774164 0.7954292205693086,
          -0.48243814334262963 0.3668048430877591 -0.7954292205692979,
          -0.47041650923746586 0.8279356586839415 -0.3053372773121961,
          -0.4704165092374696 0.8279356586839316 0.3053372773122177,
          -0.482438143342625 0.36680484308773886 0.79542922056931,
          0.30490055504224844 -0.6331224732766265 -0.7114714227339115,
          0.2669450305322173 -0.9319907676884114 -0.24522145015825864,
          0.2669450305322193 -0.9319907676884067 0.2452214501582738,
          0.3049005550422477 -0.6331224732766116 0.7114714227339249,
          0.26694503053221874 0.9319907676884108 -0.24522145015825883,
          0.3049005550422501 0.6331224732766253 -0.711471422733912,
          0.2669450305322211 0.9319907676884057 0.24522145015827632,
          0.30490055504224933 0.6331224732766083 0.7114714227339273 ] }
        normalIndex [
          0, 1, 24, 25, 26, 27, 2, 3, -1,
          0, 3, 6, 4, -1,
          0, 4, 5, 1, -1,
          1, 5, 29, 20, 16, 24, -1,
          2, 7, 6, 3, -1,
          2, 27, 19, 23, 30, 7, -1,
          4, 6, 7, 30, 31, 28, 29, 5, -1,
          8, 9, 10, 11, 43, 42, 41, 40, -1,
          8, 12, 13, 9, -1,
          8, 40, 32, 36, 45, 12, -1,
          9, 13, 14, 10, -1,
          10, 14, 15, 11, -1,
          11, 15, 47, 39, 35, 43, -1,
          12, 45, 44, 46, 47, 15, 14, 13, -1,
          16, 17, 25, 24, -1,
          16, 20, 21, 22, 23, 19, 18, 17, -1,
          17, 18, 26, 25, -1,
          18, 19, 27, 26, -1,
          20, 29, 28, 21, -1,
          21, 28, 31, 22, -1,
          22, 31, 30, 23, -1,
          32, 33, 34, 35, 39, 38, 37, 36, -1,
          32, 40, 41, 33, -1,
          33, 41, 42, 34, -1,
          34, 42, 43, 35, -1,
          36, 37, 44, 45, -1,
          37, 38, 46, 44, -1,
          38, 39, 47, 46, -1 ]
      }
    }
  ]
}

