#VRML V2.0 utf8
#Exported from Wings 3D 1.5.1
DEF Cube1 Transform {
  children [
    Shape {
      appearance Appearance {
        material DEF epoxy Material {
          diffuseColor 0.151 0.151 0.151
          emissiveColor 0.0 0.0 0.0
          specularColor 0.0 0.0 0.0
          ambientIntensity 1.0
          transparency 0.0
          shininess 0.0
        }
      }
      geometry IndexedFaceSet {
        normalPerVertex TRUE
        coord Coordinate { point [
          1.5224252150564699 -0.4749874654967729 -0.0025068942038847797,
          1.5224252150564699 0.4750125345032271 -0.002506894203884724,
          1.5224252150564699 -0.22498746549677284 0.19749310579611523,
          1.5224252150564699 0.2250125345032272 0.1974931057961153,
          -0.7775747849435298 -0.42498746549677313 -0.0025068942038847797,
          -0.7775747849435298 0.4250125345032269 -0.002506894203884724,
          -0.7775747849435298 -0.22498746549677312 0.19749310579611523,
          -0.7775747849435298 0.22501253450322692 0.1974931057961153,
          -0.6986891846704771 0.20957839531935432 0.5939405178316864,
          -0.6986891846704771 -0.20955332631290052 0.5939405178316864,
          1.4243417533030656 -0.20428901395830648 0.6544135916241732,
          1.4243417533030656 0.20431408296476075 0.6544135916241732,
          -0.6680496849805492 -0.20082427705986133 0.675564340222784,
          -0.6680496849805492 0.20084934606631508 0.675564340222784,
          1.443539614783417 -0.20955332631290027 0.5939405178316864,
          1.443539614783417 0.20957839531935454 0.5939405178316864,
          1.3493338853184844 -0.18053966161575954 0.7245193037618151,
          1.3493338853184844 0.18056473062221381 0.7245193037618151,
          1.372878164939247 0.18822403718259384 0.7170098154676325,
          1.372878164939247 -0.1881989681761395 0.7170098154676325,
          1.3893970647241196 -0.1934803647982253 0.7050188181141307,
          1.3893970647241196 0.1935054338046795 0.7050188181141307,
          -0.6280277348263069 -0.18819896817613985 0.7170098154676325,
          -0.6280277348263069 0.18822403718259353 0.7170098154676325,
          1.412900115093489 0.20084934606631533 0.675564340222784,
          1.412900115093489 -0.20082427705986108 0.675564340222784,
          1.4367022577179458 0.20785500028558834 0.6190951165753577,
          1.4367022577179458 -0.2078299312791341 0.6190951165753577,
          -0.6918518276050057 -0.20782993127913435 0.6190951165753577,
          -0.6918518276050057 0.2078550002855881 0.6190951165753577,
          -0.6445466346111798 0.1935054338046793 0.7050188181141307,
          -0.6445466346111798 -0.19348036479822545 0.7050188181141307,
          -0.6044834552055446 0.1805647306222136 0.7245193037618151,
          -0.6044834552055446 -0.1805396616157598 0.7245193037618151,
          -0.6794913231901255 0.20431408296476053 0.6544135916241732,
          -0.6794913231901255 -0.20428901395830673 0.6544135916241732,
          1.3266470761476548 0.17307722153362215 0.7274931057961153,
          1.3266470761476548 -0.1730521525271678 0.7274931057961153,
          -0.5817966460347149 -0.17305215252716816 0.7274931057961153,
          -0.5817966460347149 0.17307722153362184 0.7274931057961153,
          0.3771446349776238 -0.674987465496773 -0.0025068942038847797,
          -0.38952203168904287 -0.674987465496773 -0.0025068942038847797,
          0.3771446349776237 0.675012534503227 -0.002506894203884724,
          -0.389522031689043 0.675012534503227 -0.002506894203884724,
          0.3771446349776238 -0.674987465496773 0.19749310579611523,
          -0.38952203168904287 -0.674987465496773 0.19749310579611523,
          0.3771446349776237 0.675012534503227 0.1974931057961153,
          -0.389522031689043 0.675012534503227 0.1974931057961153,
          0.3508494348866061 0.6287101169516092 0.5939405178316866,
          -0.36322683159802527 0.6287101169516092 0.5939405178316866,
          0.31944752506496193 0.5416691228601871 0.7245193037618151,
          -0.331824921776381 0.5416691228601871 0.7245193037618151,
          0.3406362683232969 -0.6024979001860377 0.675564340222784,
          -0.35301366503471576 -0.6024979001860377 0.675564340222784,
          -0.3451793149115927 -0.5804661634011302 0.7050188181141307,
          0.3328019182001737 -0.5804661634011302 0.7050188181141307,
          0.3444501477264889 0.6129171798878279 0.6544135916241732,
          -0.3568275444379082 0.6129171798878279 0.6544135916241732,
          0.33280191820017363 0.5804912324075842 0.7050188181141307,
          -0.3451793149115928 0.5804912324075842 0.7050188181141307,
          -0.3609477125762016 0.6235399318503105 0.6190951165753577,
          0.3485703158647823 0.6235399318503105 0.6190951165753577,
          -0.3318249217763811 -0.5416440538537332 0.7245193037618151,
          0.31944752506496193 -0.5416440538537332 0.7245193037618151,
          -0.3530136650347161 0.6025229691924916 0.675564340222784,
          0.3406362683232967 0.6025229691924916 0.675564340222784,
          -0.33967301498330194 0.564647042541327 0.7170098154676325,
          0.3272956182718827 0.564647042541327 0.7170098154676325,
          -0.36322683159802516 -0.6286850479451552 0.5939405178316863,
          0.35084943488660614 -0.6286850479451552 0.5939405178316863,
          -0.3568275444379081 -0.612892110881374 0.6544135916241732,
          0.344450147726489 -0.612892110881374 0.6544135916241732,
          0.32729561827188286 -0.5646219735348731 0.7170098154676325,
          -0.3396730149833018 -0.5646219735348731 0.7170098154676325,
          0.34857031586478243 -0.6235148628438566 0.6190951165753577,
          -0.3609477125762015 -0.6235148628438566 0.6190951165753577,
          -0.32426265205277127 0.5192065955944118 0.7274931057961153,
          0.311885255341352 0.5192065955944118 0.7274931057961153,
          0.3118852553413522 -0.5191815265879579 0.7274931057961153,
          -0.32426265205277116 -0.5191815265879579 0.7274931057961153,
          0.31188525534135214 0.17307722153362198 0.7274931057961153,
          -0.32426265205277127 0.1730772215336219 0.7274931057961153,
          0.31188525534135214 -0.17305215252716805 0.7274931057961153,
          -0.32426265205277127 -0.1730521525271681 0.7274931057961153,
          0.22224857568926326 -0.47498746549677306 -0.0025068942038847797,
          -0.2275500511223807 -0.4249874654967731 -0.0025068942038847797,
          0.22224857568926315 0.47501253450322695 -0.002506894203884724,
          -0.2275500511223808 0.42501253450322696 -0.002506894203884724,
          1.5224252150564699 0.4750125345032271 0.1974931057961153,
          1.5224252150564699 -0.4749874654967729 0.19749310579611523,
          0.22224857568926326 -0.47498746549677306 0.19749310579611523,
          0.22224857568926315 0.47501253450322695 0.1974931057961153,
          -0.7775747849435298 -0.42498746549677313 0.19749310579611523,
          -0.7775747849435298 0.4250125345032269 0.1974931057961153,
          -0.2275500511223808 0.42501253450322696 0.1974931057961153,
          -0.2275500511223807 -0.4249874654967731 0.19749310579611523,
          -0.006188698355709454 -0.674987465496773 -0.0025068942038847797,
          -0.006188698355709676 0.675012534503227 -0.002506894203884724,
          -0.006188698355709454 -0.674987465496773 0.19749310579611523,
          -0.006188698355709676 0.675012534503227 0.1974931057961153,
          -0.006188698355709565 0.6287101169516092 0.5939405178316866,
          -0.006188698355709565 0.5416691228601871 0.7245193037618151,
          -0.006188698355709454 -0.6024979001860377 0.675564340222784,
          -0.006188698355709565 -0.5804661634011302 0.7050188181141307,
          -0.006188698355709676 0.6129171798878279 0.6544135916241732,
          -0.006188698355709565 0.5804912324075842 0.7050188181141307,
          -0.006188698355709676 0.6235399318503105 0.6190951165753577,
          -0.006188698355709565 -0.5416440538537332 0.7245193037618151,
          -0.006188698355709676 0.6025229691924916 0.675564340222784,
          -0.006188698355709676 0.564647042541327 0.7170098154676325,
          -0.006188698355709565 -0.6286850479451552 0.5939405178316863,
          -0.006188698355709454 -0.612892110881374 0.6544135916241732,
          -0.006188698355709454 -0.5646219735348731 0.7170098154676325,
          -0.006188698355709454 -0.6235148628438566 0.6190951165753577,
          -0.006188698355709676 0.5192065955944118 0.7274931057961153,
          -0.006188698355709454 -0.5191815265879579 0.7274931057961153,
          -0.006188698355709565 0.17307722153362193 0.7274931057961153,
          -0.006188698355709454 -0.17305215252716807 0.7274931057961153,
          -0.2275500511223808 0.1416792011698937 -0.002506894203884724,
          -0.2275500511223807 -0.1416541321634397 -0.0025068942038847797,
          0.22224857568926315 0.15834586783656035 0.1974931057961153,
          0.22224857568926326 -0.15832079883010636 0.19749310579611523,
          -0.2275500511223807 -0.1416541321634398 0.19749310579611523,
          -0.2275500511223808 0.14167920116989363 0.1974931057961153,
          0.22224857568926315 0.15834586783656035 -0.002506894203884724,
          0.22224857568926326 -0.15832079883010636 -0.0025068942038847797,
          -1.5073771655871315e-4 -0.14998746549677308 -0.0025068942038847797,
          -1.5073771655882418e-4 0.15001253450322702 -0.002506894203884724,
          1.5224252150564699 -0.5269610641915082 -0.0025068942038847797,
          1.4935415652026869 -0.5966923633994249 -0.0025068942038847797,
          1.3743988137512053 -0.6749874654967728 -0.0025068942038847797,
          1.4441301129590765 -0.6461038156429445 -0.0025068942038847797,
          1.3743988137512053 0.6750125345032272 -0.002506894203884724,
          1.4441301129590765 0.6461288846493989 -0.002506894203884724,
          1.5224252150564699 0.5269861331979626 -0.002506894203884724,
          1.4935415652026869 0.5967174324058793 -0.002506894203884724,
          1.5224252150564699 -0.5269610641915082 0.19749310579611523,
          1.4935415652026869 -0.5966923633994249 0.19749310579611523,
          1.3743988137512053 -0.6749874654967728 0.19749310579611523,
          1.4441301129590765 -0.6461038156429445 0.19749310579611523,
          1.3743988137512053 0.6750125345032272 0.1974931057961153,
          1.4441301129590765 0.6461288846493989 0.1974931057961153,
          1.5224252150564699 0.5269861331979626 0.1974931057961153,
          1.4935415652026869 0.5967174324058793 0.1974931057961153,
          -0.6295483836382653 -0.6749874654967731 -0.0025068942038847797,
          -0.6992796828461364 -0.6461038156429448 -0.0025068942038847797,
          -0.7775747849435298 -0.5269610641915086 -0.0025068942038847797,
          -0.7486911350897468 -0.5966923633994252 -0.0025068942038847797,
          -0.77757478494353 0.5269861331979623 -0.002506894203884724,
          -0.748691135089747 0.5967174324058789 -0.002506894203884724,
          -0.6295483836382655 0.6750125345032268 -0.002506894203884724,
          -0.6992796828461366 0.6461288846493985 -0.002506894203884724,
          -0.6295483836382653 -0.6749874654967731 0.19749310579611523,
          -0.6992796828461364 -0.6461038156429448 0.19749310579611523,
          -0.7486911350897468 -0.5966923633994252 0.19749310579611523,
          -0.7775747849435298 -0.5269610641915086 0.19749310579611523,
          -0.77757478494353 0.5269861331979623 0.1974931057961153,
          -0.748691135089747 0.5967174324058789 0.1974931057961153,
          -0.6992796828461366 0.6461288846493985 0.1974931057961153,
          -0.6295483836382655 0.6750125345032268 0.1974931057961153,
          1.443539614783417 -0.4806586466398906 0.5939405178316863,
          1.414655964929634 -0.5503899458478071 0.5939405178316863,
          1.2955132134781524 -0.6286850479451551 0.5939405178316863,
          1.3652445126860688 -0.5998013980913267 0.5939405178316863,
          1.4367022577179458 -0.475488461538592 0.6190951165753577,
          1.4078186078641628 -0.5452197607465085 0.6190951165753577,
          1.3584071556205977 -0.5946312129900282 0.6190951165753577,
          1.2886758564126812 -0.6235148628438565 0.6190951165753577,
          1.4243417533030656 -0.46486570957610923 0.6544135916241732,
          1.3954581034492826 -0.5345970087840256 0.6544135916241732,
          1.276315351997801 -0.6128921108813739 0.6544135916241732,
          1.3460466512057174 -0.5840084610275453 0.6544135916241732,
          1.412900115093489 -0.45447149888077293 0.675564340222784,
          1.384016465239706 -0.5242027980886667 0.675564340222784,
          1.3346050129961409 -0.573614250332209 0.675564340222784,
          1.2648737137882244 -0.6024979001860375 0.675564340222784,
          1.2955132134781524 0.6287101169516093 0.5939405178316866,
          1.3652445126860688 0.5998264670977811 0.5939405178316866,
          1.443539614783417 0.48068371564634477 0.5939405178316866,
          1.414655964929634 0.5504150148542615 0.5939405178316866,
          1.2886758564126812 0.6235399318503106 0.6190951165753577,
          1.3584071556205977 0.5946562819964823 0.6190951165753577,
          1.4078186078641628 0.5452448297529628 0.6190951165753577,
          1.4367022577179458 0.47551353054504614 0.6190951165753577,
          1.276315351997801 0.612917179887828 0.6544135916241732,
          1.3460466512057174 0.5840335300339995 0.6544135916241732,
          1.4243417533030656 0.4648907785825634 0.6544135916241732,
          1.3954581034492826 0.53462207779048 0.6544135916241732,
          1.2648737137882244 0.6025229691924917 0.675564340222784,
          1.3346050129961409 0.5736393193386632 0.675564340222784,
          1.384016465239706 0.524227867095121 0.675564340222784,
          1.412900115093489 0.4544965678872271 0.675564340222784,
          -0.6986891846704771 0.4806837156463445 0.5939405178316866,
          -0.6698055348166941 0.5504150148542611 0.5939405178316866,
          -0.5506627833652126 0.628710116951609 0.5939405178316866,
          -0.6203940825731292 0.5998264670977808 0.5939405178316866,
          -0.691851827605006 0.47551353054504586 0.6190951165753577,
          -0.662968177751223 0.5452448297529625 0.6190951165753577,
          -0.613556725507658 0.5946562819964821 0.6190951165753577,
          -0.5438254262997414 0.6235399318503104 0.6190951165753577,
          -0.6794913231901257 0.46489077858256317 0.6544135916241732,
          -0.6506076733363427 0.5346220777904797 0.6544135916241732,
          -0.5314649218848612 0.6129171798878278 0.6544135916241732,
          -0.6011962210927778 0.5840335300339993 0.6544135916241732,
          -0.6680496849805492 0.45449656788722687 0.675564340222784,
          -0.6391660351267662 0.5242278670951207 0.675564340222784,
          -0.5897545828832013 0.573639319338663 0.675564340222784,
          -0.5200232836752846 0.6025229691924915 0.675564340222784,
          -0.5506627833652123 -0.6286850479451553 0.5939405178316863,
          -0.620394082573129 -0.599801398091327 0.5939405178316863,
          -0.6986891846704769 -0.4806586466398909 0.5939405178316863,
          -0.6698055348166939 -0.5503899458478074 0.5939405178316863,
          -0.5438254262997412 -0.6235148628438567 0.6190951165753577,
          -0.6135567255076578 -0.5946312129900284 0.6190951165753577,
          -0.6629681777512227 -0.5452197607465088 0.6190951165753577,
          -0.6918518276050057 -0.47548846153859226 0.6190951165753577,
          -0.5314649218848609 -0.6128921108813741 0.6544135916241732,
          -0.6011962210927776 -0.5840084610275456 0.6544135916241732,
          -0.6794913231901255 -0.46486570957610945 0.6544135916241732,
          -0.6506076733363425 -0.5345970087840259 0.6544135916241732,
          -0.5200232836752844 -0.6024979001860378 0.675564340222784,
          -0.589754582883201 -0.5736142503322093 0.675564340222784,
          -0.639166035126766 -0.524202798088667 0.675564340222784,
          -0.668049684980549 -0.45447149888077315 0.675564340222784,
          1.3893970647241196 -0.4324397620958655 0.7050188181141307,
          1.3605134148703366 -0.5021710613037592 0.7050188181141307,
          1.241370663418855 -0.5804661634011301 0.7050188181141307,
          1.3111019626267715 -0.5515825135473016 0.7050188181141307,
          1.372878164939247 -0.41659557222960836 0.7170098154676325,
          1.343994515085464 -0.48632687143750214 0.7170098154676325,
          1.2945830628418988 -0.5357383236810445 0.7170098154676325,
          1.2248517636339824 -0.564621973534873 0.7170098154676325,
          1.241370663418855 0.5804912324075843 0.7050188181141307,
          1.3111019626267715 0.5516075825537557 0.7050188181141307,
          1.3893970647241196 0.43246483110231965 0.7050188181141307,
          1.3605134148703366 0.5021961303102136 0.7050188181141307,
          1.2248517636339824 0.5646470425413271 0.7170098154676325,
          1.2945830628418988 0.5357633926874986 0.7170098154676325,
          1.343994515085464 0.4863519404439564 0.7170098154676325,
          1.372878164939247 0.4166206412360625 0.7170098154676325,
          -0.6445466346111798 0.4324648311023194 0.7050188181141307,
          -0.6156629847573968 0.5021961303102133 0.7050188181141307,
          -0.4965202333059152 0.580491232407584 0.7050188181141307,
          -0.5662515325138319 0.5516075825537555 0.7050188181141307,
          -0.6280277348263069 0.4166206412360623 0.7170098154676325,
          -0.5991440849725241 0.4863519404439562 0.7170098154676325,
          -0.5497326327289592 0.5357633926874984 0.7170098154676325,
          -0.4800013335210426 0.5646470425413269 0.7170098154676325,
          -0.496520233305915 -0.5804661634011303 0.7050188181141307,
          -0.5662515325138316 -0.5515825135473018 0.7050188181141307,
          -0.6445466346111798 -0.4324397620958657 0.7050188181141307,
          -0.6156629847573966 -0.5021710613037595 0.7050188181141307,
          -0.4800013335210426 -0.5646219735348732 0.7170098154676325,
          -0.549732632728959 -0.5357383236810447 0.7170098154676325,
          -0.5991440849725239 -0.48632687143750236 0.7170098154676325,
          -0.6280277348263069 -0.4165955722296086 0.7170098154676325,
          1.3493338853184844 -0.3936176525484684 0.7245193037618151,
          1.320450235464656 -0.4633489517563622 0.7245193037618151,
          1.2013074840132199 -0.541644053853733 0.7245193037618151,
          1.2710387832211363 -0.5127604039999045 0.7245193037618151,
          1.2013074840132199 0.5416691228601872 0.7245193037618151,
          1.2710387832211363 0.5127854730063587 0.7245193037618151,
          1.3493338853184844 0.3936427215549226 0.7245193037618151,
          1.320450235464656 0.4633740207628164 0.7245193037618151,
          -0.6044834552055446 0.39364272155492236 0.7245193037618151,
          -0.5755998053517163 0.4633740207628162 0.7245193037618151,
          -0.45645705390028 0.541669122860187 0.7245193037618151,
          -0.5261883531081967 0.5127854730063585 0.7245193037618151,
          -0.4564570539002798 -0.5416440538537333 0.7245193037618151,
          -0.5261883531081964 -0.5127604039999047 0.7245193037618151,
          -0.6044834552055446 -0.39361765254846864 0.7245193037618151,
          -0.5755998053517161 -0.4633489517563624 0.7245193037618151,
          1.3266470761476548 -0.3711551252826933 0.7274931057961153,
          1.2977634262938265 -0.4408864244905872 0.7274931057961153,
          1.2483519740503068 -0.49029787673412945 0.7274931057961153,
          1.1786206748423902 -0.5191815265879578 0.7274931057961153,
          1.1786206748423902 0.519206595594412 0.7274931057961153,
          1.2483519740503068 0.4903229457405837 0.7274931057961153,
          1.2977634262938265 0.4409114934970413 0.7274931057961153,
          1.3266470761476548 0.37118019428914745 0.7274931057961153,
          -0.5817966460347149 0.3711801942891472 0.7274931057961153,
          -0.5529129961808864 0.44091149349704106 0.7274931057961153,
          -0.503501543937367 0.4903229457405835 0.7274931057961153,
          -0.43377024472945047 0.5192065955944118 0.7274931057961153,
          -0.43377024472945036 -0.5191815265879579 0.7274931057961153,
          -0.5035015439373668 -0.49029787673412967 0.7274931057961153,
          -0.5529129961808864 -0.4408864244905874 0.7274931057961153,
          -0.5817966460347149 -0.3711551252826935 0.7274931057961153,
          1.3266470761476548 1.2534503227155685e-5 0.7274931057961153,
          0.31188525534135214 1.2534503226962022e-5 0.7274931057961153,
          -0.32426265205277127 1.253450322687024e-5 0.7274931057961153,
          -0.006188698355709454 1.2534503226909191e-5 0.7274931057961153,
          -0.5817966460347149 1.2534503226838701e-5 0.7274931057961153 ] }
        coordIndex [
          0, 84, 90, 89, -1,
          0, 89, 2, 136, 128, -1,
          0, 128, 129, 131, 130, 40, 84, -1,
          1, 86, 42, 132, 133, 135, 134, -1,
          1, 88, 91, 86, -1,
          1, 134, 142, 3, 2, 89, 88, -1,
          2, 3, 15, 14, -1,
          2, 14, 160, 136, -1,
          3, 142, 178, 15, -1,
          4, 85, 41, 144, 145, 147, 146, -1,
          4, 92, 95, 85, -1,
          4, 146, 155, 6, 7, 156, 148, 5, 93, 92, -1,
          5, 87, 94, 93, -1,
          5, 148, 149, 151, 150, 43, 87, -1,
          6, 9, 8, 7, -1,
          6, 155, 210, 9, -1,
          7, 8, 192, 156, -1,
          8, 9, 28, 29, -1,
          8, 29, 196, 192, -1,
          9, 210, 215, 28, -1,
          10, 11, 24, 25, -1,
          10, 25, 172, 168, -1,
          10, 27, 26, 11, -1,
          10, 168, 164, 27, -1,
          11, 26, 183, 186, -1,
          11, 186, 191, 24, -1,
          12, 13, 34, 35, -1,
          12, 31, 30, 13, -1,
          12, 35, 218, 223, -1,
          12, 223, 250, 31, -1,
          13, 30, 240, 204, -1,
          13, 204, 200, 34, -1,
          14, 15, 26, 27, -1,
          14, 27, 164, 160, -1,
          15, 178, 183, 26, -1,
          16, 17, 36, 288, 37, -1,
          16, 19, 18, 17, -1,
          16, 37, 272, 256, -1,
          16, 256, 228, 19, -1,
          17, 18, 239, 262, -1,
          17, 262, 279, 36, -1,
          18, 19, 20, 21, -1,
          18, 21, 234, 239, -1,
          19, 228, 224, 20, -1,
          20, 25, 24, 21, -1,
          20, 224, 172, 25, -1,
          21, 24, 191, 234, -1,
          22, 23, 30, 31, -1,
          22, 31, 250, 255, -1,
          22, 33, 32, 23, -1,
          22, 255, 270, 33, -1,
          23, 32, 264, 244, -1,
          23, 244, 240, 30, -1,
          28, 35, 34, 29, -1,
          28, 215, 218, 35, -1,
          29, 34, 200, 196, -1,
          32, 33, 38, 292, 39, -1,
          32, 39, 280, 264, -1,
          33, 270, 287, 38, -1,
          36, 80, 289, 288, -1,
          36, 279, 278, 277, 276, 77, 80, -1,
          37, 82, 78, 275, 274, 273, 272, -1,
          37, 288, 289, 82, -1,
          38, 83, 290, 292, -1,
          38, 287, 286, 285, 284, 79, 83, -1,
          39, 81, 76, 283, 282, 281, 280, -1,
          39, 292, 290, 81, -1,
          40, 44, 98, 96, -1,
          40, 96, 126, 125, 84, -1,
          40, 130, 138, 44, -1,
          41, 45, 152, 144, -1,
          41, 85, 119, 126, 96, -1,
          41, 96, 98, 45, -1,
          42, 46, 140, 132, -1,
          42, 86, 124, 127, 97, -1,
          42, 97, 99, 46, -1,
          43, 47, 99, 97, -1,
          43, 97, 127, 118, 87, -1,
          43, 150, 159, 47, -1,
          44, 69, 110, 98, -1,
          44, 138, 162, 69, -1,
          45, 68, 208, 152, -1,
          45, 98, 110, 68, -1,
          46, 48, 176, 140, -1,
          46, 99, 100, 48, -1,
          47, 49, 100, 99, -1,
          47, 159, 194, 49, -1,
          48, 61, 180, 176, -1,
          48, 100, 106, 61, -1,
          49, 60, 106, 100, -1,
          49, 194, 199, 60, -1,
          50, 67, 109, 101, -1,
          50, 77, 276, 260, -1,
          50, 101, 114, 77, -1,
          50, 260, 236, 67, -1,
          51, 66, 247, 266, -1,
          51, 76, 114, 101, -1,
          51, 101, 109, 66, -1,
          51, 266, 283, 76, -1,
          52, 55, 103, 102, -1,
          52, 71, 170, 175, -1,
          52, 102, 111, 71, -1,
          52, 175, 226, 55, -1,
          53, 54, 248, 220, -1,
          53, 70, 111, 102, -1,
          53, 102, 103, 54, -1,
          53, 220, 216, 70, -1,
          54, 73, 252, 248, -1,
          54, 103, 112, 73, -1,
          55, 72, 112, 103, -1,
          55, 226, 231, 72, -1,
          56, 61, 106, 104, -1,
          56, 65, 188, 184, -1,
          56, 104, 108, 65, -1,
          56, 184, 180, 61, -1,
          57, 60, 199, 202, -1,
          57, 64, 108, 104, -1,
          57, 104, 106, 60, -1,
          57, 202, 207, 64, -1,
          58, 65, 108, 105, -1,
          58, 67, 236, 232, -1,
          58, 105, 109, 67, -1,
          58, 232, 188, 65, -1,
          59, 64, 207, 242, -1,
          59, 66, 109, 105, -1,
          59, 105, 108, 64, -1,
          59, 242, 247, 66, -1,
          62, 73, 112, 107, -1,
          62, 79, 284, 268, -1,
          62, 107, 115, 79, -1,
          62, 268, 252, 73, -1,
          63, 72, 231, 258, -1,
          63, 78, 115, 107, -1,
          63, 107, 112, 72, -1,
          63, 258, 275, 78, -1,
          68, 75, 212, 208, -1,
          68, 110, 113, 75, -1,
          69, 74, 113, 110, -1,
          69, 162, 167, 74, -1,
          70, 75, 113, 111, -1,
          70, 216, 212, 75, -1,
          71, 74, 167, 170, -1,
          71, 111, 113, 74, -1,
          76, 81, 116, 114, -1,
          77, 114, 116, 80, -1,
          78, 82, 117, 115, -1,
          79, 115, 117, 83, -1,
          80, 116, 291, 289, -1,
          81, 290, 291, 116, -1,
          82, 289, 291, 117, -1,
          83, 117, 291, 290, -1,
          84, 125, 121, 90, -1,
          85, 95, 122, 119, -1,
          86, 91, 120, 124, -1,
          87, 118, 123, 94, -1,
          88, 89, 90, 121, 120, 91, -1,
          92, 93, 94, 123, 122, 95, -1,
          118, 119, 122, 123, -1,
          118, 127, 126, 119, -1,
          120, 121, 125, 124, -1,
          124, 125, 126, 127, -1,
          128, 136, 137, 129, -1,
          129, 137, 139, 131, -1,
          130, 131, 139, 138, -1,
          132, 140, 141, 133, -1,
          133, 141, 143, 135, -1,
          134, 135, 143, 142, -1,
          136, 160, 161, 137, -1,
          137, 161, 163, 139, -1,
          138, 139, 163, 162, -1,
          140, 176, 177, 141, -1,
          141, 177, 179, 143, -1,
          142, 143, 179, 178, -1,
          144, 152, 153, 145, -1,
          145, 153, 154, 147, -1,
          146, 147, 154, 155, -1,
          148, 156, 157, 149, -1,
          149, 157, 158, 151, -1,
          150, 151, 158, 159, -1,
          152, 208, 209, 153, -1,
          153, 209, 211, 154, -1,
          154, 211, 210, 155, -1,
          156, 192, 193, 157, -1,
          157, 193, 195, 158, -1,
          158, 195, 194, 159, -1,
          160, 164, 165, 161, -1,
          161, 165, 166, 163, -1,
          162, 163, 166, 167, -1,
          164, 168, 169, 165, -1,
          165, 169, 171, 166, -1,
          166, 171, 170, 167, -1,
          168, 172, 173, 169, -1,
          169, 173, 174, 171, -1,
          170, 171, 174, 175, -1,
          172, 224, 225, 173, -1,
          173, 225, 227, 174, -1,
          174, 227, 226, 175, -1,
          176, 180, 181, 177, -1,
          177, 181, 182, 179, -1,
          178, 179, 182, 183, -1,
          180, 184, 185, 181, -1,
          181, 185, 187, 182, -1,
          182, 187, 186, 183, -1,
          184, 188, 189, 185, -1,
          185, 189, 190, 187, -1,
          186, 187, 190, 191, -1,
          188, 232, 233, 189, -1,
          189, 233, 235, 190, -1,
          190, 235, 234, 191, -1,
          192, 196, 197, 193, -1,
          193, 197, 198, 195, -1,
          194, 195, 198, 199, -1,
          196, 200, 201, 197, -1,
          197, 201, 203, 198, -1,
          198, 203, 202, 199, -1,
          200, 204, 205, 201, -1,
          201, 205, 206, 203, -1,
          202, 203, 206, 207, -1,
          204, 240, 241, 205, -1,
          205, 241, 243, 206, -1,
          206, 243, 242, 207, -1,
          208, 212, 213, 209, -1,
          209, 213, 214, 211, -1,
          210, 211, 214, 215, -1,
          212, 216, 217, 213, -1,
          213, 217, 219, 214, -1,
          214, 219, 218, 215, -1,
          216, 220, 221, 217, -1,
          217, 221, 222, 219, -1,
          218, 219, 222, 223, -1,
          220, 248, 249, 221, -1,
          221, 249, 251, 222, -1,
          222, 251, 250, 223, -1,
          224, 228, 229, 225, -1,
          225, 229, 230, 227, -1,
          226, 227, 230, 231, -1,
          228, 256, 257, 229, -1,
          229, 257, 259, 230, -1,
          230, 259, 258, 231, -1,
          232, 236, 237, 233, -1,
          233, 237, 238, 235, -1,
          234, 235, 238, 239, -1,
          236, 260, 261, 237, -1,
          237, 261, 263, 238, -1,
          238, 263, 262, 239, -1,
          240, 244, 245, 241, -1,
          241, 245, 246, 243, -1,
          242, 243, 246, 247, -1,
          244, 264, 265, 245, -1,
          245, 265, 267, 246, -1,
          246, 267, 266, 247, -1,
          248, 252, 253, 249, -1,
          249, 253, 254, 251, -1,
          250, 251, 254, 255, -1,
          252, 268, 269, 253, -1,
          253, 269, 271, 254, -1,
          254, 271, 270, 255, -1,
          256, 272, 273, 257, -1,
          257, 273, 274, 259, -1,
          258, 259, 274, 275, -1,
          260, 276, 277, 261, -1,
          261, 277, 278, 263, -1,
          262, 263, 278, 279, -1,
          264, 280, 281, 265, -1,
          265, 281, 282, 267, -1,
          266, 267, 282, 283, -1,
          268, 284, 285, 269, -1,
          269, 285, 286, 271, -1,
          270, 271, 286, 287, -1 ]
        normal Normal { vector [
          0.5773502691896257 0.5773502691896258 -0.5773502691896258,
          0.5773502691896258 -0.5773502691896257 -0.5773502691896257,
          0.9951814789738924 -2.0011278833248598e-17 0.0980501091653456,
          0.9914268363172871 -1.6639639524701824e-17 0.13066303314210692,
          -0.5773502691896258 0.5773502691896254 -0.5773502691896261,
          -0.5773502691896255 -0.577350269189626 -0.5773502691896258,
          -0.9914268363172871 -3.747949481724427e-16 0.13066303314210648,
          -0.991426836317287 -3.7479494817244266e-16 0.13066303314210642,
          -0.9734588702465676 -2.2281480909372152e-16 0.22886202817041587,
          -0.9734588702465677 -2.2281480909372093e-16 0.22886202817041565,
          0.914606725978152 0.0 0.4043445768098366,
          0.9146067259781518 0.0 0.40434457680983665,
          -0.8338886873549944 -1.8368645530375563e-16 0.5519326563099562,
          -0.8338886873549941 -9.572789851777825e-17 0.5519326563099567,
          0.9734588702465684 -3.344470837567198e-17 0.22886202817041287,
          0.9734588702465683 -2.595168906133763e-17 0.2288620281704131,
          0.2177852271621373 0.0 0.9759967186573612,
          0.2177852271621373 0.0 0.9759967186573612,
          0.4513908232740756 0.0 0.8923263554686437,
          0.45139082327407554 0.0 0.8923263554686438,
          0.6908054088126072 0.0 0.723040723026889,
          0.6908054088126072 0.0 0.7230407230268893,
          -0.4513908232740738 0.0 0.8923263554686445,
          -0.4513908232740738 0.0 0.8923263554686445,
          0.8338886873549924 0.0 0.5519326563099592,
          0.8338886873549924 0.0 0.5519326563099591,
          0.9550328112346018 -1.3518538282207269e-17 0.29650013400559083,
          0.9550328112346019 -1.351853828220721e-17 0.2965001340055906,
          -0.9550328112346009 -1.1297635564416008e-16 0.29650013400559355,
          -0.9550328112346009 -3.1125456231732244e-16 0.2965001340055938,
          -0.6908054088126049 0.0 0.7230407230268914,
          -0.6908054088126053 -8.841289951846635e-17 0.723040723026891,
          -0.21778522716213863 0.0 0.9759967186573608,
          -0.21778522716213863 0.0 0.9759967186573608,
          -0.9146067259781531 -2.9443563770147355e-16 0.40434457680983377,
          -0.9146067259781531 -9.565362943832291e-17 0.4043445768098338,
          0.06512266258326206 0.0 0.9978772664100864,
          0.06512266258326212 0.0 0.9978772664100864,
          -0.06512266258326214 0.0 0.9978772664100864,
          -0.06512266258326212 0.0 0.9978772664100864,
          7.84082602308302e-17 -0.7071067811865475 -0.7071067811865475,
          1.6388790695324726e-16 -0.7071067811865475 -0.7071067811865475,
          -7.888209238357946e-17 0.7071067811865475 -0.7071067811865475,
          -1.6353334185322362e-16 0.7071067811865475 -0.7071067811865475,
          9.835328409238353e-17 -0.998310735596507 0.05810056103654328,
          2.4313727159386175e-16 -0.998310735596507 0.058100561036543284,
          -9.83532840923835e-17 0.998310735596507 0.05810056103654331,
          -2.4313727159386155e-16 0.998310735596507 0.0581005610365433,
          -7.142997240180075e-17 0.9873084163551596 0.15881464351333147,
          -2.7413331636020596e-16 0.9873084163551596 0.15881464351333147,
          -1.4016566770387694e-17 0.22188529362769982 0.9750727749618228,
          -8.190573468898944e-17 0.22188529362769982 0.9750727749618228,
          5.170259870084285e-17 -0.8527891204212859 0.5222554126967852,
          2.888804302948924e-16 -0.8527891204212859 0.5222554126967852,
          2.5832393438561324e-16 -0.7090938714623366 0.7051140910906227,
          4.345716214122715e-17 -0.7090938714623365 0.7051140910906228,
          -5.5409202471023665e-17 0.9307024726274126 0.36577712810565455,
          -2.954472672708185e-16 0.9307024726274125 0.36577712810565466,
          -4.345716214122716e-17 0.7090938714623366 0.7051140910906228,
          -2.583239343856131e-16 0.7090938714623365 0.705114091090623,
          -2.9508793404562494e-16 0.9695430014362202 0.24492114724140437,
          -5.716405750817032e-17 0.9695430014362202 0.2449211472414043,
          8.126437878996176e-17 -0.22188529362769976 0.9750727749618228,
          1.401656677038769e-17 -0.22188529362769976 0.9750727749618228,
          -2.888804302948923e-16 0.8527891204212859 0.5222554126967853,
          -5.1702598700842836e-17 0.8527891204212859 0.5222554126967852,
          -1.8268763025422e-16 0.4634257718329624 0.8861357424238246,
          -2.866498859364611e-17 0.4634257718329626 0.8861357424238246,
          2.7413331636020493e-16 -0.9873084163551599 0.15881464351333058,
          7.142997240180053e-17 -0.9873084163551599 0.1588146435133306,
          2.954472672708186e-16 -0.9307024726274126 0.3657771281056545,
          5.540920247102366e-17 -0.9307024726274125 0.3657771281056546,
          2.866498859364611e-17 -0.4634257718329626 0.8861357424238246,
          1.8268763025422021e-16 -0.46342577183296263 0.8861357424238245,
          5.716405750817007e-17 -0.9695430014362204 0.2449211472414035,
          2.950879340456238e-16 -0.9695430014362204 0.24492114724140338,
          -1.6000546284047257e-17 0.0657645221733386 0.9978351705684224,
          -5.1963061045627015e-17 0.06576452217333854 0.9978351705684224,
          4.199297652026908e-18 -0.06576452217333852 0.9978351705684224,
          -1.6357282386225995e-17 -0.06576452217333846 0.9978351705684224,
          -4.766036299284272e-17 0.0 1.0,
          0.0 0.0 1.0,
          0.0 0.0 1.0,
          -3.164914317720464e-17 0.0 1.0,
          0.408248290463863 0.4082482904638631 -0.8164965809277261,
          -0.4082482904638631 0.4082482904638631 -0.8164965809277261,
          0.40824829046386313 -0.4082482904638631 -0.8164965809277261,
          -0.408248290463863 -0.4082482904638631 -0.8164965809277261,
          0.577350269189626 -0.5773502691896257 -0.5773502691896258,
          0.8164965809277261 0.4082482904638631 -0.4082482904638631,
          0.5773502691896257 0.5773502691896258 -0.5773502691896258,
          0.577350269189626 -0.5773502691896257 -0.5773502691896258,
          -0.5773502691896258 0.5773502691896254 -0.5773502691896261,
          -0.5773502691896255 -0.577350269189626 -0.5773502691896258,
          -0.5773502691896258 -0.5773502691896257 -0.5773502691896258,
          -0.5773502691896258 0.5773502691896257 -0.5773502691896257,
          2.631559782481574e-19 -0.7071067811865475 -0.7071067811865475,
          0.0 0.7071067811865475 -0.7071067811865475,
          0.0 -0.998310735596507 0.05810056103654331,
          0.0 0.998310735596507 0.05810056103654328,
          0.0 0.9873084163551596 0.15881464351333144,
          0.0 0.22188529362769982 0.9750727749618228,
          0.0 -0.8527891204212859 0.5222554126967852,
          0.0 -0.7090938714623365 0.7051140910906228,
          0.0 0.9307024726274126 0.3657771281056546,
          0.0 0.7090938714623365 0.7051140910906228,
          0.0 0.9695430014362202 0.24492114724140432,
          0.0 -0.22188529362769982 0.9750727749618228,
          0.0 0.8527891204212859 0.5222554126967852,
          0.0 0.4634257718329626 0.8861357424238246,
          0.0 -0.9873084163551599 0.15881464351333063,
          0.0 -0.9307024726274126 0.3657771281056546,
          0.0 -0.4634257718329626 0.8861357424238246,
          0.0 -0.9695430014362204 0.24492114724140343,
          0.0 0.06576452217333853 0.9978351705684224,
          0.0 -0.06576452217333852 0.9978351705684224,
          0.0 0.0 1.0,
          0.0 0.0 1.0,
          -0.7071067811865475 -7.124789308312927e-17 -0.7071067811865475,
          -0.7071067811865475 -7.124789308312927e-17 -0.7071067811865475,
          0.8944271909999159 1.8292356918664111e-16 -0.4472135954999579,
          0.8944271909999159 1.8292356918664111e-16 -0.4472135954999579,
          -0.8944271909999159 -1.4603142077925132e-16 -0.4472135954999579,
          -0.8944271909999159 -1.4603142077925132e-16 -0.4472135954999579,
          0.7071067811865475 1.8760706476449084e-16 -0.7071067811865475,
          0.7071067811865475 1.8760706476449084e-16 -0.7071067811865475,
          1.8607937672904049e-19 9.259002830850723e-17 -1.0,
          -1.1234313961564993e-32 9.259002830850723e-17 -1.0,
          0.8737905847217137 -0.1738077538008719 -0.454181548249575,
          0.7407638891290232 -0.4949626064583136 -0.4541815482496364,
          0.1738077538012123 -0.8737905847216314 -0.4541815482496033,
          0.4949626064579502 -0.7407638891293236 -0.4541815482495423,
          0.1738077538012121 0.8737905847216314 -0.4541815482496033,
          0.4949626064579502 0.7407638891293236 -0.4541815482495423,
          0.8737905847217137 0.1738077538008719 -0.454181548249575,
          0.7407638891290232 0.4949626064583136 -0.4541815482496364,
          0.9752008327742765 -0.1936784939728455 0.1071073140769021,
          0.826113068473663 -0.5520572406541606 0.11300442972885354,
          0.19404929958260903 -0.9780487115895212 0.075931463107043,
          0.5523494788693769 -0.8273253727888775 0.1021899248090166,
          0.1940492995826085 0.9780487115895213 0.07593146310704305,
          0.5523494788693768 0.8273253727888777 0.10218992480901659,
          0.9752008327742765 0.19367849397284528 0.10710731407690208,
          0.8261130684736631 0.5520572406541605 0.1130044297288535,
          -0.173807753801212 -0.8737905847216314 -0.4541815482496033,
          -0.4949626064579502 -0.7407638891293236 -0.4541815482495423,
          -0.8737905847217136 -0.17380775380087218 -0.45418154824957513,
          -0.7407638891290232 -0.4949626064583136 -0.4541815482496364,
          -0.8737905847217137 0.1738077538008716 -0.45418154824957524,
          -0.7407638891290232 0.4949626064583136 -0.4541815482496364,
          -0.1738077538012124 0.8737905847216314 -0.4541815482496033,
          -0.4949626064579502 0.7407638891293236 -0.4541815482495423,
          -0.1940492995826084 -0.9780487115895213 0.07593146310704296,
          -0.552349478869377 -0.8273253727888775 0.10218992480901654,
          -0.8261130684736632 -0.5520572406541603 0.11300442972885348,
          -0.9752008327742764 -0.1936784939728457 0.1071073140769019,
          -0.9752008327742766 0.19367849397284503 0.10710731407690188,
          -0.8261130684736632 0.5520572406541602 0.11300442972885345,
          -0.552349478869377 0.8273253727888775 0.10218992480901652,
          -0.1940492995826089 0.9780487115895213 0.07593146310704298,
          0.9490356347141744 -0.1877001635509194 0.25317980299704423,
          0.7997656684526827 -0.5343199320814329 0.27363677703285155,
          0.18972504697582968 -0.9614346533139133 0.19911758826676884,
          0.536374822533662 -0.8044833864069104 0.2551637332131116,
          0.9252255939733923 -0.18184400934388803 0.3330020368140763,
          0.7728065523650143 -0.5157986822695435 0.36975904585378716,
          0.5178588002780566 -0.7775491387012444 0.3567066019567408,
          0.18388789145691248 -0.9379999789044466 0.29383887242975243,
          0.8753236159093134 -0.1698665713741011 0.4527183620763049,
          0.7189785682987054 -0.47899292979038244 0.50362246925447,
          0.17194440012603934 -0.8890050052733415 0.4243880581074857,
          0.4810697021188676 -0.7237997904390163 0.4946572601950769,
          0.781204438529097 -0.14838004306249786 0.60638518125298,
          0.6236754163053313 -0.414335447572226 0.6628386771918902,
          0.4164391874107155 -0.6285931573902485 0.6568478101286943,
          0.1505167745470709 -0.7963899468351704 0.5857540039639684,
          0.1897250469758288 0.9614346533139131 0.19911758826677073,
          0.536374822533661 0.8044833864069103 0.2551637332131143,
          0.9490356347141743 0.18770016355091884 0.2531798029970451,
          0.7997656684526824 0.5343199320814322 0.27363677703285344,
          0.1838878914569119 0.9379999789044462 0.2938388724297542,
          0.5178588002780552 0.7775491387012443 0.35670660195674336,
          0.7728065523650135 0.5157986822695432 0.36975904585378894,
          0.9252255939733921 0.18184400934388742 0.3330020368140771,
          0.17194440012603923 0.8890050052733415 0.42438805810748564,
          0.4810697021188668 0.723799790439017 0.4946572601950767,
          0.8753236159093135 0.16986657137410063 0.4527183620763047,
          0.7189785682987053 0.4789929297903828 0.5036224692544699,
          0.15051677454707083 0.7963899468351705 0.5857540039639684,
          0.4164391874107149 0.6285931573902491 0.6568478101286942,
          0.6236754163053311 0.4143354475722264 0.6628386771918902,
          0.7812044385290973 0.14838004306249752 0.6063851812529799,
          -0.9490356347141741 0.18770016355091876 0.2531798029970461,
          -0.7997656684526828 0.5343199320814318 0.2736367770328531,
          -0.18972504697582906 0.9614346533139131 0.19911758826677017,
          -0.5363748225336618 0.8044833864069102 0.25516373321311353,
          -0.9252255939733918 0.1818440093438873 0.33300203681407814,
          -0.7728065523650143 0.5157986822695423 0.3697590458537886,
          -0.5178588002780562 0.777549138701244 0.35670660195674275,
          -0.18388789145691192 0.9379999789044464 0.29383887242975376,
          -0.875323615909314 0.1698665713741006 0.45271836207630384,
          -0.718978568298706 0.4789929297903818 0.5036224692544696,
          -0.17194440012603912 0.8890050052733415 0.4243880581074856,
          -0.48106970211886757 0.7237997904390164 0.4946572601950769,
          -0.7812044385290978 0.14838004306249758 0.6063851812529791,
          -0.6236754163053317 0.41433544757222557 0.66283867719189,
          -0.4164391874107155 0.6285931573902485 0.6568478101286943,
          -0.15051677454707074 0.7963899468351705 0.5857540039639685,
          -0.1897250469758286 -0.9614346533139134 0.19911758826676915,
          -0.536374822533662 -0.8044833864069104 0.2551637332131123,
          -0.9490356347141742 -0.1877001635509195 0.2531798029970453,
          -0.7997656684526832 -0.5343199320814321 0.2736367770328519,
          -0.18388789145691142 -0.9379999789044469 0.29383887242975265,
          -0.5178588002780565 -0.7775491387012444 0.3567066019567415,
          -0.7728065523650146 -0.5157986822695427 0.3697590458537875,
          -0.9252255939733919 -0.18184400934388795 0.33300203681407736,
          -0.17194440012603857 -0.8890050052733417 0.4243880581074855,
          -0.48106970211886757 -0.7237997904390164 0.4946572601950769,
          -0.875323615909314 -0.169866571374101 0.45271836207630395,
          -0.7189785682987058 -0.4789929297903819 0.50362246925447,
          -0.15051677454707016 -0.7963899468351706 0.5857540039639683,
          -0.41643918741071545 -0.6285931573902485 0.6568478101286943,
          -0.6236754163053317 -0.41433544757222585 0.6628386771918898,
          -0.7812044385290982 -0.1483800430624982 0.6063851812529784,
          0.6284783658212457 -0.11588803964938811 0.7691455687715285,
          0.4832746267174882 -0.3199423517574803 0.8149125883939733,
          0.11760899267545705 -0.6420888383562893 0.757555310522034,
          0.32161657800473975 -0.4872048147448885 0.8119077812423773,
          0.39717750288145764 -0.07080158628617808 0.9150066483825189,
          0.2930248188169065 -0.19329029961710484 0.9363628119651319,
          0.19418042764044433 -0.2951328728752324 0.9355161938041405,
          0.07172349820592369 -0.40543106149380675 0.9113075189973524,
          0.11760899267545696 0.6420888383562893 0.757555310522034,
          0.32161657800473925 0.48720481474488886 0.8119077812423773,
          0.6284783658212458 0.11588803964938785 0.7691455687715284,
          0.4832746267174879 0.31994235175748037 0.8149125883939733,
          0.07172349820592364 0.40543106149380675 0.9113075189973524,
          0.19418042764044405 0.2951328728752325 0.9355161938041405,
          0.2930248188169062 0.19329029961710473 0.936362811965132,
          0.39717750288145753 0.07080158628617793 0.915006648382519,
          -0.6284783658212444 0.11588803964938768 0.7691455687715297,
          -0.4832746267174883 0.31994235175747965 0.8149125883939734,
          -0.11760899267545696 0.6420888383562894 0.757555310522034,
          -0.32161657800473964 0.48720481474488864 0.8119077812423773,
          -0.39717750288145703 0.07080158628617766 0.9150066483825192,
          -0.29302481881690684 0.1932902996171044 0.9363628119651318,
          -0.1941804276404443 0.2951328728752325 0.9355161938041404,
          -0.07172349820592368 0.40543106149380675 0.9113075189973524,
          -0.11760899267545658 -0.6420888383562897 0.7575553105220337,
          -0.32161657800473975 -0.4872048147448885 0.8119077812423773,
          -0.6284783658212447 -0.11588803964938839 0.7691455687715295,
          -0.48327462671748805 -0.31994235175748004 0.8149125883939734,
          -0.07172349820592347 -0.4054310614938071 0.9113075189973524,
          -0.19418042764044444 -0.2951328728752323 0.9355161938041404,
          -0.2930248188169064 -0.1932902996171046 0.9363628119651319,
          -0.3971775028814566 -0.07080158628617811 0.9150066483825193,
          0.1875159961694853 -0.03255555448124898 0.981721899039124,
          0.13438427897117605 -0.08840744299362133 0.9869777047070145,
          0.03282114416865998 -0.19020288747200761 0.9811960222569039,
          0.08866920839813851 -0.13501284773365527 0.9868684321777125,
          0.03282114416865995 0.19020288747200767 0.9811960222569039,
          0.0886692083981385 0.13501284773365535 0.9868684321777125,
          0.18751599616948525 0.03255555448124894 0.981721899039124,
          0.134384278971176 0.08840744299362131 0.9869777047070145,
          -0.18751599616948625 0.032555554481248895 0.9817218990391238,
          -0.13438427897117636 0.08840744299362117 0.9869777047070145,
          -0.03282114416866001 0.19020288747200775 0.9811960222569039,
          -0.08866920839813848 0.1350128477336553 0.9868684321777125,
          -0.032821144168659805 -0.1902028874720075 0.981196022256904,
          -0.08866920839813848 -0.13501284773365516 0.9868684321777125,
          -0.1875159961694862 -0.032555554481249124 0.9817218990391238,
          -0.13438427897117639 -0.08840744299362145 0.9869777047070144,
          0.07427648223194971 -0.012791494407812553 0.997155645753491,
          0.05274977893526436 -0.034669706771763766 0.9980057476060149,
          0.03472207789312494 -0.05287605128433585 0.997997244739363,
          0.012844068948574532 -0.0748304887817959 0.9971135481185288,
          0.012844068948574464 0.07483048878179599 0.9971135481185288,
          0.034722077893124884 0.052876051284335916 0.997997244739363,
          0.05274977893526427 0.03466970677176374 0.9980057476060149,
          0.07427648223194962 0.012791494407812545 0.997155645753491,
          -0.07427648223194946 0.012791494407812458 0.997155645753491,
          -0.052749778935263995 0.03466970677176346 0.9980057476060149,
          -0.03472207789312482 0.05287605128433573 0.997997244739363,
          -0.012844068948574575 0.0748304887817961 0.9971135481185288,
          -0.012844068948574509 -0.07483048878179578 0.9971135481185288,
          -0.034722077893124814 -0.052876051284335694 0.9979972447393629,
          -0.05274977893526414 -0.03466970677176365 0.9980057476060149,
          -0.0742764822319496 -0.012791494407812545 0.997155645753491,
          0.04340483947952387 0.0 0.9990575658638279,
          0.0 0.0 1.0,
          0.0 0.0 1.0,
          0.0 0.0 1.0,
          -0.04340483947952387 0.0 0.9990575658638279 ] }
        normalIndex [
          0, 84, 90, 89, -1,
          0, 89, 2, 136, 128, -1,
          0, 128, 129, 131, 130, 40, 84, -1,
          1, 86, 42, 132, 133, 135, 134, -1,
          1, 88, 91, 86, -1,
          1, 134, 142, 3, 2, 89, 88, -1,
          2, 3, 15, 14, -1,
          2, 14, 160, 136, -1,
          3, 142, 178, 15, -1,
          4, 85, 41, 144, 145, 147, 146, -1,
          4, 92, 95, 85, -1,
          4, 146, 155, 6, 7, 156, 148, 5, 93, 92, -1,
          5, 87, 94, 93, -1,
          5, 148, 149, 151, 150, 43, 87, -1,
          6, 9, 8, 7, -1,
          6, 155, 210, 9, -1,
          7, 8, 192, 156, -1,
          8, 9, 28, 29, -1,
          8, 29, 196, 192, -1,
          9, 210, 215, 28, -1,
          10, 11, 24, 25, -1,
          10, 25, 172, 168, -1,
          10, 27, 26, 11, -1,
          10, 168, 164, 27, -1,
          11, 26, 183, 186, -1,
          11, 186, 191, 24, -1,
          12, 13, 34, 35, -1,
          12, 31, 30, 13, -1,
          12, 35, 218, 223, -1,
          12, 223, 250, 31, -1,
          13, 30, 240, 204, -1,
          13, 204, 200, 34, -1,
          14, 15, 26, 27, -1,
          14, 27, 164, 160, -1,
          15, 178, 183, 26, -1,
          16, 17, 36, 288, 37, -1,
          16, 19, 18, 17, -1,
          16, 37, 272, 256, -1,
          16, 256, 228, 19, -1,
          17, 18, 239, 262, -1,
          17, 262, 279, 36, -1,
          18, 19, 20, 21, -1,
          18, 21, 234, 239, -1,
          19, 228, 224, 20, -1,
          20, 25, 24, 21, -1,
          20, 224, 172, 25, -1,
          21, 24, 191, 234, -1,
          22, 23, 30, 31, -1,
          22, 31, 250, 255, -1,
          22, 33, 32, 23, -1,
          22, 255, 270, 33, -1,
          23, 32, 264, 244, -1,
          23, 244, 240, 30, -1,
          28, 35, 34, 29, -1,
          28, 215, 218, 35, -1,
          29, 34, 200, 196, -1,
          32, 33, 38, 292, 39, -1,
          32, 39, 280, 264, -1,
          33, 270, 287, 38, -1,
          36, 80, 289, 288, -1,
          36, 279, 278, 277, 276, 77, 80, -1,
          37, 82, 78, 275, 274, 273, 272, -1,
          37, 288, 289, 82, -1,
          38, 83, 290, 292, -1,
          38, 287, 286, 285, 284, 79, 83, -1,
          39, 81, 76, 283, 282, 281, 280, -1,
          39, 292, 290, 81, -1,
          40, 44, 98, 96, -1,
          40, 96, 126, 125, 84, -1,
          40, 130, 138, 44, -1,
          41, 45, 152, 144, -1,
          41, 85, 119, 126, 96, -1,
          41, 96, 98, 45, -1,
          42, 46, 140, 132, -1,
          42, 86, 124, 127, 97, -1,
          42, 97, 99, 46, -1,
          43, 47, 99, 97, -1,
          43, 97, 127, 118, 87, -1,
          43, 150, 159, 47, -1,
          44, 69, 110, 98, -1,
          44, 138, 162, 69, -1,
          45, 68, 208, 152, -1,
          45, 98, 110, 68, -1,
          46, 48, 176, 140, -1,
          46, 99, 100, 48, -1,
          47, 49, 100, 99, -1,
          47, 159, 194, 49, -1,
          48, 61, 180, 176, -1,
          48, 100, 106, 61, -1,
          49, 60, 106, 100, -1,
          49, 194, 199, 60, -1,
          50, 67, 109, 101, -1,
          50, 77, 276, 260, -1,
          50, 101, 114, 77, -1,
          50, 260, 236, 67, -1,
          51, 66, 247, 266, -1,
          51, 76, 114, 101, -1,
          51, 101, 109, 66, -1,
          51, 266, 283, 76, -1,
          52, 55, 103, 102, -1,
          52, 71, 170, 175, -1,
          52, 102, 111, 71, -1,
          52, 175, 226, 55, -1,
          53, 54, 248, 220, -1,
          53, 70, 111, 102, -1,
          53, 102, 103, 54, -1,
          53, 220, 216, 70, -1,
          54, 73, 252, 248, -1,
          54, 103, 112, 73, -1,
          55, 72, 112, 103, -1,
          55, 226, 231, 72, -1,
          56, 61, 106, 104, -1,
          56, 65, 188, 184, -1,
          56, 104, 108, 65, -1,
          56, 184, 180, 61, -1,
          57, 60, 199, 202, -1,
          57, 64, 108, 104, -1,
          57, 104, 106, 60, -1,
          57, 202, 207, 64, -1,
          58, 65, 108, 105, -1,
          58, 67, 236, 232, -1,
          58, 105, 109, 67, -1,
          58, 232, 188, 65, -1,
          59, 64, 207, 242, -1,
          59, 66, 109, 105, -1,
          59, 105, 108, 64, -1,
          59, 242, 247, 66, -1,
          62, 73, 112, 107, -1,
          62, 79, 284, 268, -1,
          62, 107, 115, 79, -1,
          62, 268, 252, 73, -1,
          63, 72, 231, 258, -1,
          63, 78, 115, 107, -1,
          63, 107, 112, 72, -1,
          63, 258, 275, 78, -1,
          68, 75, 212, 208, -1,
          68, 110, 113, 75, -1,
          69, 74, 113, 110, -1,
          69, 162, 167, 74, -1,
          70, 75, 113, 111, -1,
          70, 216, 212, 75, -1,
          71, 74, 167, 170, -1,
          71, 111, 113, 74, -1,
          76, 81, 116, 114, -1,
          77, 114, 116, 80, -1,
          78, 82, 117, 115, -1,
          79, 115, 117, 83, -1,
          80, 116, 291, 289, -1,
          81, 290, 291, 116, -1,
          82, 289, 291, 117, -1,
          83, 117, 291, 290, -1,
          84, 125, 121, 90, -1,
          85, 95, 122, 119, -1,
          86, 91, 120, 124, -1,
          87, 118, 123, 94, -1,
          88, 89, 90, 121, 120, 91, -1,
          92, 93, 94, 123, 122, 95, -1,
          118, 119, 122, 123, -1,
          118, 127, 126, 119, -1,
          120, 121, 125, 124, -1,
          124, 125, 126, 127, -1,
          128, 136, 137, 129, -1,
          129, 137, 139, 131, -1,
          130, 131, 139, 138, -1,
          132, 140, 141, 133, -1,
          133, 141, 143, 135, -1,
          134, 135, 143, 142, -1,
          136, 160, 161, 137, -1,
          137, 161, 163, 139, -1,
          138, 139, 163, 162, -1,
          140, 176, 177, 141, -1,
          141, 177, 179, 143, -1,
          142, 143, 179, 178, -1,
          144, 152, 153, 145, -1,
          145, 153, 154, 147, -1,
          146, 147, 154, 155, -1,
          148, 156, 157, 149, -1,
          149, 157, 158, 151, -1,
          150, 151, 158, 159, -1,
          152, 208, 209, 153, -1,
          153, 209, 211, 154, -1,
          154, 211, 210, 155, -1,
          156, 192, 193, 157, -1,
          157, 193, 195, 158, -1,
          158, 195, 194, 159, -1,
          160, 164, 165, 161, -1,
          161, 165, 166, 163, -1,
          162, 163, 166, 167, -1,
          164, 168, 169, 165, -1,
          165, 169, 171, 166, -1,
          166, 171, 170, 167, -1,
          168, 172, 173, 169, -1,
          169, 173, 174, 171, -1,
          170, 171, 174, 175, -1,
          172, 224, 225, 173, -1,
          173, 225, 227, 174, -1,
          174, 227, 226, 175, -1,
          176, 180, 181, 177, -1,
          177, 181, 182, 179, -1,
          178, 179, 182, 183, -1,
          180, 184, 185, 181, -1,
          181, 185, 187, 182, -1,
          182, 187, 186, 183, -1,
          184, 188, 189, 185, -1,
          185, 189, 190, 187, -1,
          186, 187, 190, 191, -1,
          188, 232, 233, 189, -1,
          189, 233, 235, 190, -1,
          190, 235, 234, 191, -1,
          192, 196, 197, 193, -1,
          193, 197, 198, 195, -1,
          194, 195, 198, 199, -1,
          196, 200, 201, 197, -1,
          197, 201, 203, 198, -1,
          198, 203, 202, 199, -1,
          200, 204, 205, 201, -1,
          201, 205, 206, 203, -1,
          202, 203, 206, 207, -1,
          204, 240, 241, 205, -1,
          205, 241, 243, 206, -1,
          206, 243, 242, 207, -1,
          208, 212, 213, 209, -1,
          209, 213, 214, 211, -1,
          210, 211, 214, 215, -1,
          212, 216, 217, 213, -1,
          213, 217, 219, 214, -1,
          214, 219, 218, 215, -1,
          216, 220, 221, 217, -1,
          217, 221, 222, 219, -1,
          218, 219, 222, 223, -1,
          220, 248, 249, 221, -1,
          221, 249, 251, 222, -1,
          222, 251, 250, 223, -1,
          224, 228, 229, 225, -1,
          225, 229, 230, 227, -1,
          226, 227, 230, 231, -1,
          228, 256, 257, 229, -1,
          229, 257, 259, 230, -1,
          230, 259, 258, 231, -1,
          232, 236, 237, 233, -1,
          233, 237, 238, 235, -1,
          234, 235, 238, 239, -1,
          236, 260, 261, 237, -1,
          237, 261, 263, 238, -1,
          238, 263, 262, 239, -1,
          240, 244, 245, 241, -1,
          241, 245, 246, 243, -1,
          242, 243, 246, 247, -1,
          244, 264, 265, 245, -1,
          245, 265, 267, 246, -1,
          246, 267, 266, 247, -1,
          248, 252, 253, 249, -1,
          249, 253, 254, 251, -1,
          250, 251, 254, 255, -1,
          252, 268, 269, 253, -1,
          253, 269, 271, 254, -1,
          254, 271, 270, 255, -1,
          256, 272, 273, 257, -1,
          257, 273, 274, 259, -1,
          258, 259, 274, 275, -1,
          260, 276, 277, 261, -1,
          261, 277, 278, 263, -1,
          262, 263, 278, 279, -1,
          264, 280, 281, 265, -1,
          265, 281, 282, 267, -1,
          266, 267, 282, 283, -1,
          268, 284, 285, 269, -1,
          269, 285, 286, 271, -1,
          270, 271, 286, 287, -1 ]
      }
    },
    Shape {
      appearance Appearance {
        material DEF white Material {
          diffuseColor 1.0 1.0 1.0
          emissiveColor 0.0 0.0 0.0
          specularColor 0.0 0.0 0.0
          ambientIntensity 1.0
          transparency 0.0
          shininess 0.0
        }
      }
      geometry IndexedFaceSet {
        normalPerVertex TRUE
        coord Coordinate { point [
          1.181360732725221 -0.516987465496773 0.7231583928970704,
          1.181360732725221 0.5170125345032272 0.7231583928970704,
          1.181360732725221 -0.516987465496773 0.7285583928970703,
          1.181360732725221 0.5170125345032272 0.7285583928970703,
          1.003860732725221 -0.516987465496773 0.7231583928970704,
          1.003860732725221 0.5170125345032272 0.7231583928970704,
          1.003860732725221 -0.516987465496773 0.7285583928970703,
          1.003860732725221 0.5170125345032272 0.7285583928970703 ] }
        coordIndex [
          0, 1, 3, 2, -1,
          0, 2, 6, 4, -1,
          0, 4, 5, 1, -1,
          1, 5, 7, 3, -1,
          2, 3, 7, 6, -1,
          4, 6, 7, 5, -1 ]
        normal Normal { vector [
          0.5773502691896258 -0.5773502691896258 -0.5773502691896258,
          0.5773502691896258 0.5773502691896258 -0.5773502691896258,
          0.5773502691896258 -0.5773502691896258 0.5773502691896258,
          0.5773502691896258 0.5773502691896258 0.5773502691896258,
          -0.5773502691896258 -0.5773502691896258 -0.5773502691896258,
          -0.5773502691896258 0.5773502691896258 -0.5773502691896258,
          -0.5773502691896258 -0.5773502691896258 0.5773502691896258,
          -0.5773502691896258 0.5773502691896258 0.5773502691896258 ] }
        normalIndex [
          0, 1, 3, 2, -1,
          0, 2, 6, 4, -1,
          0, 4, 5, 1, -1,
          1, 5, 7, 3, -1,
          2, 3, 7, 6, -1,
          4, 6, 7, 5, -1 ]
      }
    },
    Shape {
      appearance Appearance {
        material DEF default Material {
          diffuseColor 0.7898538076923077 0.8133333333333334 0.6940444444444445
          emissiveColor 0.0 0.0 0.0
          specularColor 0.0 0.0 0.0
          ambientIntensity 0.765743861823362
          transparency 0.0
          shininess 0.0
        }
      }
      geometry IndexedFaceSet {
        normalPerVertex TRUE
        coord Coordinate { point [
          -0.22757478494353 -0.4249874654967731 0.0024931057961153358,
          -0.22757478494353012 0.4250125345032269 0.002493105796115447,
          -0.22757478494353 -0.4249874654967731 0.19249310579611506,
          -0.22757478494353 -0.4199874654967736 0.19749310579611523,
          -0.22757478494353012 0.42001253450322745 0.1974931057961153,
          -0.22757478494353012 0.4250125345032269 0.19249310579611517,
          -0.9725747849435306 0.4200125345032274 0.1974931057961153,
          -0.9725747849435306 -0.4199874654967737 0.19749310579611523,
          -0.23257478494352957 0.42001253450322745 -0.002506894203884724,
          -0.23257478494352946 -0.4199874654967736 -0.0025068942038847797,
          -0.9725747849435306 -0.4199874654967737 -0.0025068942038847797,
          -0.9725747849435306 0.4200125345032274 -0.002506894203884724,
          -0.9725747849435306 -0.42498746549677313 0.0024931057961153358,
          -0.974688033597587 -0.4221007141508246 -3.93645549833177e-4,
          -0.97757478494353 -0.4199874654967737 0.0024931057961153358,
          -0.97757478494353 0.4200125345032274 0.002493105796115447,
          -0.9725747849435306 0.42501253450322685 0.002493105796115447,
          -0.974688033597587 0.42212578315727833 -3.93645549833066e-4,
          -0.9725747849435306 -0.42498746549677313 0.19249310579611506,
          -0.974688033597587 -0.4221007141508246 0.19537985714206357,
          -0.97757478494353 -0.4199874654967737 0.19249310579611506,
          -0.97757478494353 0.4200125345032274 0.19249310579611517,
          -0.974688033597587 0.42212578315727833 0.19537985714206368,
          -0.9725747849435306 0.42501253450322685 0.19249310579611517,
          0.22242521505647006 -0.47498746549677306 0.0024931057961153358,
          0.22242521505646995 0.47501253450322695 0.002493105796115447,
          0.22242521505647006 -0.47498746549677306 0.19249310579611506,
          0.22242521505647006 -0.4699874654967736 0.19749310579611523,
          0.22242521505646995 0.4700125345032275 0.1974931057961153,
          0.22242521505646995 0.47501253450322695 0.19249310579611517,
          1.7174252150564708 -0.4699874654967734 0.19749310579611523,
          1.7174252150564708 0.4700125345032277 0.1974931057961153,
          1.7174252150564708 0.4700125345032277 -0.002506894203884724,
          1.7174252150564708 -0.4699874654967734 -0.0025068942038847797,
          0.2274252150564695 -0.46998746549677356 -0.0025068942038847797,
          0.2274252150564694 0.47001253450322755 -0.002506894203884724,
          1.7224252150564703 -0.4699874654967734 0.0024931057961153358,
          1.7195384637105273 -0.47210071415082433 -3.93645549833177e-4,
          1.7174252150564708 -0.47498746549677284 0.0024931057961153358,
          1.7174252150564708 0.47501253450322717 0.002493105796115447,
          1.7195384637105273 0.47212578315727866 -3.93645549833066e-4,
          1.7224252150564703 0.4700125345032277 0.002493105796115447,
          1.7224252150564703 -0.4699874654967734 0.19249310579611506,
          1.7195384637105273 -0.47210071415082433 0.19537985714206357,
          1.7174252150564708 -0.47498746549677284 0.19249310579611506,
          1.7224252150564703 0.4700125345032277 0.19249310579611517,
          1.7174252150564708 0.47501253450322717 0.19249310579611517,
          1.7195384637105273 0.47212578315727866 0.19537985714206368 ] }
        coordIndex [
          0, 1, 5, 4, 3, 2, -1,
          0, 2, 18, 12, -1,
          0, 9, 8, 1, -1,
          0, 12, 13, 10, 9, -1,
          1, 8, 11, 17, 16, -1,
          1, 16, 23, 5, -1,
          2, 3, 7, 19, 18, -1,
          3, 4, 6, 7, -1,
          4, 5, 23, 22, 6, -1,
          6, 22, 21, 20, 19, 7, -1,
          8, 9, 10, 11, -1,
          10, 13, 14, 15, 17, 11, -1,
          12, 18, 19, 20, 14, 13, -1,
          14, 20, 21, 15, -1,
          15, 21, 22, 23, 16, 17, -1,
          24, 25, 35, 34, -1,
          24, 26, 27, 28, 29, 25, -1,
          24, 34, 33, 37, 38, -1,
          24, 38, 44, 26, -1,
          25, 29, 46, 39, -1,
          25, 39, 40, 32, 35, -1,
          26, 44, 43, 30, 27, -1,
          27, 30, 31, 28, -1,
          28, 31, 47, 46, 29, -1,
          30, 43, 42, 45, 47, 31, -1,
          32, 33, 34, 35, -1,
          32, 40, 41, 36, 37, 33, -1,
          36, 41, 45, 42, -1,
          36, 42, 43, 44, 38, 37, -1,
          39, 46, 47, 45, 41, 40, -1 ]
        normal Normal { vector [
          0.6101314768988204 -0.6101314768988184 -0.5054494651243887,
          0.6101314768988202 0.6101314768988209 -0.5054494651243863,
          0.4759631494779626 -0.8125199200687594 0.3365567705907506,
          0.4759631494779731 -0.3365567705908042 0.8125199200687312,
          0.47596314947797264 0.3365567705908022 0.8125199200687324,
          0.4759631494779629 0.8125199200687584 0.33655677059075284,
          -0.27059805007312554 0.27059805007312215 0.9238795325112719,
          -0.2705980500731258 -0.270598050073124 0.9238795325112713,
          0.27059805007312393 0.2705980500731245 -0.9238795325112718,
          0.27059805007312354 -0.2705980500731214 -0.9238795325112729,
          -0.2705980500731236 -0.2705980500731214 -0.9238795325112729,
          -0.27059805007312404 0.2705980500731245 -0.9238795325112718,
          -0.2705980500730916 -0.9238795325112948 -0.27059805007307824,
          -0.5773502691896423 -0.5773502691896472 -0.577350269189588,
          -0.9238795325112928 -0.27059805007309906 -0.270598050073077,
          -0.9238795325112941 0.27059805007309573 -0.2705980500730765,
          -0.2705980500730947 0.9238795325112945 -0.2705980500730759,
          -0.5773502691896454 0.5773502691896467 -0.5773502691895853,
          -0.2705980500730913 -0.9238795325112954 0.270598050073076,
          -0.5773502691896439 -0.5773502691896492 0.5773502691895842,
          -0.9238795325112935 -0.27059805007309884 0.27059805007307514,
          -0.9238795325112946 0.27059805007309534 0.2705980500730745,
          -0.5773502691896472 0.5773502691896444 0.5773502691895858,
          -0.270598050073095 0.9238795325112936 0.27059805007307824,
          -0.6101314768988202 -0.6101314768988209 -0.5054494651243863,
          -0.6101314768988203 0.6101314768988211 -0.5054494651243858,
          -0.4759631494779615 -0.8125199200687624 0.3365567705907455,
          -0.475963149477974 -0.33655677059080946 0.8125199200687285,
          -0.4759631494779725 0.33655677059080125 0.8125199200687327,
          -0.47596314947796337 0.8125199200687581 0.3365567705907536,
          0.27059805007312576 -0.270598050073128 0.9238795325112702,
          0.2705980500731247 0.27059805007312154 0.9238795325112724,
          0.27059805007312404 0.27059805007312504 -0.9238795325112715,
          0.27059805007312404 -0.2705980500731243 -0.9238795325112718,
          -0.27059805007312393 -0.27059805007312443 -0.9238795325112719,
          -0.27059805007312404 0.270598050073125 -0.9238795325112715,
          0.9238795325112956 -0.27059805007309107 -0.2705980500730758,
          0.5773502691896496 -0.5773502691896426 -0.5773502691895853,
          0.2705980500730993 -0.923879532511293 -0.27059805007307647,
          0.2705980500730958 0.9238795325112943 -0.27059805007307547,
          0.5773502691896466 0.577350269189646 -0.5773502691895848,
          0.9238795325112944 0.2705980500730944 -0.27059805007307625,
          0.923879532511296 -0.2705980500730909 0.27059805007307464,
          0.5773502691896506 -0.5773502691896456 0.5773502691895811,
          0.2705980500730988 -0.9238795325112941 0.2705980500730731,
          0.9238795325112948 0.27059805007309423 0.2705980500730751,
          0.2705980500730963 0.9238795325112931 0.27059805007307913,
          0.5773502691896476 0.5773502691896427 0.577350269189587 ] }
        normalIndex [
          0, 1, 5, 4, 3, 2, -1,
          0, 2, 18, 12, -1,
          0, 9, 8, 1, -1,
          0, 12, 13, 10, 9, -1,
          1, 8, 11, 17, 16, -1,
          1, 16, 23, 5, -1,
          2, 3, 7, 19, 18, -1,
          3, 4, 6, 7, -1,
          4, 5, 23, 22, 6, -1,
          6, 22, 21, 20, 19, 7, -1,
          8, 9, 10, 11, -1,
          10, 13, 14, 15, 17, 11, -1,
          12, 18, 19, 20, 14, 13, -1,
          14, 20, 21, 15, -1,
          15, 21, 22, 23, 16, 17, -1,
          24, 25, 35, 34, -1,
          24, 26, 27, 28, 29, 25, -1,
          24, 34, 33, 37, 38, -1,
          24, 38, 44, 26, -1,
          25, 29, 46, 39, -1,
          25, 39, 40, 32, 35, -1,
          26, 44, 43, 30, 27, -1,
          27, 30, 31, 28, -1,
          28, 31, 47, 46, 29, -1,
          30, 43, 42, 45, 47, 31, -1,
          32, 33, 34, 35, -1,
          32, 40, 41, 36, 37, 33, -1,
          36, 41, 45, 42, -1,
          36, 42, 43, 44, 38, 37, -1,
          39, 46, 47, 45, 41, 40, -1 ]
      }
    }
  ]
}

