#VRML V2.0 utf8
#Exported from Wings 3D 1.5.1
DEF Cube1 Transform {
  children [
    Shape {
      appearance Appearance {
        material DEF white Material {
          diffuseColor 1.0 1.0 1.0
          emissiveColor 0.0 0.0 0.0
          specularColor 0.0 0.0 0.0
          ambientIntensity 1.0
          transparency 0.0
          shininess 0.0
        }
      }
      geometry IndexedFaceSet {
        normalPerVertex TRUE
        coord Coordinate { point [
          0.7483254523264425 0.7438299380128537 1.5300477441846192,
          0.7483254523264425 -0.7423580619871464 1.5300477441846192,
          0.7483254523264425 0.7066752380128537 1.6300477441846193,
          0.7483254523264425 -0.7052033619871464 1.6300477441846193,
          1.093475452326443 0.7438299380128537 1.5300477441846192,
          1.0934754523264427 -0.7423580619871464 1.5300477441846192,
          1.093475452326443 0.7066752380128537 1.6300477441846193,
          1.0934754523264427 -0.7052033619871464 1.6300477441846193 ] }
        coordIndex [
          0, 1, 3, 2, -1,
          0, 2, 6, 4, -1,
          0, 4, 5, 1, -1,
          1, 5, 7, 3, -1,
          2, 3, 7, 6, -1,
          4, 6, 7, 5, -1 ]
        normal Normal { vector [
          -0.658889091773753 0.6176354080699872 -0.42940850881157383,
          -0.658889091773753 -0.6176354080699871 -0.4294085088115737,
          -0.5201165108390472 0.48755151273064307 0.7012648127395792,
          -0.5201165108390471 -0.487551512730643 0.7012648127395791,
          0.658889091773753 0.6176354080699871 -0.42940850881157383,
          0.658889091773753 -0.6176354080699872 -0.4294085088115737,
          0.5201165108390472 0.487551512730643 0.7012648127395792,
          0.5201165108390471 -0.48755151273064307 0.7012648127395791 ] }
        normalIndex [
          0, 1, 3, 2, -1,
          0, 2, 6, 4, -1,
          0, 4, 5, 1, -1,
          1, 5, 7, 3, -1,
          2, 3, 7, 6, -1,
          4, 6, 7, 5, -1 ]
      }
    },
    Shape {
      appearance Appearance {
        material DEF epoxy Material {
          diffuseColor 0.151 0.151 0.151
          emissiveColor 0.0 0.0 0.0
          specularColor 0.0 0.0 0.0
          ambientIntensity 1.0
          transparency 0.0
          shininess 0.0
        }
      }
      geometry IndexedFaceSet {
        normalPerVertex TRUE
        coord Coordinate { point [
          1.1999374636380398 0.7513359380128535 0.2731528690331982,
          -1.2000625363619601 0.7513359380128536 0.2731528690331982,
          1.1999374636380398 -0.7506640619871465 0.2731528690331982,
          -1.2000625363619601 -0.7506640619871464 0.2731528690331982,
          1.7499374636380396 0.7102955086006123 0.2731528690331982,
          1.7421307011334362 0.7291427005174725 0.2731528690331982,
          1.7277442261426463 0.7435291755082379 0.2731528690331982,
          1.7088970342257983 0.7513359380128536 0.2731528690331982,
          -1.7500625363619604 0.7102955086006122 0.2731528690331982,
          -1.742255773857357 0.7291427005174724 0.2731528690331982,
          -1.7090221069497191 0.7513359380128535 0.2731528690331982,
          -1.7278692988665671 0.7435291755082378 0.2731528690331982,
          -1.2000625363619601 0.7102955086006123 0.023152869033198242,
          -1.2000625363619601 0.7291427005174725 0.030959631537809264,
          -1.2000625363619601 0.7435291755082379 0.04534610652858704,
          -1.2000625363619601 0.7513359380128536 0.0641932984454442,
          1.1999374636380398 0.7102955086006122 0.023152869033198242,
          1.1999374636380398 0.7291427005174724 0.030959631537809264,
          1.1999374636380398 0.7513359380128535 0.0641932984454442,
          1.1999374636380398 0.7435291755082378 0.04534610652858704,
          1.7499374636380396 -0.7096236325749051 0.2731528690331982,
          1.7421307011334362 -0.7284708244917654 0.2731528690331982,
          1.7088970342257983 -0.7506640619871464 0.2731528690331982,
          1.7277442261426463 -0.7428572994825308 0.2731528690331982,
          -1.7500625363619604 -0.7096236325749052 0.2731528690331982,
          -1.742255773857357 -0.7284708244917655 0.2731528690331982,
          -1.7278692988665671 -0.7428572994825309 0.2731528690331982,
          -1.7090221069497191 -0.7506640619871465 0.2731528690331982,
          -1.2000625363619601 -0.7096236325749051 0.023152869033198242,
          -1.2000625363619601 -0.7284708244917654 0.030959631537809264,
          -1.2000625363619601 -0.7506640619871464 0.0641932984454442,
          -1.2000625363619601 -0.7428572994825308 0.04534610652858704,
          1.1999374636380398 -0.7096236325749052 0.023152869033198242,
          1.1999374636380398 -0.7284708244917655 0.030959631537809264,
          1.1999374636380398 -0.7428572994825309 0.04534610652858704,
          1.1999374636380398 -0.7506640619871465 0.0641932984454442,
          1.3995666485426173 0.7290447171933077 1.5938662572430753,
          1.3987347440497926 0.7213359380128571 1.6008694786696367,
          1.3987347440497926 -0.7206640619871495 1.6008694786696367,
          1.3995666485426173 -0.7283728411676 1.5938662572430753,
          1.384623086428136 -0.7429552828066956 1.593399573878319,
          1.374979695382975 -0.7429552828066956 1.6008616482136397,
          -1.3751047681068957 -0.7429552828066958 1.6008616482136397,
          -1.3847481591520567 -0.7429552828066958 1.593399573878319,
          -1.3847481591520567 0.7436271588324032 1.593399573878319,
          -1.3751047681068957 0.7436271588324032 1.6008616482136397,
          1.384623086428136 0.7436271588324033 1.593399573878319,
          1.374979695382975 0.7436271588324033 1.6008616482136397,
          -1.399691721266538 -0.7283728411676001 1.5938662572430753,
          -1.3988598167737134 -0.7206640619871496 1.6008694786696367,
          -1.399691721266538 0.7290447171933075 1.5938662572430753,
          -1.3988598167737134 0.721335938012857 1.6008694786696367,
          1.3716811748242863 0.7290447171933077 1.61544408985276,
          1.378669047989785 0.7213359380128571 1.6163963524517544,
          -1.3787941207137058 0.721335938012857 1.6163963524517544,
          -1.3718062475482071 0.7290447171933075 1.61544408985276,
          -1.3718062475482071 -0.7283728411676001 1.61544408985276,
          -1.3787941207137058 -0.7206640619871496 1.6163963524517544,
          1.378669047989785 -0.7206640619871495 1.6163963524517544,
          1.3716811748242863 -0.7283728411676 1.61544408985276,
          1.410237058400725 0.7102955086006125 1.583425860662709,
          1.410237058400725 -0.7096236325749049 1.583425860662709,
          -1.36831158495515 0.7513359380128537 1.582112439620957,
          1.3681865122312291 0.7513359380128538 1.582112439620957,
          1.3681865122312291 -0.7506640619871462 1.582112439620957,
          -1.36831158495515 -0.7506640619871463 1.582112439620957,
          -1.410362131124646 -0.709623632574905 1.583425860662709,
          -1.410362131124646 0.7102955086006124 1.583425860662709,
          1.3588970342257982 0.7102955086006125 1.6231528690331982,
          -1.359022106949719 0.7102955086006124 1.6231528690331982,
          -1.359022106949719 -0.709623632574905 1.6231528690331982,
          1.3588970342257982 -0.7096236325749049 1.6231528690331982 ] }
        coordIndex [
          0, 2, 35, 34, 33, 32, 16, 17, 19, 18, -1,
          0, 7, 6, 5, 4, 20, 21, 23, 22, 2, -1,
          0, 18, 15, 1, 10, 62, 63, 7, -1,
          1, 3, 27, 26, 25, 24, 8, 9, 11, 10, -1,
          1, 15, 14, 13, 12, 28, 29, 31, 30, 3, -1,
          2, 22, 64, 65, 27, 3, 30, 35, -1,
          4, 5, 36, 60, -1,
          4, 60, 61, 20, -1,
          5, 6, 46, 36, -1,
          6, 7, 63, 46, -1,
          8, 24, 66, 67, -1,
          8, 67, 50, 9, -1,
          9, 50, 44, 11, -1,
          10, 11, 44, 62, -1,
          12, 13, 17, 16, -1,
          12, 16, 32, 28, -1,
          13, 14, 19, 17, -1,
          14, 15, 18, 19, -1,
          20, 61, 39, 21, -1,
          21, 39, 40, 23, -1,
          22, 23, 40, 64, -1,
          24, 25, 48, 66, -1,
          25, 26, 43, 48, -1,
          26, 27, 65, 43, -1,
          28, 32, 33, 29, -1,
          29, 33, 34, 31, -1,
          30, 31, 34, 35, -1,
          36, 37, 60, -1,
          36, 46, 47, 52, 53, 37, -1,
          37, 38, 61, 60, -1,
          37, 53, 58, 38, -1,
          38, 39, 61, -1,
          38, 58, 59, 41, 40, 39, -1,
          40, 41, 64, -1,
          41, 42, 65, 64, -1,
          41, 59, 56, 42, -1,
          42, 43, 65, -1,
          42, 56, 57, 49, 48, 43, -1,
          44, 45, 62, -1,
          44, 50, 51, 54, 55, 45, -1,
          45, 47, 63, 62, -1,
          45, 55, 52, 47, -1,
          46, 63, 47, -1,
          48, 49, 66, -1,
          49, 51, 67, 66, -1,
          49, 57, 54, 51, -1,
          50, 67, 51, -1,
          52, 55, 69, 68, -1,
          52, 68, 53, -1,
          53, 68, 71, 58, -1,
          54, 57, 70, 69, -1,
          54, 69, 55, -1,
          56, 59, 71, 70, -1,
          56, 70, 57, -1,
          58, 71, 59, -1,
          68, 69, 70, 71, -1 ]
        normal Normal { vector [
          0.5773502691896257 0.5773502691896257 -0.5773502691896258,
          -0.5773502691896257 0.5773502691896257 -0.5773502691896258,
          0.5773502691896258 -0.5773502691896258 -0.5773502691896256,
          -0.5773502691896258 -0.5773502691896258 -0.5773502691896256,
          0.9460160588235739 0.1908341546150079 -0.26198462145761087,
          0.7909092566524316 0.537105482292775 -0.2932238882365207,
          0.5137102727962934 0.783664723092395 -0.3492439797678371,
          0.17361590666938348 0.8914132269658248 -0.41861674087611805,
          -0.9460160588235739 0.1908341546150079 -0.26198462145761087,
          -0.7909092566524316 0.537105482292775 -0.2932238882365207,
          -0.1736159066693835 0.8914132269658248 -0.41861674087611805,
          -0.5137102727962934 0.783664723092395 -0.3492439797678371,
          -0.45418154824958756 0.17380775380102265 -0.8737905847216774,
          -0.45418154824960644 0.4949626064582699 -0.7407638891290709,
          -0.45418154824956597 0.7407638891292347 -0.49496260645806156,
          -0.4541815482495972 0.8737905847216494 -0.17380775380113864,
          0.45418154824958756 0.17380775380102265 -0.8737905847216774,
          0.45418154824960644 0.4949626064582699 -0.7407638891290709,
          0.4541815482495972 0.8737905847216494 -0.17380775380113864,
          0.45418154824956597 0.7407638891292347 -0.49496260645806156,
          0.9460160588235739 -0.1908341546150079 -0.2619846214576108,
          0.7909092566524317 -0.5371054822927751 -0.2932238882365205,
          0.1736159066693835 -0.8914132269658249 -0.41861674087611783,
          0.5137102727962936 -0.783664723092395 -0.349243979767837,
          -0.9460160588235739 -0.1908341546150079 -0.2619846214576108,
          -0.7909092566524317 -0.5371054822927751 -0.2932238882365205,
          -0.5137102727962936 -0.783664723092395 -0.349243979767837,
          -0.17361590666938348 -0.8914132269658249 -0.41861674087611783,
          -0.45418154824958756 -0.17380775380102265 -0.8737905847216774,
          -0.45418154824960644 -0.4949626064582699 -0.7407638891290709,
          -0.4541815482495972 -0.8737905847216494 -0.17380775380113841,
          -0.45418154824956597 -0.7407638891292347 -0.49496260645806156,
          0.45418154824958756 -0.17380775380102265 -0.8737905847216774,
          0.45418154824960644 -0.4949626064582699 -0.7407638891290709,
          0.45418154824956597 -0.7407638891292347 -0.49496260645806156,
          0.4541815482495972 -0.8737905847216494 -0.17380775380113841,
          0.7775564602857116 0.49601438921947855 0.3864914963555891,
          0.7441815913021922 0.2150986382094314 0.6323972920620273,
          0.744181591302192 -0.21509863820943143 0.6323972920620275,
          0.7775564602857113 -0.4960143892194785 0.38649149635558927,
          0.47648908483527336 -0.8165031782178226 0.3260072269030831,
          0.19584717211109434 -0.8186891160433636 0.539807388286066,
          -0.19584717211109487 -0.8186891160433618 0.5398073882860683,
          -0.47648908483527386 -0.8165031782178214 0.3260072269030858,
          -0.476489084835273 0.8165031782178216 0.3260072269030861,
          -0.1958471721110939 0.8186891160433617 0.5398073882860687,
          0.47648908483527364 0.8165031782178231 0.32600722690308137,
          0.1958471721110946 0.8186891160433643 0.5398073882860644,
          -0.7775564602857092 -0.4960143892194813 0.38649149635559027,
          -0.7441815913021902 -0.2150986382094346 0.6323972920620285,
          -0.7775564602857082 0.49601438921948166 0.38649149635559177,
          -0.744181591302189 0.2150986382094347 0.63239729206203,
          0.17896879347337846 0.4987602618395561 0.8480615379631484,
          0.4253971984456855 0.21509863820898992 0.8790732616768638,
          -0.425397198445684 0.21509863820898695 0.8790732616768653,
          -0.1789687934733771 0.4987602618395534 0.8480615379631503,
          -0.17896879347337832 -0.49876026183955374 0.8480615379631499,
          -0.4253971984456853 -0.21509863820898723 0.8790732616768648,
          0.42539719844568524 -0.21509863820898947 0.8790732616768642,
          0.17896879347337813 -0.4987602618395557 0.8480615379631488,
          0.9148477244664217 0.16605279854113805 0.36807622734328577,
          0.9148477244664217 -0.166052798541138 0.36807622734328593,
          -0.15504460294167025 0.9677029875615452 0.19877650505811745,
          0.15504460294166966 0.9677029875615463 0.19877650505811315,
          0.1550446029416695 -0.9677029875615458 0.19877650505811498,
          -0.1550446029416702 -0.967702987561545 0.19877650505811764,
          -0.9148477244664206 -0.16605279854114127 0.3680762273432873,
          -0.9148477244664203 0.16605279854114116 0.36807622734328826,
          0.12671883380251966 0.16713740604152288 0.9777563217189857,
          -0.12671883380251914 0.16713740604151975 0.9777563217189862,
          -0.12671883380251944 -0.16713740604152025 0.9777563217189861,
          0.12671883380251936 -0.16713740604152239 0.9777563217189857 ] }
        normalIndex [
          0, 2, 35, 34, 33, 32, 16, 17, 19, 18, -1,
          0, 7, 6, 5, 4, 20, 21, 23, 22, 2, -1,
          0, 18, 15, 1, 10, 62, 63, 7, -1,
          1, 3, 27, 26, 25, 24, 8, 9, 11, 10, -1,
          1, 15, 14, 13, 12, 28, 29, 31, 30, 3, -1,
          2, 22, 64, 65, 27, 3, 30, 35, -1,
          4, 5, 36, 60, -1,
          4, 60, 61, 20, -1,
          5, 6, 46, 36, -1,
          6, 7, 63, 46, -1,
          8, 24, 66, 67, -1,
          8, 67, 50, 9, -1,
          9, 50, 44, 11, -1,
          10, 11, 44, 62, -1,
          12, 13, 17, 16, -1,
          12, 16, 32, 28, -1,
          13, 14, 19, 17, -1,
          14, 15, 18, 19, -1,
          20, 61, 39, 21, -1,
          21, 39, 40, 23, -1,
          22, 23, 40, 64, -1,
          24, 25, 48, 66, -1,
          25, 26, 43, 48, -1,
          26, 27, 65, 43, -1,
          28, 32, 33, 29, -1,
          29, 33, 34, 31, -1,
          30, 31, 34, 35, -1,
          36, 37, 60, -1,
          36, 46, 47, 52, 53, 37, -1,
          37, 38, 61, 60, -1,
          37, 53, 58, 38, -1,
          38, 39, 61, -1,
          38, 58, 59, 41, 40, 39, -1,
          40, 41, 64, -1,
          41, 42, 65, 64, -1,
          41, 59, 56, 42, -1,
          42, 43, 65, -1,
          42, 56, 57, 49, 48, 43, -1,
          44, 45, 62, -1,
          44, 50, 51, 54, 55, 45, -1,
          45, 47, 63, 62, -1,
          45, 55, 52, 47, -1,
          46, 63, 47, -1,
          48, 49, 66, -1,
          49, 51, 67, 66, -1,
          49, 57, 54, 51, -1,
          50, 67, 51, -1,
          52, 55, 69, 68, -1,
          52, 68, 53, -1,
          53, 68, 71, 58, -1,
          54, 57, 70, 69, -1,
          54, 69, 55, -1,
          56, 59, 71, 70, -1,
          56, 70, 57, -1,
          58, 71, 59, -1,
          68, 69, 70, 71, -1 ]
      }
    },
    Shape {
      appearance Appearance {
        material DEF default Material {
          diffuseColor 0.7898538076923077 0.8133333333333334 0.6940444444444445
          emissiveColor 0.0 0.0 0.0
          specularColor 0.0 0.0 0.0
          ambientIntensity 0.765743861823362
          transparency 0.0
          shininess 0.0
        }
      }
      geometry IndexedFaceSet {
        normalPerVertex TRUE
        coord Coordinate { point [
          1.1999374636380398 0.7513359380128534 1.5286903319827738e-4,
          1.1999374636380398 -0.7498640619871464 1.528690331983884e-4,
          1.1999374636380398 0.7513359380128534 0.2651528690331987,
          1.1999374636380398 0.7471659380128539 0.27015286903319813,
          1.1999374636380398 -0.7456940619871468 0.27015286903319824,
          1.1999374636380398 -0.7498640619871464 0.2651528690331988,
          2.0949374636380296 -0.7456940619871469 0.27015286903319824,
          2.0949374636380296 0.747165938012854 0.27015286903319813,
          1.2049374636380392 -0.7456940619871468 -0.004847130966801727,
          1.2049374636380392 0.7471659380128539 -0.004847130966801838,
          2.0949374636380296 0.747165938012854 -0.004847130966801838,
          2.0949374636380296 -0.7456940619871469 -0.004847130966801727,
          2.0949374636380296 0.7513359380128535 1.5286903319827738e-4,
          2.097050712292097 0.7489283873903325 -0.002733882312748126,
          2.09993746363804 0.747165938012854 1.5286903319827738e-4,
          2.09993746363804 -0.7456940619871469 1.528690331983884e-4,
          2.0949374636380296 -0.7498640619871464 1.528690331983884e-4,
          2.097050712292097 -0.7474565113646254 -0.002733882312748015,
          2.0949374636380296 0.7513359380128535 0.2651528690331987,
          2.097050712292097 0.7489283873903325 0.2680396203791444,
          2.09993746363804 0.747165938012854 0.2651528690331987,
          2.09993746363804 -0.7456940619871469 0.2651528690331988,
          2.097050712292097 -0.7474565113646254 0.2680396203791445,
          2.0949374636380296 -0.7498640619871464 0.2651528690331988,
          -1.2000625363619601 0.7513359380128536 1.5286903319827738e-4,
          -1.2000625363619606 -0.7498640619871465 1.528690331983884e-4,
          -1.2000625363619601 0.7513359380128536 0.2651528690331987,
          -1.2000625363619601 0.7471659380128541 0.27015286903319813,
          -1.2000625363619606 -0.7456940619871469 0.27015286903319824,
          -1.2000625363619606 -0.7498640619871465 0.2651528690331988,
          -2.095062536361949 0.747165938012854 0.27015286903319813,
          -2.095062536361949 -0.7456940619871469 0.27015286903319824,
          -2.095062536361949 -0.7456940619871469 -0.004847130966801727,
          -2.095062536361949 0.747165938012854 -0.004847130966801838,
          -1.2050625363619596 0.7471659380128541 -0.004847130966801838,
          -1.20506253636196 -0.7456940619871469 -0.004847130966801727,
          -2.1000625363619596 0.747165938012854 1.5286903319827738e-4,
          -2.0971757850160166 0.7489283873903325 -0.002733882312748126,
          -2.095062536361949 0.7513359380128535 1.5286903319827738e-4,
          -2.095062536361949 -0.7498640619871464 1.528690331983884e-4,
          -2.0971757850160166 -0.7474565113646254 -0.002733882312748015,
          -2.1000625363619596 -0.7456940619871469 1.528690331983884e-4,
          -2.1000625363619596 0.747165938012854 0.2651528690331987,
          -2.0971757850160166 0.7489283873903325 0.2680396203791444,
          -2.095062536361949 0.7513359380128535 0.2651528690331987,
          -2.1000625363619596 -0.7456940619871469 0.2651528690331988,
          -2.095062536361949 -0.7498640619871464 0.2651528690331988,
          -2.0971757850160166 -0.7474565113646254 0.2680396203791445 ] }
        coordIndex [
          0, 1, 5, 4, 3, 2, -1,
          0, 2, 18, 12, -1,
          0, 9, 8, 1, -1,
          0, 12, 13, 10, 9, -1,
          1, 8, 11, 17, 16, -1,
          1, 16, 23, 5, -1,
          2, 3, 7, 19, 18, -1,
          3, 4, 6, 7, -1,
          4, 5, 23, 22, 6, -1,
          6, 22, 21, 20, 19, 7, -1,
          8, 9, 10, 11, -1,
          10, 13, 14, 15, 17, 11, -1,
          12, 14, 13, -1,
          12, 18, 20, 14, -1,
          14, 20, 21, 15, -1,
          15, 16, 17, -1,
          15, 21, 23, 16, -1,
          18, 19, 20, -1,
          21, 22, 23, -1,
          24, 25, 35, 34, -1,
          24, 26, 27, 28, 29, 25, -1,
          24, 34, 33, 37, 38, -1,
          24, 38, 44, 26, -1,
          25, 29, 46, 39, -1,
          25, 39, 40, 32, 35, -1,
          26, 44, 43, 30, 27, -1,
          27, 30, 31, 28, -1,
          28, 31, 47, 46, 29, -1,
          30, 43, 42, 45, 47, 31, -1,
          32, 33, 34, 35, -1,
          32, 40, 41, 36, 37, 33, -1,
          36, 38, 37, -1,
          36, 41, 45, 42, -1,
          36, 42, 44, 38, -1,
          39, 41, 40, -1,
          39, 46, 45, 41, -1,
          42, 43, 44, -1,
          45, 46, 47, -1 ]
        normal Normal { vector [
          -0.60906225816096 0.6307768578907852 -0.48079488478279425,
          -0.60906225816096 -0.6307768578907818 -0.4807948847827987,
          -0.4695333062262872 0.8301205303298759 0.3007297449023912,
          -0.4833133100472211 0.3711698457409398 0.7928689613951638,
          -0.4833133100472199 -0.3711698457409341 0.7928689613951672,
          -0.46953330622628814 -0.8301205303298732 0.3007297449023971,
          0.27522069111678404 -0.2989097008512743 0.9137322156508445,
          0.2752206911167849 0.29890970085127894 0.9137322156508428,
          -0.275220691117167 -0.298909700851358 -0.9137322156507017,
          -0.2752206911171679 0.2989097008513628 -0.9137322156507001,
          0.2752206911168092 0.29890970085130436 -0.9137322156508272,
          0.27522069111680836 -0.2989097008512997 -0.913732215650829,
          0.3511598881833638 0.9092348583751874 -0.22355917616260018,
          0.5283357509286689 0.601962330439974 -0.5987509390572301,
          0.8611191201117545 0.44080671094014856 -0.2533047661772003,
          0.8611191201117518 -0.44080671094014634 -0.25330476617721276,
          0.35115988818336275 -0.9092348583751838 -0.22355917616261595,
          0.5283357509286626 -0.6019623304399627 -0.5987509390572473,
          0.3511598881833685 0.9092348583751786 0.2235591761626278,
          0.5283357509286484 0.6019623304399441 0.5987509390572784,
          0.8611191201117478 0.4408067109401469 0.2533047661772254,
          0.8611191201117453 -0.4408067109401447 0.25330476617723785,
          0.528335750928642 -0.601962330439933 0.5987509390572952,
          0.35115988818336763 -0.9092348583751751 0.2235591761626433,
          0.6090622581609599 0.6307768578907867 -0.4807948847827924,
          0.6090622581609598 -0.6307768578907847 -0.4807948847827948,
          0.46953330622628514 0.8301205303298811 0.3007297449023796,
          0.48331331004722367 0.3711698457409505 0.7928689613951573,
          0.48331331004722106 -0.37116984574093964 0.792868961395164,
          0.4695333062262871 -0.8301205303298759 0.3007297449023914,
          -0.2752206911167865 0.29890970085128776 0.9137322156508394,
          -0.2752206911167849 -0.29890970085127866 0.9137322156508428,
          -0.27522069111680914 -0.2989097008513038 -0.9137322156508274,
          -0.27522069111680963 0.2989097008513065 -0.9137322156508262,
          0.2752206911171681 0.29890970085136487 -0.9137322156506993,
          0.2752206911171676 -0.29890970085136226 -0.9137322156507001,
          -0.8611191201117544 0.44080671094014856 -0.2533047661772003,
          -0.5283357509286691 0.6019623304399758 -0.5987509390572282,
          -0.35115988818336363 0.9092348583751878 -0.22355917616259857,
          -0.35115988818336236 -0.9092348583751848 -0.22355917616261275,
          -0.5283357509286628 -0.6019623304399663 -0.5987509390572434,
          -0.861119120111752 -0.44080671094014634 -0.2533047661772128,
          -0.8611191201117547 0.4408067109401327 0.2533047661772271,
          -0.5283357509286648 0.601962330439935 0.5987509390572732,
          -0.35115988818338123 0.9092348583751744 0.22355917616262527,
          -0.8611191201117521 -0.4408067109401305 0.25330476617723957,
          -0.35115988818338084 -0.9092348583751699 0.2235591761626443,
          -0.5283357509286581 -0.60196233043992 0.5987509390572942 ] }
        normalIndex [
          0, 1, 5, 4, 3, 2, -1,
          0, 2, 18, 12, -1,
          0, 9, 8, 1, -1,
          0, 12, 13, 10, 9, -1,
          1, 8, 11, 17, 16, -1,
          1, 16, 23, 5, -1,
          2, 3, 7, 19, 18, -1,
          3, 4, 6, 7, -1,
          4, 5, 23, 22, 6, -1,
          6, 22, 21, 20, 19, 7, -1,
          8, 9, 10, 11, -1,
          10, 13, 14, 15, 17, 11, -1,
          12, 14, 13, -1,
          12, 18, 20, 14, -1,
          14, 20, 21, 15, -1,
          15, 16, 17, -1,
          15, 21, 23, 16, -1,
          18, 19, 20, -1,
          21, 22, 23, -1,
          24, 25, 35, 34, -1,
          24, 26, 27, 28, 29, 25, -1,
          24, 34, 33, 37, 38, -1,
          24, 38, 44, 26, -1,
          25, 29, 46, 39, -1,
          25, 39, 40, 32, 35, -1,
          26, 44, 43, 30, 27, -1,
          27, 30, 31, 28, -1,
          28, 31, 47, 46, 29, -1,
          30, 43, 42, 45, 47, 31, -1,
          32, 33, 34, 35, -1,
          32, 40, 41, 36, 37, 33, -1,
          36, 38, 37, -1,
          36, 41, 45, 42, -1,
          36, 42, 44, 38, -1,
          39, 41, 40, -1,
          39, 46, 45, 41, -1,
          42, 43, 44, -1,
          45, 46, 47, -1 ]
      }
    }
  ]
}

