# Exported from Wings 3D 1.5.1
newmtl default
Ns 0.0
d 1.0
illum 2
Kd 0.7898538076923077 0.8133333333333334 0.6940444444444445
Ka 0.7898538076923077 0.8133333333333334 0.6940444444444445
Ks 0.0 0.0 0.0
Ke 0.0 0.0 0.0

newmtl epoxy
Ns 0.0
d 1.0
illum 2
Kd 0.151 0.151 0.151
Ka 1.0 1.0 1.0
Ks 0.0 0.0 0.0
Ke 0.0 0.0 0.0

newmtl silk
Ns 0.0
d 1.0
illum 2
Kd 1.0 1.0 1.0
Ka 1.0 1.0 1.0
Ks 0.0 0.0 0.0
Ke 0.0 0.0 0.0

